EDI_INDEF_20180613
TableName	Actflag	Created	Changed	IndefID	SecID	ISIN	DefaultType	DefaultDate	Notes
INDEF	I	2008/11/03	2008/11/03	4583	260850	US040114BC38	INTDEFA	2008/08/25	Issuer has fails to pay the interest for the period 25/02/2008 to 24/02/2008.
INDEF	I	2008/11/03	2008/11/03	4584	260853	US040114FB19	INTDEFA	2008/10/01	Issuer has fails to pay the interest for the period 01/02/2008 to 30/09/2008.
INDEF	I	2008/11/03	2008/11/03	4586	185454	US040114GG96	INTDEFA	2008/12/19	The issuer has fails to pay the interest for the period 19/06/2008 to 18/12/2008.
INDEF	I	2008/11/03	2008/11/03	4587	185461	US040114GH79	INTDEFA	2008/12/19	Issuer has fails to pay the interest for the period 19/06/2008 to 19/12/2008
INDEF	I	2008/11/03	2008/11/03	4588	185273	US040114GB00	INTDEFA	2008/07/21	The issue has fails to pay the interest for the period 21/01/2008 to 20/07/2008.
INDEF	I	2008/11/03	2008/11/03	4591	185276	US040114AV28	INTDEFA	2008/09/19	The issuer has fails to pay the interest for the period 19/03/2008 to 18/09/2008.
INDEF	I	2009/10/15	2009/10/15	5855	298131	US27927WAD48	INTDEFA	2009/08/15	
INDEF	U	2011/01/03	2011/01/03	11568	1292272	US040114BK53	REDDEFA	2003/10/15	
INDEF	U	2011/01/03	2011/01/03	11569	1292287	US040114BL37	REDDEFA	2004/10/15	
INDEF	I	2012/05/16	2012/05/16	13553	287393	US040114AH34	REDDEFA	2003/12/20	
INDEF	I	2012/10/03	2012/10/03	13876	636754	US07782GAF00	INTDEFA	2012/08/20	On August 14, 2012 the Government of Belize ( Belize ) issued a press release stating that it was unable to make the August 20, 2012 payment on its U.S. Dollar Step-Up Bonds Due 2029. On August 20, 2012 the Trustee did not receive the payment scheduled to be made that day by Belize.<BR><BR>Section 7(a) of the Terms and Conditions of the Securities lists as one of the Events of Default the failure by Belize to pay any amount of principal of or interest on any of the Securities, or any Additional Amounts due in respect thereof, as and when the same shall become due and payable, whether at maturity, by declaration or otherwise, and such failure continues unremedied for a period of 30 days. As of the end of such 30 day period, September 19, 2012, a payment was not received from Belize and therefore an Event of Default has occurred and is continuing.<BR>
INDEF	I	2012/10/03	2012/10/03	13877	636747	USP16394AF89	INTDEFA	2012/08/20	On August 14, 2012 the Government of Belize ( Belize ) issued a press release stating that it was unable to make the August 20, 2012 payment on its U.S. Dollar Step-Up Bonds Due 2029. On August 20, 2012 the Trustee did not receive the payment scheduled to be made that day by Belize.<BR><BR>Section 7(a) of the Terms and Conditions of the Securities lists as one of the Events of Default the failure by Belize to pay any amount of principal of or interest on any of the Securities, or any Additional Amounts due in respect thereof, as and when the same shall become due and payable, whether at maturity, by declaration or otherwise, and such failure continues unremedied for a period of 30 days. As of the end of such 30 day period, September 19, 2012, a payment was not received from Belize and therefore an Event of Default has occurred and is continuing.<BR>
INDEF	I	2012/10/09	2012/10/09	14143	683673	US27927WAE21	INTDEFA	2008/11/15	
INDEF	I	2012/10/10	2012/10/10	14350	287400	US040114BD11	INTDEFA	2001/09/12	
INDEF	I	2013/05/15	2013/05/15	15231	2295591	US38373UAB89	INTDEFA	2013/03/15	
INDEF	I	2013/05/29	2013/05/29	15319	265185	US04011NAR98	REDDEFA	2013/04/15	
INDEF	I	2014/04/14	2014/04/14	15612	260462	USP8055KGV19	INTDEFA	2003/01/31	
INDEF	I	2014/08/02	2014/08/02	15729	758112	US040114GL81	INTDEFA	2014/06/30	On June 26, 2014, the Republic sent certain funds to the Trustee s account at Banco Central de la Republica Argentina. On June 27, 2014, the District Court found that such payments violated the Amended Injunctions and that the Trustee was enjoined from making any further distribution of such funds. Accordingly, no payments are being made by the Trustee to Holders on June 30, 2014.
INDEF	I	2014/11/05	2014/11/05	15851	279803	US040114GK09	INTDEFA	2014/09/30	Argentina today (31/10/2014) added a second default on its restructured debt and can not pay bonds ` PAR 2038 `with 154 million USD as interest.<BR>The new default is finalized upon 30 days completion from the payment date, 30/09/2014.<BR>Also Fitch rating agency reduced to the rank of `default` the ` PAR 2038 ` bonds. Fitch noted that the payment failure constitutes an default event and for that circumstance has dropped the bonds note to a D.<BR>
INDEF	I	2016/05/05	2016/05/05	17012	758112	US040114GL81	OUTOFDEFA	2016/05/05	As on dated 04/05/2016<BR><BR>Payment Details<BR>Under the terms of the District Court`s Orders, the Republic is required to identify all series of Exchange Bonds to be paid by the Trustee, listing for each series the interest to be paid and the amount of interest per USD1,000 or EUR1,000 (as applicable) principal amount.<BR>As a result of the April 22,2016 Order, the record date for such payments is April 29,2016.<BR>In accordance with this Order, the Trustee has been notified that the payment date for payments to holders of record as of April 29, 2016, will be May 5,2016.<BR>Attached is a schedule listing the Bonds being paid by the Republic and the amounts being paid pursuant to the Court`s Order and the notification delivered to the Trustee.<BR>Please be advised that the Republic is not making payments on the GDP Linked Bonds.<BR>
INDEF	I	2016/05/05	2016/05/05	17017	279803	US040114GK09	OUTOFDEFA	2016/05/05	As on dated 04052016<BR><BR>Payment Details<BR>Under the terms of the District Court`s Orders, the Republic is required to identify all series of Exchange Bonds to be paid by the Trustee, listing for each series the interest to be paid and the amount of interest per USD1,000 or EUR1,000 (as applicable) principal amount.<BR>As a result of the April 22,2016 Order, the record date for such payments is April 29,2016.<BR>In accordance with this Order, the Trustee has been notified that the payment date for payments to holders of record as of April 29, 2016, will be May 5,2016.<BR>Attached is a schedule listing the Bonds being paid by the Republic and the amounts being paid pursuant to the Court`s Order and the notification delivered to the Trustee.<BR>Please be advised that the Republic is not making payments on the GDP Linked Bonds.<BR>
INDEF	I	2017/12/21	2017/12/21	17787	3198797	USP17625AE71	INTDEFA	2017/10/21	
INDEF	I	2017/11/17	2017/11/17	17741	1613078	USP97475AN08	INTDEFA	2017/10/13	(As on 15/11/2017)<BR><BR>Venezuela, a nation spiraling into a humanitarian crisis, has missed a debt payment. It could soon face grim consequences.<BR>The South American country defaulted on its debt, according to a statement issued Monday night by S&P Global Ratings. The agency said the 30-day grace period had expired for a payment that was due in October.<BR>A debt default risks setting off a dangerous series of events that could exacerbate Venezuela`s food and medical shortages<BR><BR>If enough holders of a particular bond demand full and immediate repayment, it can prompt investors across all Venezuelan bonds to demand the same thing. Since Venezuela doesn`t have the money to pay all its bondholders right now, investors would then be entitled to seize the country`s assets -- primarily barrels of oil -- outside its borders.<BR><BR>This week, Venezuela started to default on USD100bn of foreign debt. Standard & Poor`s, the credit ratings agency, declared the country in `selective default` on Tuesday, as it failed to make a D200m (USD152m) repayment on one of its bonds. Bondholders have not yet declared the country in default but that could happen any day, triggering a cascade of cross-defaults on all the foreign debt.<BR><BR>Venezuela has defaulted on two of its US dollar-denominated sovereign bond issues. Downgrading Venezuela`s sovereign rating to SD (`selective default`), the ratings agency Standard & Poors said that Venezuela had `failed to make D200 million in coupon payments for its global bonds due 2019 and 2024 within the 30-calendar-day grace period.`<BR><BR>Black, it seems, is white as far as the brutal regime goes. But not on the bond markets and not for ratings agencies: repayments of USD200m have been missed, and credit ratings agency Standard and Poor`s has declared the country to be in `selective default`. It is joined in this verdict by fellow agencies Fitch and Moo<BR>MVEMAG,Venezuela Government International Bo,USP17625AE71,Technical Default,2017-10-21,`Grace Period end:17-11-21`,,,Venezuelan bond under Technical Default. Bond has not been marked as Flat Trading following conventions. The bond will be tracked and updated as the situation develops.,2017-11-10<BR>MVEMAG,Venezuela Government International Bo,USP97475AN08,Technical Default,2017-10-25,`Grace Period end:2017-11-13`,,, Venezuelan bond under Technical Default. Bond has not been marked as Flat Trading following conventions. THe bond will be tracked and updated as the situation develops.,2017-11-10<BR>MVEMAG,Venezuela Government International Bo,USP97475AP55,Technical Default,2017-10-13,`Grace Period end: 2017-11-13`,,, Venezuelan bond under Technical Default. Bond has not been marked as Flat Trading following conventions. The bond will be tracked and updated as the situation develops.,2017-11-10<BR>
INDEF	I	2017/11/17	2017/11/17	17742	1616749	USP97475AP55	INTDEFA	2017/10/13	(As on 15/11/2017)<BR><BR>Venezuela, a nation spiraling into a humanitarian crisis, has missed a debt payment. It could soon face grim consequences.<BR>The South American country defaulted on its debt, according to a statement issued Monday night by S&P Global Ratings. The agency said the 30-day grace period had expired for a payment that was due in October.<BR>A debt default risks setting off a dangerous series of events that could exacerbate Venezuela`s food and medical shortages<BR><BR>If enough holders of a particular bond demand full and immediate repayment, it can prompt investors across all Venezuelan bonds to demand the same thing. Since Venezuela doesn`t have the money to pay all its bondholders right now, investors would then be entitled to seize the country`s assets -- primarily barrels of oil -- outside its borders.<BR><BR>This week, Venezuela started to default on USD100bn of foreign debt. Standard & Poor`s, the credit ratings agency, declared the country in `selective default` on Tuesday, as it failed to make a D200m (USD152m) repayment on one of its bonds. Bondholders have not yet declared the country in default but that could happen any day, triggering a cascade of cross-defaults on all the foreign debt.<BR><BR>Venezuela has defaulted on two of its US dollar-denominated sovereign bond issues. Downgrading Venezuela`s sovereign rating to SD (`selective default`), the ratings agency Standard & Poors said that Venezuela had `failed to make D200 million in coupon payments for its global bonds due 2019 and 2024 within the 30-calendar-day grace period.`<BR><BR>Black, it seems, is white as far as the brutal regime goes. But not on the bond markets and not for ratings agencies: repayments of USD200m have been missed, and credit ratings agency Standard and Poor`s has declared the country to be in `selective default`. It is joined in this verdict by fellow agencies Fitch and Moo<BR>MVEMAG,Venezuela Government International Bo,USP17625AE71,Technical Default,2017-10-21,`Grace Period end:17-11-21`,,,Venezuelan bond under Technical Default. Bond has not been marked as Flat Trading following conventions. The bond will be tracked and updated as the situation develops.,2017-11-10<BR>MVEMAG,Venezuela Government International Bo,USP97475AN08,Technical Default,2017-10-25,`Grace Period end:2017-11-13`,,, Venezuelan bond under Technical Default. Bond has not been marked as Flat Trading following conventions. THe bond will be tracked and updated as the situation develops.,2017-11-10<BR>MVEMAG,Venezuela Government International Bo,USP97475AP55,Technical Default,2017-10-13,`Grace Period end: 2017-11-13`,,, Venezuelan bond under Technical Default. Bond has not been marked as Flat Trading following conventions. The bond will be tracked and updated as the situation develops.,2017-11-10<BR>
INDEF	I	2018/02/08	2018/02/08	17911	322088	USP97475AG56	INTDEFA	2017/12/11	
INDEF	I	2018/03/13	2018/03/13	17985	933410	USP17625AA59	INTDEFA	2017/11/07	
INDEF	I	2018/03/13	2018/03/13	17986	955697	USP17625AB33	INTDEFA	2017/11/07	
INDEF	I	2018/03/14	2018/03/14	18000	170653	USP97475AD26	INTDEFA	2017/12/01	
INDEF	I	2018/05/01	2018/05/01	18187	748927	USP9395PAA95	INTDEFA	2018/02/15	(As on 27/04/2018)<BR>ISIN: USP9395PAA95<BR>security has been declared in default due to non payment of coupon expected on 15/Feb/2018.
INDEF	I	2018/05/02	2018/05/02	18189	170639	US922646AS37	INTDEFA	2018/03/15	
EDI_ENDOFFILE
