EDI_ICC_20180613
TableName	Actflag	Created	Changed	IccID	SecID	ISIN	EffectiveDate	OldISIN	NewISIN	OldUSCode	NewUSCode	OldVALOREN	NewVALOREN	EventType	RelEventID	OldCommonCode	NewCommonCode
ICC	I	2007/11/01	2007/11/01	53215	185454	US040114GG96	2001/06/19	US040114GG96	US040114GG96	040114GG9	040114GG9			CLEAN		13027935	013027935
ICC	I	2008/04/11	2008/04/11	59344	456934	US04011MAR16	1998/05/29	US04011MAR16	US04011MAR16	04011MAR1	04011MAR1			CLEAN		008730261	022336037
ICC	I	2012/03/28	2012/03/28	103697	2542798	US226775AD66	2011/03/25	US226775AD66	US226775AD66	226775AD6	226775AD6	012721558	012721558	CORR			060804338
ICC	I	2012/03/29	2012/03/29	103752	3445718	USY20721BB49	2012/01/18	USY20721BB49	USY20721BB49	Y20721BB4	Y20721BB4			CORR			073055784
ICC	I	2012/03/29	2012/03/29	103755	3463977	US455780BJ42	2012/01/18	US455780BJ42	US455780BJ42	455780BJ4	455780BJ4			CORR			073055695
ICC	I	2012/03/30	2012/03/30	103899	268970	US78307AAE38	1998/06/24	US78307AAE38	US78307AAE38	78307AAE3	78307AAE3			CORR			008854386
ICC	I	2012/03/30	2012/03/30	103901	2837568	US195325BN40	2011/07/13	US195325BN40	US195325BN40	195325BN4	195325BN4			CORR			064828711
ICC	I	2012/03/30	2012/03/30	103912	1992568	US226775AC83	2010/07/15	US226775AC83	US226775AC83	226775AC8	226775AC8		052571707	CORR			
ICC	I	2012/04/02	2012/04/02	104061	3487873	US168863AW86	2011/09/15	US168863AW86	US168863AW86	168863AW8	168863AW8			CORR			067684150
ICC	I	2012/04/03	2012/04/03	104695	3228685	US857524AB80	2011/11/04	US857524AB80	US857524AB80	857524AB8	857524AB8			CORR			070165007
ICC	I	2012/04/03	2012/04/03	104702	3232728	US62987BAA08	2011/11/03	US62987BAA08	US62987BAA08	62987BAA0	62987BAA0			CORR			068864704
ICC	I	2012/04/05	2012/04/05	104831	3328240	US74727PAR29	2011/12/06	US74727PAR29	US74727PAR29	74727PAR2	74727PAR2			CORR			061917349
ICC	I	2012/04/05	2012/04/05	104855	429058	US283875AN23	2005/06/11	US283875AN23	US283875AN23	283875AN2	283875AN2			CORR			022168100
ICC	I	2012/04/05	2012/04/05	104878	3444289	US836205AQ75	2012/01/18	US836205AQ75	US836205AQ75	836205AQ7	836205AQ7			CORR			073166691
ICC	I	2012/04/06	2012/04/06	104954	2222391	US715638BM30	2010/11/19	US715638BM30	US715638BM30	715638BM3	715638BM3			CORR			055999333
ICC	I	2012/04/17	2012/04/17	111759	167984	US465410BG26	2012/04/17	US465410BG26	US465410BG26	465410BG2	465410BG2	001565044	001565044	CORR			016409294
ICC	I	2012/04/17	2012/04/17	111790	177022	US593048BN00	2012/04/17	US593048BN00	US593048BN00	593048BN0	593048BN0	001213513	001213513	CORR			012690282
ICC	I	2012/04/17	2012/04/17	112185	246717	US46513EJX13	2012/04/17	US46513EJX13	US46513EJX13	46513EJX1	46513EJX1			CORR			019197867
ICC	I	2012/04/17	2012/04/17	112186	246723	US46513EFF43	2012/04/17	US46513EFF43	US46513EFF43	46513EFF4	46513EFF4			CORR			017727087
ICC	I	2012/04/17	2012/04/17	112206	250384	US74727PAE16	2012/04/17	US74727PAE16	US74727PAE16	74727PAE1	74727PAE1			CORR			011342027
ICC	I	2012/04/17	2012/04/17	113052	287400	US040114BD11	2012/04/17	US040114BD11	US040114BD11	040114BD1	040114BD1			CORR			009529985
ICC	I	2012/04/17	2012/04/17	113356	333480	US50064FAE43	2012/04/17	US50064FAE43	US50064FAE43	50064FAE4	50064FAE4			CORR			023431084
ICC	I	2012/04/17	2012/04/17	114899	394879	US912810FS25	2012/04/17	US912810FS25	US912810FS25	912810FS2	912810FS2			CORR			024275434
ICC	I	2012/04/17	2012/04/17	116419	467017	US401494AD16	2012/04/17	US401494AD16	US401494AD16	401494AD1	401494AD1			CORR			020260041
ICC	I	2012/04/17	2012/04/17	117093	555708	US912810PT97	2012/04/17	US912810PT97	US912810PT97	912810PT9	912810PT9			CORR			028785771
ICC	I	2012/04/17	2012/04/17	117094	555714	US912810PS15	2012/04/17	US912810PS15	US912810PS15	912810PS1	912810PS1			CORR			028622317
ICC	I	2012/04/17	2012/04/17	118713	683673	US27927WAE21	2012/04/17	US27927WAE21	US27927WAE21	27927WAE2	27927WAE2			CORR			011574408
ICC	I	2012/04/17	2012/04/17	119773	754616	US760942AU61	2012/04/17	US760942AU61	US760942AU61	760942AU6	760942AU6			CORR			029507929
ICC	I	2012/04/17	2012/04/17	119894	768853	US912810PV44	2012/04/17	US912810PV44	US912810PV44	912810PV4	912810PV4			CORR			034480338
ICC	I	2012/04/17	2012/04/17	120155	797228	US912810PW27	2012/04/17	US912810PW27	US912810PW27	912810PW2	912810PW2			CORR			034727368
ICC	I	2012/04/17	2012/04/17	120232	809603	US195325AQ89	2012/04/17	US195325AQ89	US195325AQ89	195325AQ8	195325AQ8			CORR			010878659
ICC	I	2012/04/17	2012/04/17	120616	819499	US283875AH54	2012/04/17	US283875AH54	US283875AH54	283875AH5	283875AH5			CORR			014617418
ICC	I	2012/04/18	2012/04/18	122323	844571	US912803CG62	2012/04/18	US912803CG62	US912803CG62	912803CG6	912803CG6			CORR			017498142
ICC	I	2012/04/18	2012/04/18	122324	844572	US912803CH46	2012/04/18	US912803CH46	US912803CH46	912803CH4	912803CH4			CORR			017450239
ICC	I	2012/04/18	2012/04/18	122325	844576	US912803CK74	2012/04/18	US912803CK74	US912803CK74	912803CK7	912803CK7			CORR			014608362
ICC	I	2012/04/18	2012/04/18	123938	1097937	US912828JE19	2012/04/18	US912828JE19	US912828JE19	912828JE1	912828JE1			CORR			037777048
ICC	I	2012/04/18	2012/04/18	125102	1290344	US195325BL83	2012/04/18	US195325BL83	US195325BL83	195325BL8	195325BL8			CORR			040792660
ICC	I	2012/04/18	2012/04/18	125360	1332926	US912810QA97	2012/04/18	US912810QA97	US912810QA97	912810QA9	912810QA9			CORR			041392568
ICC	I	2012/04/18	2012/04/18	125447	1355603	US912828KD17	2012/04/18	US912828KD17	US912828KD17	912828KD1	912828KD1			CORR			041379936
ICC	I	2012/04/18	2012/04/18	125541	1365450	US46513E5Y48	2012/04/18	US46513E5Y48	US46513E5Y48	46513E5Y4	46513E5Y4			CORR			041990791
ICC	I	2012/04/18	2012/04/18	125733	1401876	US50064FAJ30	2012/04/18	US50064FAJ30	US50064FAJ30	50064FAJ3	50064FAJ3			CORR			042427977
ICC	I	2012/04/18	2012/04/18	126164	1437290	US912810QB70	2012/04/18	US912810QB70	US912810QB70	912810QB7	912810QB7			CORR			042946737
ICC	I	2012/04/18	2012/04/18	126165	1437316	US912828KQ20	2012/04/18	US912828KQ20	US912828KQ20	912828KQ2	912828KQ2			CORR			042758680
ICC	I	2012/04/18	2012/04/18	126725	1517540	US912810PZ57	2012/04/18	US912810PZ57	US912810PZ57	912810PZ5	912810PZ5			CORR			041199334
ICC	I	2012/04/18	2012/04/18	127119	1559777	US912828LJ77	2012/04/18	US912828LJ77	US912828LJ77	912828LJ7	912828LJ7			CORR			044720094
ICC	I	2012/04/18	2012/04/18	127554	1600439	US105756BR01	2012/04/18	US105756BR01	US105756BR01	105756BR0	105756BR0			CORR			045656004
ICC	I	2012/04/18	2012/04/18	127693	1628707	US195325BM66	2012/04/18	US195325BM66	US195325BM66	195325BM6	195325BM6			CORR			045876411
ICC	I	2012/04/18	2012/04/18	127927	1638929	US226775AB01	2012/04/18	US226775AB01	US226775AB01	226775AB0	226775AB0			CORR			046442407
ICC	I	2012/04/18	2012/04/18	128136	1664557	US912810QD37	2012/04/18	US912810QD37	US912810QD37	912810QD3	912810QD3			CORR			046847946
ICC	I	2012/04/18	2012/04/18	128140	1664680	US912828LY45	2012/04/18	US912828LY45	US912828LY45	912828LY4	912828LY4			CORR			046848110
ICC	I	2012/04/18	2012/04/18	128181	1665817	US74727PAK75	2012/04/18	US74727PAK75	US74727PAK75	74727PAK7	74727PAK7			CORR			046904940
ICC	I	2012/04/18	2012/04/18	128231	1667593	US74727PAL58	2012/04/18	US74727PAL58	US74727PAL58	74727PAL5	74727PAL5			CORR			046904974
ICC	I	2012/04/18	2012/04/18	129829	1792170	US912828MP29	2012/04/18	US912828MP29	US912828MP29	912828MP2	912828MP2			CORR			048827578
ICC	I	2012/04/18	2012/04/18	129840	1793290	US912810QE10	2012/04/18	US912810QE10	US912810QE10	912810QE1	912810QE1			CORR			048893937
ICC	I	2012/04/18	2012/04/18	129959	1800147	US912810QF84	2012/04/18	US912810QF84	US912810QF84	912810QF8	912810QF8			CORR			049169655
ICC	I	2012/04/18	2012/04/18	130416	1849503	US536878AD31	2012/04/18	US536878AD31	US536878AD31	536878AD3	536878AD3			CORR			048679072
ICC	I	2012/04/18	2012/04/18	130666	1882176	US283875AP70	2012/04/18	US283875AP70	US283875AP70	283875AP7	283875AP7			CORR			047042739
ICC	I	2012/04/18	2012/04/18	130836	1892841	US038461AE97	2012/04/18	US038461AE97	US038461AE97	038461AE9	038461AE9			CORR			050540324
ICC	I	2012/04/18	2012/04/18	130837	1892845	US038461AF62	2012/04/18	US038461AF62	US038461AF62	038461AF6	038461AF6			CORR			050575713
ICC	I	2012/04/18	2012/04/18	131015	1925478	US912828ND89	2012/04/18	US912828ND89	US912828ND89	912828ND8	912828ND8			CORR			051110129
ICC	I	2012/04/18	2012/04/18	131016	1925515	US912810QH41	2012/04/18	US912810QH41	US912810QH41	912810QH4	912810QH4			CORR			051133552
ICC	I	2012/04/18	2012/04/18	131121	1944050	US912803BW22	2012/04/18	US912803BW22	US912803BW22	912803BW2	912803BW2			CORR			018438542
ICC	I	2012/04/18	2012/04/18	131482	1991188	US912828NM88	2012/04/18	US912828NM88	US912828NM88	912828NM8	912828NM8			CORR			052663881
ICC	I	2012/04/18	2012/04/18	131508	1992568	US226775AC83	2012/04/18	US226775AC83	US226775AC83	226775AC8	226775AC8	052571707	052571707	CORR			052571707
ICC	I	2012/04/19	2012/04/19	132098	2040730	US912810QK79	2012/04/19	US912810QK79	US912810QK79	912810QK7	912810QK7			CORR			053519555
ICC	I	2012/04/19	2012/04/19	132736	2121050	US912828NT32	2012/04/19	US912828NT32	US912828NT32	912828NT3	912828NT3			CORR			053305792
ICC	I	2012/04/19	2012/04/19	132873	2129824	US85227SAH94	2012/04/19	US85227SAH94	US85227SAH94	85227SAH9	85227SAH9			CORR			054623887
ICC	I	2012/04/19	2012/04/19	132874	2129829	USY2029SAF12	2012/04/19	USY2029SAF12	USY2029SAF12	Y2029SAF1	Y2029SAF1			CORR			054623895
ICC	I	2012/04/19	2012/04/19	133331	2213459	US912828PC88	2012/04/19	US912828PC88	US912828PC88	912828PC8	912828PC8			CORR			055975108
ICC	I	2012/04/19	2012/04/19	133332	2213463	US912810QL52	2012/04/19	US912810QL52	US912810QL52	912810QL5	912810QL5			CORR			056006982
ICC	I	2012/04/19	2012/04/19	134151	2288251	US9128337F13	2012/04/19	US9128337F13	US9128337F13	9128337F1	9128337F1			CORR			032705910
ICC	I	2012/04/19	2012/04/19	134650	2364714	US168863AV04	2012/04/19	US168863AV04	US168863AV04	168863AV0	168863AV0			CORR			053152031
ICC	I	2012/04/19	2012/04/19	134690	2365582	US900123BJ84	2012/04/19	US900123BJ84	US900123BJ84	900123BJ8	900123BJ8			CORR			057740574
ICC	I	2012/04/19	2012/04/19	134807	2383668	US912828PP91	2012/04/19	US912828PP91	US912828PP91	912828PP9	912828PP9			CORR			058767085
ICC	I	2012/04/19	2012/04/19	134874	2394789	US65412AAA07	2012/04/19	US65412AAA07	US65412AAA07	65412AAA0	65412AAA0			CORR			058543756
ICC	I	2012/04/19	2012/04/19	134916	2397761	US283875AQ53	2012/04/19	US283875AQ53	US283875AQ53	283875AQ5	283875AQ5			CORR			058774065
ICC	I	2012/04/19	2012/04/19	135284	2452828	US912810QP66	2012/04/19	US912810QP66	US912810QP66	912810QP6	912810QP6			CORR			059667629
ICC	I	2012/04/19	2012/04/19	135744	2542735	US718286BN61	2012/04/19	US718286BN61	US718286BN61	718286BN6	718286BN6			CORR			060964408
ICC	I	2012/04/19	2012/04/19	135827	2546667	US445545AE60	2012/04/19	US445545AE60	US445545AE60	445545AE6	445545AE6			CORR			061189050
ICC	I	2012/04/19	2012/04/19	135864	2555356	US445545AF36	2012/04/19	US445545AF36	US445545AF36	445545AF3	445545AF3			CORR			061189734
ICC	I	2012/04/19	2012/04/19	136181	2603242	US37311PAA84	2012/04/19	US37311PAA84	US37311PAA84	37311PAA8	37311PAA8			CORR			061720375
ICC	I	2012/04/19	2012/04/19	136504	2668775	USY20721AU39	2012/04/19	USY20721AU39	USY20721AU39	Y20721AU3	Y20721AU3			CORR			060809771
ICC	I	2012/04/19	2012/04/19	136521	2671761	US912828QN35	2012/04/19	US912828QN35	US912828QN35	912828QN3	912828QN3			CORR			062862963
ICC	I	2012/04/19	2012/04/19	136522	2671765	US912810QQ40	2012/04/19	US912810QQ40	US912810QQ40	912810QQ4	912810QQ4			CORR			062909781
ICC	I	2012/04/19	2012/04/19	136642	2674919	US455780BF20	2012/04/19	US455780BF20	US455780BF20	455780BF2	455780BF2			CORR			060809798
ICC	I	2012/04/19	2012/04/19	137096	2708655	US912828QQ65	2012/04/19	US912828QQ65	US912828QQ65	912828QQ6	912828QQ6			CORR			063334014
ICC	I	2012/04/19	2012/04/19	137608	2767705	US518417AA89	2012/04/19	US518417AA89	US518417AA89	518417AA8	518417AA8			CORR			063842630
ICC	I	2012/04/19	2012/04/19	137779	2794441	US912828QT05	2012/04/19	US912828QT05	US912828QT05	912828QT0	912828QT0			CORR			064565150
ICC	I	2012/04/19	2012/04/19	137874	2813414	US81720TAA34	2012/04/19	US81720TAA34	US81720TAA34	81720TAA3	81720TAA3	013005766	013005766	CORR			062538155
ICC	I	2012/04/19	2012/04/19	137974	2818081	US536878AF88	2012/04/19	US536878AF88	US536878AF88	536878AF8	536878AF8			CORR			060271992
ICC	I	2012/04/19	2012/04/19	138197	2859944	USP48864AD77	2012/04/19	USP48864AD77	USP48864AD77	P48864AD7	P48864AD7			CORR			053086446
ICC	I	2012/04/19	2012/04/19	138233	2866066	US912828QV50	2012/04/19	US912828QV50	US912828QV50	912828QV5	912828QV5			CORR			065529327
ICC	I	2012/04/19	2012/04/19	138234	2866204	US85227SAJ50	2012/04/19	US85227SAJ50	US85227SAJ50	85227SAJ5	85227SAJ5			CORR			065173077
ICC	I	2012/04/19	2012/04/19	138505	2919964	US912828RC60	2012/04/19	US912828RC60	US912828RC60	912828RC6	912828RC6			CORR			066427676
ICC	I	2012/04/19	2012/04/19	138599	2953783	US25714PBF45	2012/04/19	US25714PBF45	US25714PBF45	25714PBF4	25714PBF4			CORR			063758329
ICC	I	2012/04/19	2012/04/19	138721	2985030	US912828RE27	2012/04/19	US912828RE27	US912828RE27	912828RE2	912828RE2			CORR			067350910
ICC	I	2012/04/19	2012/04/19	139477	3215345	US912828RP73	2012/04/19	US912828RP73	US912828RP73	912828RP7	912828RP7			CORR			070202778
ICC	I	2012/04/19	2012/04/19	139527	3227366	US817477AB81	2012/04/19	US817477AB81	US817477AB81	817477AB8	817477AB8			CORR			068086370
ICC	I	2012/04/19	2012/04/19	139638	3253018	US912810QT88	2012/04/19	US912810QT88	US912810QT88	912810QT8	912810QT8			CORR			070660687
ICC	I	2012/04/19	2012/04/19	139640	3253027	US912828RR30	2012/04/19	US912828RR30	US912828RR30	912828RR3	912828RR3			CORR			070674696
ICC	I	2012/04/19	2012/04/19	139934	3295417	US912828RT95	2012/04/19	US912828RT95	US912828RT95	912828RT9	912828RT9			CORR			071538478
ICC	I	2012/04/19	2012/04/19	139985	3305748	US68620QAB59	2012/04/19	US68620QAB59	US68620QAB59	68620QAB5	68620QAB5			CORR			058937126
ICC	I	2012/04/19	2012/04/19	140469	3438445	US718286BW60	2012/04/19	US718286BW60	US718286BW60	718286BW6	718286BW6			CORR			072906934
ICC	I	2012/04/19	2012/04/19	140482	3438888	US912803CX95	2012/04/19	US912803CX95	US912803CX95	912803CX9	912803CX9			CORR			028793383
ICC	I	2012/04/19	2012/04/19	140490	3444292	US912803DA83	2012/04/19	US912803DA83	US912803DA83	912803DA8	912803DA8			CORR			032315003
ICC	I	2012/04/19	2012/04/19	140492	3444349	US912803DC40	2012/04/19	US912803DC40	US912803DC40	912803DC4	912803DC4			CORR			036958847
ICC	I	2012/04/19	2012/04/19	140631	3470576	US900123BZ27	2012/04/19	US900123BZ27	US900123BZ27	900123BZ2	900123BZ2			CORR			073687659
ICC	I	2012/04/19	2012/04/19	140632	3470604	US912828SA95	2012/04/19	US912828SA95	US912828SA95	912828SA9	912828SA9			CORR			073962986
ICC	I	2012/04/19	2012/04/19	140704	3487871	US46513AGA25	2012/04/19	US46513AGA25	US46513AGA25	46513AGA2	46513AGA2			CORR			073940028
ICC	I	2012/04/19	2012/04/19	140744	3495812	US536878AG61	2012/04/19	US536878AG61	US536878AG61	536878AG6	536878AG6			CORR			074081002
ICC	I	2012/04/19	2012/04/19	140848	3522483	US77586TAA43	2012/04/19	US77586TAA43	US77586TAA43	77586TAA4	77586TAA4			CORR			074369081
ICC	I	2012/04/19	2012/04/19	140854	3522514	US912828SF82	2012/04/19	US912828SF82	US912828SF82	912828SF8	912828SF8			CORR			073148596
ICC	I	2012/04/19	2012/04/19	140882	3528406	US912810QU51	2012/04/19	US912810QU51	US912810QU51	912810QU5	912810QU5			CORR			074750010
ICC	I	2012/04/19	2012/04/19	141069	3553083	US912810QV35	2012/04/19	US912810QV35	US912810QV35	912810QV3	912810QV3			CORR			075176163
ICC	I	2012/04/19	2012/04/19	141199	3572322	US912828SH49	2012/04/19	US912828SH49	US912828SH49	912828SH4	912828SH4			CORR			075352565
ICC	I	2012/04/19	2012/04/19	141291	3589525	US917288BD36	2012/04/19	US917288BD36	US917288BD36	917288BD3	917288BD3			CORR			071903796
ICC	I	2012/04/19	2012/04/19	141656	3625390	US91086QBA58	2012/04/19	US91086QBA58	US91086QBA58	91086QBA5	91086QBA5			CORR			072900952
ICC	I	2012/04/20	2012/04/20	142242	3678352	US91086QBB32	2012/04/20	US91086QBB32	US91086QBB32	91086QBB3	91086QBB3			CORR			075647727
ICC	I	2012/04/23	2012/04/23	142459	3686912	US78307ADE01	2012/04/05	US78307ADE01	US78307ADE01	78307ADE0	78307ADE0			CORR			076844828
ICC	I	2012/04/23	2012/04/23	142463	3692466	US78307ADC45	2012/04/05	US78307ADC45	US78307ADC45	78307ADC4	78307ADC4			CORR			076844780
ICC	I	2012/04/27	2012/04/27	143020	3746063		2012/04/25	US455780BK15		455780BK1				CORR			
ICC	I	2012/04/27	2012/04/27	143021	3746221	US455780BK15	2012/04/25		US455780BK15		455780BK1			CORR			
ICC	I	2012/04/30	2012/04/30	143169	3746221	US455780BK15	2012/04/30	US455780BK15	US455780BK15	455780BK1	455780BK1			CORR			076295859
ICC	I	2012/04/30	2012/04/30	143205	3747307	USY20721BC22	2012/04/30	USY20721BC22	USY20721BC22					CORR			076295794
ICC	I	2012/05/07	2012/05/07	143650	3753811	US912828ST86	2012/05/07	US912828ST86	US912828ST86	912828ST8	912828ST8			CORR			077976493
ICC	I	2012/05/07	2012/05/07	143664	3759143	US105756BT66	2012/05/07	US105756BT66	US105756BT66	105756BT6	105756BT6			CORR			077562605
ICC	I	2012/05/21	2012/05/21	144494	3790194	US912828SV33	2012/05/21	US912828SV33	US912828SV33	912828SV3	912828SV3			CORR			078353589
ICC	I	2012/05/21	2012/05/21	144503	3793865	US912810QW18	2012/05/21	US912810QW18	US912810QW18	912810QW1	912810QW1			CORR			078422424
ICC	I	2012/05/21	2012/05/21	144527	3794380	US451029AE22	2012/05/21	US451029AE22	US451029AE22	451029AE2	451029AE2			CORR			078124148
ICC	I	2012/05/21	2012/05/21	144528	3794384	USX34650AA31	2012/05/21	USX34650AA31	USX34650AA31	X34650AA3	X34650AA3			CORR			078128372
ICC	I	2012/05/28	2012/05/28	145099	3818911	US831588AB47	2012/05/28	US831588AB47	US831588AB47	831588AB4	831588AB4			CORR			078371749
ICC	I	2012/05/29	2012/05/29	145259	253699	US712219AC86	1996/01/31	US712219AC86	US712219AC86	712219AC8	712219AC8			CORR			006337724
ICC	I	2012/06/03	2012/06/03	145621	3831013	US912828SX98	2012/06/03	US912828SX98	US912828SX98	912828SX9	912828SX9			CORR			078901187
ICC	I	2012/07/09	2012/07/09	148140	3862923	US912828TC43	2012/07/09	US912828TC43	US912828TC43	912828TC4	912828TC4			CORR			080194951
ICC	I	2012/07/09	2012/07/09	148184	3864472	US05674RAB06	2012/07/09	US05674RAB06	US05674RAB06	05674RAB0	05674RAB0			CORR			080110405
ICC	I	2012/07/09	2012/07/09	148264	3867677	US085209AB07	2012/07/09	US085209AB07	US085209AB07	085209AB0	085209AB0			CORR			080073704
ICC	I	2012/07/09	2012/07/09	148265	3867681	USG10367AA14	2012/07/09	USG10367AA14	USG10367AA14	G10367AA1	G10367AA1			CORR			080073682
ICC	I	2012/07/12	2012/07/12	148475	3846064	US401494AE98	2012/06/07		US401494AE98		401494AE9			CORR			
ICC	I	2012/07/16	2012/07/16	148675	3846064	US401494AE98	2012/07/16	US401494AE98	US401494AE98	401494AE9	401494AE9			CORR			079047007
ICC	I	2012/07/16	2012/07/16	148755	3870093	USP5015VAD84	2012/07/16	USP5015VAD84	USP5015VAD84	P5015VAD8	P5015VAD8			CORR			079001961
ICC	I	2012/07/23	2012/07/23	149238	3873902	US066716AG65	2012/07/23	US066716AG65	US066716AG65	066716AG6	066716AG6			CORR			080648057
ICC	I	2012/08/04	2012/08/04	150055	3875264	US912828TE09	2012/08/04	US912828TE09	US912828TE09	912828TE0	912828TE0			CORR			081253242
ICC	I	2012/08/04	2012/08/04	150170	3877985	US85227SAK24	2012/08/04	US85227SAK24	US85227SAK24	85227SAK2	85227SAK2			CORR			080475349
ICC	I	2012/08/04	2012/08/04	150171	3877992	USY2029SAH77	2012/08/04	USY2029SAH77	USY2029SAH77	Y2029SAH7	Y2029SAH7			CORR			080475284
ICC	I	2012/08/04	2012/08/04	150235	3879032	US912828TH30	2012/08/04	US912828TH30	US912828TH30	912828TH3	912828TH3			CORR			081199922
ICC	I	2012/08/27	2012/08/27	151500	3881732	US912828TJ95	2012/08/27	US912828TJ95	US912828TJ95	912828TJ9	912828TJ9			CORR			081784370
ICC	I	2012/08/27	2012/08/27	151501	3881735	US912810QX90	2012/08/27	US912810QX90	US912810QX90	912810QX9	912810QX9			CORR			081843023
ICC	I	2012/08/28	2012/08/28	151790	253487	US46513EFG26	2003/09/18		US46513EFG26		46513EFG2			CORR			017759400
ICC	I	2012/09/18	2012/09/18	152972	3900535	US105756BU30	2012/09/18	US105756BU30	US105756BU30	105756BU3	105756BU3			CORR			082824448
ICC	I	2012/09/19	2012/09/19	153060	3902853	US988895AA69	2012/09/21	US988895AA69	US988895AA69	988895AA6	988895AA6			CORR			083178540
ICC	I	2012/09/27	2012/09/27	153537	3900622	US731011AT95	2012/09/27	US731011AT95	US731011AT95	731011AT9	731011AT9			CORR			083020610
ICC	I	2012/10/10	2012/10/10	154252	3902606	US195325BP97	2012/10/10	US195325BP97	US195325BP97	195325BP9	195325BP9			CORR			083258659
ICC	I	2012/10/11	2012/10/11	154564	3913536	US912828TR12	2012/10/02	US912828TR12	US912828TR12	912828TR1	912828TR1			CORR			083997141
ICC	I	2012/10/17	2012/10/17	154970	3747307	USY20721BC22	2012/05/01	USY20721BC22	USY20721BC22		Y20721BC2			CLEAN		076295794	076295794
ICC	I	2012/11/10	2012/11/10	156648	3924414	US168863BN78	2012/11/10	US168863BN78	US168863BN78	168863BN7	168863BN7			CORR			083564032
ICC	I	2012/11/10	2012/11/10	156651	3924453	US168863BP27	2012/11/10	US168863BP27	US168863BP27	168863BP2	168863BP2			CORR			085023837
ICC	I	2012/11/10	2012/11/10	156748	3928701	US831594AB23	2012/11/10	US831594AB23	US831594AB23	831594AB2	831594AB2			CORR			084756130
ICC	I	2012/11/10	2012/11/10	156777	3929179	USP37878AA69	2012/11/10	USP37878AA69	USP37878AA69	P37878AA6	P37878AA6			CORR			084975184
ICC	I	2012/11/10	2012/11/10	156802	3929971	US29731QAA58	2012/11/10	US29731QAA58	US29731QAA58	29731QAA5	29731QAA5			CORR			084978230
ICC	I	2012/11/29	2012/11/29	158230	1264074	US912828JR22	2012/11/29	US912828JR22	US912828JR22	912828JR2	912828JR2			CORR			039986841
ICC	I	2012/11/29	2012/11/29	158439	3929153	US912828TY62	2012/11/29	US912828TY62	US912828TY62	912828TY6	912828TY6			CORR			085489771
ICC	I	2012/11/29	2012/11/29	158448	3929917	US912810QY73	2012/11/29	US912810QY73	US912810QY73	912810QY7	912810QY7			CORR			085602080
ICC	I	2012/11/29	2012/11/29	158724	3935663	US760942AY83	2012/11/29	US760942AY83	US760942AY83	760942AY8	760942AY8			CORR			085705113
ICC	I	2012/12/21	2012/12/21	160077	3938954	US221597BR74	2012/11/22	US221597BR74	US221597BR74		221597BR7			CORR			084243787
ICC	I	2012/12/21	2012/12/21	160086	3937458	USP3699PGB78	2012/11/22	USP3699PGB78	USP3699PGB78	P3699PGB7	P3699PGB7			CORR			084243795
ICC	I	2012/12/21	2012/12/21	160110	3931857	US718286BX44	2012/12/21	US718286BX44	US718286BX44	718286BX4	718286BX4			CORR			085491474
ICC	I	2012/12/21	2012/12/21	160189	3938277	US912828UB41	2012/12/21	US912828UB41	US912828UB41	912828UB4	912828UB4			CORR			086236125
ICC	I	2012/12/21	2012/12/21	160291	3941907	USP01012AS54	2012/12/21	USP01012AS54	USP01012AS54	P01012AS5	P01012AS5			CORR			086183609
ICC	I	2012/12/21	2012/12/21	160375	3943051	US283875AR37	2012/12/21	US283875AR37	US283875AR37	283875AR3	283875AR3			CORR			086183617
ICC	I	2012/12/21	2012/12/21	160577	3951637	US617726AG97	2012/12/21	US617726AG97	US617726AG97	617726AG9	617726AG9			CORR			086426773
ICC	I	2013/01/08	2013/01/08	161625	3950206	US912828UF54	2013/01/08	US912828UF54	US912828UF54	912828UF5	912828UF5			CORR			087053288
ICC	I	2013/01/08	2013/01/08	161786	3957759	US617726AF15	2013/01/08	US617726AF15	US617726AF15	617726AF1	617726AF1			CORR			085001892
ICC	I	2013/01/30	2013/01/30	163741	3967762	US912828UH11	2013/01/30	US912828UH11	US912828UH11	912828UH1	912828UH1			CORR			088404173
ICC	I	2013/02/05	2013/02/05	164203	3960916	US900123CA66	2013/02/05	US900123CA66	US900123CA66	900123CA6	900123CA6			CORR			087515982
ICC	I	2013/02/05	2013/02/05	164453	3969949	USP3772NHK11	2013/02/05	USP3772NHK11	USP3772NHK11	P3772NHK1	P3772NHK1			CORR			088098170
ICC	I	2013/02/05	2013/02/05	164525	3972851	US4651387M19	2013/02/05	US4651387M19	US4651387M19	4651387M1	4651387M1			CORR			088472721
ICC	I	2013/02/05	2013/02/05	164526	3972855	US4651387N91	2013/02/05	US4651387N91	US4651387N91	4651387N9	4651387N9			CORR			088473191
ICC	I	2013/03/01	2013/03/01	166044	3976117	US9128335B27	2013/03/01	US9128335B27	US9128335B27	9128335B2	9128335B2			CORR			027595766
ICC	I	2013/03/01	2013/03/01	166142	3979883	USP5015VAE67	2013/03/01	USP5015VAE67	USP5015VAE67	P5015VAE6	P5015VAE6			CORR			087079627
ICC	I	2013/03/01	2013/03/01	166143	3979895	US401494AF63	2013/03/01	US401494AF63	US401494AF63	401494AF6	401494AF6			CORR			087079619
ICC	I	2013/03/01	2013/03/01	166190	3981095	US912828UN88	2013/03/01	US912828UN88	US912828UN88	912828UN8	912828UN8			CORR			089334357
ICC	I	2013/03/01	2013/03/01	166192	3981162	US912810QZ49	2013/03/01	US912810QZ49	US912810QZ49	912810QZ4	912810QZ4			CORR			089374677
ICC	I	2013/03/01	2013/03/01	166235	3982147	US445545AH91	2013/03/01	US445545AH91	US445545AH91	445545AH9	445545AH9			CORR			089153000
ICC	I	2013/03/20	2013/03/20	167866	3990722	US817477AD48	2013/03/20	US817477AD48	US817477AD48	817477AD4	817477AD4			CORR			089319536
ICC	I	2013/03/20	2013/03/20	167884	3991196	US912828UQ10	2013/03/20	US912828UQ10	US912828UQ10	912828UQ1	912828UQ1			CORR			089968151
ICC	I	2013/04/19	2013/04/19	170344	4009179	US226775AF15	2013/04/19	US226775AF15	US226775AF15	226775AF1	226775AF1			CORR			090932900
ICC	I	2013/04/29	2013/04/29	171114	4016166	US455780BL97	2013/04/29	US455780BL97	US455780BL97	455780BL9	455780BL9			CORR			091424193
ICC	I	2013/04/29	2013/04/29	171115	4016173	US455780BM70	2013/04/29	US455780BM70	US455780BM70	455780BM7	455780BM7			CORR			091424215
ICC	I	2013/04/29	2013/04/29	171116	4016181	USY20721BD05	2013/04/29	USY20721BD05	USY20721BD05	Y20721BD0	Y20721BD0			CORR			091424177
ICC	I	2013/04/29	2013/04/29	171117	4016184	USY20721BE87	2013/04/29	USY20721BE87	USY20721BE87	Y20721BE8	Y20721BE8			CORR			091424207
ICC	I	2013/04/29	2013/04/29	171130	4016933	US900123CB40	2013/04/29	US900123CB40	US900123CB40	900123CB4	900123CB4			CORR			091828111
ICC	I	2013/05/14	2013/05/14	172291	4031577	US831594AD88	2013/05/11	US831594AD88	US831594AD88	831594AD8	831594AD8			CORR			092816087
ICC	I	2013/05/16	2013/05/16	172655	4025666	USP3699PGE18	2013/05/16	USP3699PGE18	USP3699PGE18	P3699PGE1	P3699PGE1			CORR			092497925
ICC	I	2013/05/16	2013/05/16	172656	4025686	US221597BS57	2013/05/16	US221597BS57	US221597BS57	221597BS5	221597BS5			CORR			092517551
ICC	I	2013/05/16	2013/05/16	172661	4025756	USP3699PGF82	2013/05/16	USP3699PGF82	USP3699PGF82	P3699PGF8	P3699PGF8			CORR			092497950
ICC	I	2013/05/16	2013/05/16	172663	4025766	US221597BT31	2013/05/16	US221597BT31	US221597BT31	221597BT3	221597BT3			CORR			092517543
ICC	I	2013/05/16	2013/05/16	172701	4027459	US78347YAA10	2013/05/16	US78347YAA10	US78347YAA10	78347YAA1	78347YAA1			CORR			092599531
ICC	I	2013/05/16	2013/05/16	172735	4028578	US698299BB98	2013/05/16	US698299BB98	US698299BB98	698299BB9	698299BB9			CORR			092395154
ICC	I	2013/05/16	2013/05/16	172967	4032893	US912828VB32	2013/05/16	US912828VB32	US912828VB32	912828VB3	912828VB3			CORR			093285433
ICC	I	2013/06/07	2013/06/07	175405	4052426	US912803CF89	2013/06/07	US912803CF89	US912803CF89	912803CF8	912803CF8			CORR			012658907
ICC	I	2013/07/16	2013/07/16	179038	4063149	US912828VJ67	2013/07/16	US912828VJ67	US912828VJ67	912828VJ6	912828VJ6			CORR			095120580
ICC	I	2013/07/16	2013/07/16	179039	4063152	US912828VK31	2013/07/16	US912828VK31	US912828VK31	912828VK3	912828VK3			CORR			095071775
ICC	I	2013/07/29	2013/07/29	180393	4084160	US07782GAG82	2013/03/21	US07782GAG82	US07782GAG82	07782GAG8	07782GAG8			CLEAN			090880276
ICC	I	2013/08/02	2013/08/02	180677	4082900	US05674RAC88	2013/08/01	US05674RAC88	US05674RAC88	05674RAC8	05674RAC8			CORR			095679072
ICC	I	2013/08/09	2013/08/09	181222	4074028	USY20721BH19	2013/08/09	USY20721BH19	USY20721BH19	Y20721BH1	Y20721BH1			CORR			095385494
ICC	I	2013/08/09	2013/08/09	181241	4075001	US455780BP02	2013/08/09	US455780BP02	US455780BP02	455780BP0	455780BP0			CORR			095385486
ICC	I	2013/08/09	2013/08/09	181446	4084150	USP16394AG62	2013/08/09	USP16394AG62	USP16394AG62	P16394AG6	P16394AG6			CORR			090880250
ICC	I	2013/08/15	2013/08/15	181861	4085757	USG10367AB96	2013/08/06	USG10367AB96	USG10367AB96	G10367AB9	G10367AB9			CORR			095850146
ICC	I	2013/08/15	2013/08/15	181863	4086352	US085209AC89	2013/08/06	US085209AC89	US085209AC89	085209AC8	085209AC8			CORR			095850227
ICC	I	2013/08/31	2013/08/31	182911	4093931	US29731QAB32	2013/08/22	US29731QAB32	US29731QAB32	29731QAB3	29731QAB3			CORR			096491034
ICC	I	2013/09/07	2013/09/07	183555	4089968	US912810RC45	2013/09/07	US912810RC45	US912810RC45	912810RC4	912810RC4			CORR			096369832
ICC	I	2013/09/26	2013/09/26	185502	4112591	US195325BQ70	2013/09/26	US195325BQ70	US195325BQ70	195325BQ7	195325BQ7			CORR			097464391
ICC	I	2013/09/28	2013/09/28	185727	4098052	US912828VV95	2013/09/28	US912828VV95	US912828VV95	912828VV9	912828VV9			CORR			096926545
ICC	I	2013/09/28	2013/09/28	185927	4105800	US836205AR58	2013/09/28	US836205AR58	US836205AR58	836205AR5	836205AR5			CORR			097198527
ICC	I	2013/09/28	2013/09/28	185956	4106473	US78307ADH32	2013/09/28	US78307ADH32	US78307ADH32	78307ADH3	78307ADH3			CORR			097194211
ICC	I	2013/09/28	2013/09/28	185993	4107265	US78307ADF75	2013/09/28	US78307ADF75	US78307ADF75	78307ADF7	78307ADF7			CORR			097194190
ICC	I	2013/09/28	2013/09/28	185994	4107283	US78307ADG58	2013/09/28	US78307ADG58	US78307ADG58	78307ADG5	78307ADG5			CORR			097194173
ICC	I	2013/10/01	2013/10/01	186548	4115648	US31788DAD66	2013/10/02	US31788DAD66	US31788DAD66	31788DAD6	31788DAD6			CORR			097583374
ICC	I	2013/10/04	2013/10/04	186766	4115104	US91086QBC15	2013/10/02	US91086QBC15	US91086QBC15	91086QBC1	91086QBC1			CORR			097563896
ICC	I	2013/10/04	2013/10/04	186850	4112860	US042207AA84	2013/09/30	US042207AA84	US042207AA84	042207AA8	042207AA8			CORR			097509719
ICC	I	2013/10/16	2013/10/16	187582	4116330	US912828VZ00	2013/09/30	US912828VZ00	US912828VZ00		912828VZ0			CORR			
ICC	I	2013/10/23	2013/10/23	188142	4103103	US465139KQ56	1995/08/19	US465139KQ56	US465139KQ56		465139KQ5			CLEAN			
ICC	I	2013/11/20	2013/11/20	191056	4135659	US912828WC06	2013/11/20	US912828WC06	US912828WC06	912828WC0	912828WC0			CORR			099048832
ICC	I	2013/11/20	2013/11/20	191057	4135679	US912828WD88	2013/11/20	US912828WD88	US912828WD88	912828WD8	912828WD8			CORR			099047879
ICC	I	2013/11/20	2013/11/20	191069	4136100	US418097AC53	2013/11/20	US418097AC53	US418097AC53	418097AC5	418097AC5			CORR			097683891
ICC	I	2013/11/20	2013/11/20	191350	4141115	US900123CE88	2013/11/20	US900123CE88	US900123CE88	900123CE8	900123CE8			CORR			099389010
ICC	I	2013/11/22	2013/11/22	191692	4146324	US445545AJ57	2013/11/22	US445545AJ57	US445545AJ57	445545AJ5	445545AJ5			CORR			099716304
ICC	I	2013/11/29	2013/11/29	192460	4146683	US226775AG97	2013/11/26	US226775AG97	US226775AG97	226775AG9	226775AG9			CORR			099742500
ICC	I	2013/12/13	2013/12/13	193855	4141963	US912828WE61	2013/12/13	US912828WE61	US912828WE61	912828WE6	912828WE6			CORR			099585315
ICC	I	2013/12/13	2013/12/13	193885	4143538	US912810RD28	2013/12/13	US912810RD28	US912810RD28	912810RD2	912810RD2			CORR			099648953
ICC	I	2013/12/13	2013/12/13	194054	4148859	US912828A347	2013/12/13	US912828A347	US912828A347	912828A34	912828A34			CORR			100075814
ICC	I	2013/12/13	2013/12/13	194255	4155294	US817477AE21	2013/12/13	US817477AE21	US817477AE21	817477AE2	817477AE2			CORR			099794682
ICC	I	2013/12/28	2013/12/28	196047	4161640	US135087C446	2013/12/28	US135087C446	US135087C446	135087C44	135087C44			CORR			100856123
ICC	I	2014/01/17	2014/01/17	197828	4180877	US77586RAC43	2014/01/16		US77586RAC43		77586RAC4			CORR			
ICC	I	2014/01/20	2014/01/20	198091	4177905	US718286BY27	2014/01/20	US718286BY27	US718286BY27	718286BY2	718286BY2			CORR			101472531
ICC	I	2014/01/20	2014/01/20	198094	4173267	US455780BQ84	2014/01/15	US455780BQ84	US455780BQ84	455780BQ8	455780BQ8			CORR			101363597
ICC	I	2014/01/20	2014/01/20	198095	4173270	USY20721BJ74	2014/01/15	USY20721BJ74	USY20721BJ74	Y20721BJ7	Y20721BJ7			CORR			101363406
ICC	I	2014/01/20	2014/01/20	198096	4173274	US455780BR67	2014/01/15	US455780BR67	US455780BR67	455780BR6	455780BR6			CORR			101363627
ICC	I	2014/01/20	2014/01/20	198097	4174124	USY20721BK48	2014/01/15	USY20721BK48	USY20721BK48	Y20721BK4	Y20721BK4			CORR			101363635
ICC	I	2014/01/21	2014/01/21	198167	4183266	US857524AC63	2014/01/23	US857524AC63	US857524AC63	857524AC6	857524AC6			CORR			102131177
ICC	I	2014/01/23	2014/01/23	198483	4185348	US195325BR53	2014/01/28	US195325BR53	US195325BR53	195325BR5	195325BR5			CORR			102344464
ICC	I	2014/01/24	2014/01/24	198536	4180997	US77586RAD26	2014/01/22	US77586RAD26	US77586RAD26	77586RAD2	77586RAD2			CORR			102085167
ICC	I	2014/01/24	2014/01/24	198537	4181083	US77586TAD81	2014/01/22	US77586TAD81	US77586TAD81	77586TAD8	77586TAD8			CORR			102029852
ICC	I	2014/01/24	2014/01/24	198538	4180877	US77586RAC43	2014/01/22	US77586RAC43	US77586RAC43	77586RAC4	77586RAC4			CORR			102102584
ICC	I	2014/01/24	2014/01/24	198539	4181146	US77586TAE64	2014/01/22	US77586TAE64	US77586TAE64	77586TAE6	77586TAE6			CORR			102029887
ICC	I	2014/01/24	2014/01/24	198579	4186386	US900123CF53	2014/01/23	US900123CF53	US900123CF53	900123CF5	900123CF5			CORR			102390903
ICC	I	2014/02/04	2014/02/04	199524	4193052	US465139ML42	1996/01/27	US465139ML42	US465139ML42		465139ML4			CLEAN			
ICC	I	2014/02/04	2014/02/04	199542	4163697	US912828A750	2014/02/04	US912828A750	US912828A750	912828A75	912828A75			CORR			101058212
ICC	I	2014/02/04	2014/02/04	199546	4164827	US912828A834	2014/02/04	US912828A834	US912828A834	912828A83	912828A83			CORR			101176550
ICC	I	2014/02/04	2014/02/04	199821	4179467	US85227SAL07	2014/02/04	US85227SAL07	US85227SAL07	85227SAL0	85227SAL0			CORR			101323153
ICC	I	2014/02/04	2014/02/04	199823	4179476	USY8137FAA67	2014/02/04	USY8137FAA67	USY8137FAA67	Y8137FAA6	Y8137FAA6			CORR			101323161
ICC	I	2014/02/14	2014/02/14	201214	4201144	US900123CG37	2014/02/01	US900123CG37	US900123CG37	900123CG3	900123CG3			CORR			103497795
ICC	I	2014/03/03	2014/03/03	202644	4189328	US912828B337	2014/03/03	US912828B337	US912828B337	912828B33	912828B33			CORR			103014654
ICC	I	2014/03/03	2014/03/03	202805	4195604	US912810RE01	2014/03/03	US912810RE01	US912810RE01	912810RE0	912810RE0			CORR			103608236
ICC	I	2014/03/03	2014/03/03	202806	4195640	US912828B667	2014/03/03	US912828B667	US912828B667	912828B66	912828B66			CORR			103450373
ICC	I	2014/03/03	2014/03/03	202935	4201048	US831594AG10	2014/03/03	US831594AG10	US831594AG10	831594AG1	831594AG1			CORR			098266500
ICC	I	2014/04/07	2014/04/07	206817	4228073	US912828C657	2014/04/01	US912828C657	US912828C657	912828C65	912828C65			CORR			105267843
ICC	I	2014/04/14	2014/04/14	207385	4206911	US912828C244	2014/04/14	US912828C244	US912828C244	912828C24	912828C24			CORR			104174922
ICC	I	2014/04/14	2014/04/14	207684	4218539	US05477LAA44	2014/04/14	US05477LAA44	US05477LAA44	05477LAA4	05477LAA4			CORR			104654703
ICC	I	2014/04/24	2014/04/24	209116	4244096	US695847AK91	2014/04/16	US695847AK91	US695847AK91	695847AK9	695847AK9			CORR			105733712
ICC	I	2014/04/24	2014/04/24	209117	4244082	US695847AL74	2014/04/16	US695847AL74	US695847AL74	695847AL7	695847AL7			CORR			105731396
ICC	I	2014/05/08	2014/05/08	210057	4242689	USY8137FAB41	2014/05/08	USY8137FAB41	USY8137FAB41	Y8137FAB4	Y8137FAB4			CORR			105566514
ICC	I	2014/05/08	2014/05/08	210058	4242692	US85227SAM89	2014/05/08	US85227SAM89	US85227SAM89	85227SAM8	85227SAM8			CORR			105565950
ICC	I	2014/05/08	2014/05/08	210060	4242726	US988895AE81	2014/05/08	US988895AE81	US988895AE81	988895AE8	988895AE8			CORR			105735308
ICC	I	2014/05/08	2014/05/08	210082	4244115	US900123CH10	2014/05/08	US900123CH10	US900123CH10	900123CH1	900123CH1			CORR			105775474
ICC	I	2014/05/08	2014/05/08	210246	4251382	US912828D234	2014/05/08	US912828D234	US912828D234	912828D23	912828D23			CORR			106329010
ICC	I	2014/05/08	2014/05/08	210247	4251386	US912828WG10	2014/05/08	US912828WG10	US912828WG10	912828WG1	912828WG1			CORR			106382468
ICC	I	2014/05/08	2014/05/08	210370	4255962	US25714PCF36	2014/05/08	US25714PCF36	US25714PCF36	25714PCF3	25714PCF3			CORR			104277110
ICC	I	2014/05/23	2014/05/23	211554	4262370	US912828WJ58	2014/05/16	US912828WJ58	US912828WJ58	912828WJ5	912828WJ5			CORR			106808899
ICC	I	2014/05/24	2014/05/24	211674	4262357	US912810RG58	2014/05/16	US912810RG58	US912810RG58	912810RG5	912810RG5			CORR			106812420
ICC	I	2014/07/03	2014/07/03	216180	4269221	US903724AK89	2014/07/03	US903724AK89	US903724AK89	903724AK8	903724AK8			CORR			104277276
ICC	I	2014/07/03	2014/07/03	216486	4275893	US912828WL05	2014/07/03	US912828WL05	US912828WL05	912828WL0	912828WL0			CORR			107459391
ICC	I	2014/07/03	2014/07/03	216731	4281610	US50064FAL85	2014/07/03	US50064FAL85	US50064FAL85	50064FAL8	50064FAL8			CORR			107592229
ICC	I	2014/07/03	2014/07/03	217089	4290243	US491798AE43	2014/07/03	US491798AE43	US491798AE43					CORR			098266429
ICC	I	2014/07/03	2014/07/03	217171	4292480	US491798AF18	2014/07/03	US491798AF18	US491798AF18	491798AF1	491798AF1			CORR			098266372
ICC	I	2014/07/03	2014/07/03	217339	4297960	US418097AD37	2014/07/03	US418097AD37	US418097AD37	418097AD3	418097AD3			CORR			104278949
ICC	I	2014/07/11	2014/07/11	218004	4295359	US912828WR74	2014/07/11	US912828WR74	US912828WR74	912828WR7	912828WR7			CORR			108436611
ICC	I	2014/07/11	2014/07/11	218005	4295361	US912828WS57	2014/07/11	US912828WS57	US912828WS57	912828WS5	912828WS5			CORR			108398191
ICC	I	2014/08/06	2014/08/06	220744	4311956	US912828WU04	2014/08/06	US912828WU04	US912828WU04	912828WU0	912828WU0			CORR			109374563
ICC	I	2014/08/06	2014/08/06	220817	4313803	US066717AA78	2014/08/06	US066717AA78	US066717AA78	066717AA7	066717AA7			CORR			108513942
ICC	I	2014/08/06	2014/08/06	220938	4316678	US912828WY26	2014/08/06	US912828WY26	US912828WY26	912828WY2	912828WY2			CORR			109530590
ICC	I	2014/08/06	2014/08/06	220939	4316682	US912828WW69	2014/08/06	US912828WW69	US912828WW69	912828WW6	912828WW6			CORR			109517402
ICC	I	2014/08/12	2014/08/12	221539	4315212	US105756BW95	2014/08/01	US105756BW95	US105756BW95	105756BW9	105756BW9			CORR			109252395
ICC	I	2014/08/22	2014/08/22	222286	4331832	US912828D721	2014/08/22	US912828D721	US912828D721		912828D72			CORR			
ICC	I	2014/08/23	2014/08/23	222843	4322936	USP75744AB11	2014/08/23	USP75744AB11	USP75744AB11	P75744AB1	P75744AB1			CORR			108511214
ICC	I	2014/08/23	2014/08/23	222844	4322953	US699149AB65	2014/08/23	US699149AB65	US699149AB65	699149AB6	699149AB6			CORR			108511257
ICC	I	2014/08/23	2014/08/23	222873	4323230	US912810RH32	2014/08/23	US912810RH32	US912810RH32	912810RH3	912810RH3			CORR			110209673
ICC	I	2014/08/23	2014/08/23	222875	4323239	US912828D564	2014/08/23	US912828D564	US912828D564	912828D56	912828D56			CORR			110160780
ICC	I	2014/09/12	2014/09/12	225581	4331832	US912828D721	2014/09/12	US912828D721	US912828D721	912828D72	912828D72			CORR			110732210
ICC	I	2014/09/12	2014/09/12	225582	4331838	US912828D804	2014/09/12	US912828D804	US912828D804	912828D80	912828D80			CORR			110630816
ICC	I	2014/09/16	2014/09/16	226080	4290243	US491798AE43	2014/07/04	US491798AE43	US491798AE43		491798AE4			CORR		098266429	098266429
ICC	I	2014/10/18	2014/10/20	229178	4348016	US698299BD54	2014/10/18	US698299BD54	US698299BD54	698299BD5	698299BD5			CORR			111287791
ICC	I	2014/10/18	2014/10/20	229268	4349768	US912828F395	2014/10/18	US912828F395	US912828F395	912828F39	912828F39			CORR			111656860
ICC	I	2014/10/18	2014/10/20	229306	4350707	US912828F213	2014/10/18	US912828F213	US912828F213	912828F21	912828F21			CORR			111723087
ICC	I	2014/11/06	2014/11/06	231456	4379943	US912820R256	2014/10/31		US912820R256		912820R25			CLEAN			
ICC	I	2014/11/20	2014/11/20	232945	4389371	US91087BAA89	2014/11/20	US91087BAA89	US91087BAA89	91087BAA8	91087BAA8			CORR			111995923
ICC	I	2014/11/20	2014/11/20	233436	4373057	US912828F627	2014/11/20	US912828F627	US912828F627	912828F62	912828F62			CORR			113395524
ICC	I	2014/11/20	2014/11/20	233438	4373062	US912828F965	2014/11/20	US912828F965	US912828F965	912828F96	912828F96			CORR			113469366
ICC	I	2014/12/10	2014/12/10	236095	4379991	US912810RJ97	2014/12/10	US912810RJ97	US912810RJ97	912810RJ9	912810RJ9			CORR			114049476
ICC	I	2014/12/10	2014/12/10	236097	4379995	US912828G385	2014/12/10	US912828G385	US912828G385	912828G38	912828G38			CORR			113743476
ICC	I	2014/12/10	2014/12/10	236546	4394288	US912828G534	2014/12/10	US912828G534	US912828G534	912828G53	912828G53			CORR			114875813
ICC	I	2014/12/13	2014/12/15	237117	4399379	US168863BW77	2014/12/12	US168863BW77	US168863BW77	168863BW7	168863BW7			CORR			115193759
ICC	I	2015/01/27	2015/01/27	242164	4430876	US195325CU73	2015/01/28	US195325CU73	US195325CU73	195325CU7	195325CU7			CORR			117672018
ICC	I	2015/02/07	2015/02/09	243482	4429693	US25714PCV85	2015/01/28	US25714PCV85	US25714PCV85	25714PCV8	25714PCV8			CORR			117670821
ICC	I	2015/02/07	2015/02/09	243483	4429697	USP3579EBD87	2015/01/28	USP3579EBD87	USP3579EBD87	P3579EBD8	P3579EBD8			CORR			117672310
ICC	I	2015/02/07	2015/02/09	243484	4429721	US25714PCW68	2015/01/28	US25714PCW68	US25714PCW68	25714PCW6	25714PCW6			CORR			117673090
ICC	I	2015/02/07	2015/02/09	243485	4429722	USP3579EBE60	2015/01/28	USP3579EBE60	USP3579EBE60	P3579EBE6	P3579EBE6			CORR			117673111
ICC	I	2015/02/16	2015/02/16	244188	4432410	US912828H862	2015/02/16	US912828H862	US912828H862	912828H86	912828H86			CORR			118368380
ICC	I	2015/02/16	2015/02/16	244190	4432418	US912828H524	2015/02/16	US912828H524	US912828H524	912828H52	912828H52			CORR			118369513
ICC	I	2015/02/25	2015/02/25	245188	4442675	US912810RK60	2015/02/25	US912810RK60	US912810RK60	912810RK6	912810RK6			CORR			119261163
ICC	I	2015/02/25	2015/02/25	245190	4442680	US912828J272	2015/02/25	US912828J272	US912828J272	912828J27	912828J27			CORR			119127564
ICC	I	2015/03/11	2015/03/11	246869	4450492	US912828J439	2015/03/11	US912828J439	US912828J439	912828J43	912828J43			CORR			119888000
ICC	I	2015/03/11	2015/03/11	246872	4450829	US912828J504	2015/03/11	US912828J504	US912828J504	912828J50	912828J50			CORR			119821908
ICC	I	2015/03/11	2015/03/11	247075	4457866	US912833XT25	2015/03/11	US912833XT25	US912833XT25	912833XT2	912833XT2			CORR			021332305
ICC	I	2015/03/11	2015/03/11	247076	4457873	US912833XU97	2015/03/11	US912833XU97	US912833XU97	912833XU9	912833XU9			CORR			021309036
ICC	I	2015/03/11	2015/03/11	247078	4457923	US9128334S60	2015/03/11	US9128334S60	US9128334S60	9128334S6	9128334S6			CORR			040669302
ICC	I	2015/03/11	2015/03/11	247083	4457949	US9128334T44	2015/03/11	US9128334T44	US9128334T44	9128334T4	9128334T4			CORR			030188713
ICC	I	2015/03/11	2015/03/11	247086	4457958	US9128334W72	2015/03/11	US9128334W72	US9128334W72	9128334W7	9128334W7			CORR			040645543
ICC	I	2015/03/11	2015/03/11	247112	4458951	US912833XP03	2015/03/11	US912833XP03	US912833XP03	912833XP0	912833XP0			CORR			024887383
ICC	I	2015/03/16	2015/03/16	247787	4461531	USP3699PGJ05	2015/03/12	USP3699PGJ05	USP3699PGJ05	P3699PGJ0	P3699PGJ0			CORR			120222619
ICC	I	2015/03/16	2015/03/16	247790	4462453	US221597BV86	2015/03/12	US221597BV86	US221597BV86	221597BV8	221597BV8			CORR			120222511
ICC	I	2015/03/30	2015/03/30	249225	4475343	US195325BZ79	2015/03/28		US195325BZ79		195325BZ7			CLEAN			
ICC	I	2015/04/10	2015/04/10	250611	4470632	US042207AB67	2015/04/10	US042207AB67	US042207AB67	042207AB6	042207AB6			CORR			120910973
ICC	I	2015/04/10	2015/04/10	250715	4474106	US912828J843	2015/04/10	US912828J843	US912828J843	912828J84	912828J84			CORR			121134357
ICC	I	2015/04/10	2015/04/10	250721	4474140	US912828J769	2015/04/10	US912828J769	US912828J769	912828J76	912828J76			CORR			121274124
ICC	I	2015/04/15	2015/04/15	251437	4483947	US900123CJ75	2015/04/15	US900123CJ75	US900123CJ75	900123CJ7	900123CJ7			CORR			121861135
ICC	I	2015/05/05	2015/05/05	254795	4500843	US912828K585	2015/05/05	US912828K585	US912828K585	912828K58	912828K58			CORR			122768848
ICC	I	2015/05/05	2015/05/05	254809	4501549	US912828WZ90	2015/05/05	US912828WZ90	US912828WZ90	912828WZ9	912828WZ9			CORR			122768805
ICC	I	2015/05/25	2015/05/25	260029	4510082	US912828XB14	2015/05/25	US912828XB14	US912828XB14	912828XB1	912828XB1			CORR			123511611
ICC	I	2015/05/25	2015/05/25	260030	4510084	US912810RM27	2015/05/25	US912810RM27	US912810RM27	912810RM2	912810RM2			CORR			123672259
ICC	I	2015/06/15	2015/06/15	262897	4520693	US912828XD79	2015/06/15	US912828XD79	US912828XD79	912828XD7	912828XD7			CORR			124076684
ICC	I	2015/06/15	2015/06/15	262948	4522070	US912828XE52	2015/06/15	US912828XE52	US912828XE52					CORR			124098777
ICC	I	2015/06/15	2015/06/15	263375	4534390	US362420AC51	2015/06/15	US362420AC51	US362420AC51	362420AC5	362420AC5			CORR			124689180
ICC	I	2015/06/29	2015/06/29	264650	4544679	US912834PJ18	2015/06/26	US912820V878		912820V87				CLEAN			
ICC	I	2015/06/29	2015/06/29	264651	4544679	US912834PJ18	2015/06/27		US912834PJ18		912834PJ1			CLEAN			
ICC	I	2015/08/06	2015/08/06	268606	4522070	US912828XE52	2015/06/16	US912828XE52	US912828XE52		912828XE5			CORR		124098777	124098777
ICC	I	2015/08/19	2015/08/19	269859	4584676	US135087E830	2015/08/19	US135087E830	US135087E830	135087E83	135087E83			CORR			128016279
ICC	I	2015/11/05	2015/11/05	278445	4639066	US418097AG67	2015/11/05	US418097AG67	US418097AG67	418097AG6	418097AG6			CORR			098266763
ICC	I	2015/11/10	2015/11/10	278688	4632012	US62987BAB80	2015/10/29	US62987BAB80	US62987BAB80		62987BAB8			CORR			131149794
ICC	I	2015/11/16	2015/11/16	278921	4642353	US912828M649	2015/11/12	US912828M649	US912828M649		912828M64			CORR			
ICC	I	2015/11/24	2015/11/24	279848	4646836	US05674RAE45	2015/11/24	US05674RAE45	US05674RAE45	05674RAE4	05674RAE4			CORR			132490759
ICC	I	2015/11/24	2015/11/24	279850	4646833	US05674RAF10	2015/11/24	US05674RAF10	US05674RAF10	05674RAF1	05674RAF1			CORR			132491003
ICC	I	2015/11/30	2015/11/30	280428	4634838	US85227SAQ93	2015/11/03	US85227SAQ93	US85227SAQ93	85227SAQ9	85227SAQ9			CORR			131309171
ICC	I	2015/11/30	2015/11/30	280440	4633914	USY8137FAE89	2015/11/03	USY8137FAE89	USY8137FAE89	Y8137FAE8	Y8137FAE8			CORR			131499205
ICC	I	2015/12/01	2015/12/01	280699	4642357	US912828M565	2015/11/16	US912828M565	US912828M565		912828M56			CORR			
ICC	I	2016/02/09	2016/02/09	286376	4693789	US25714PDJ49	2016/01/29	US25714PDJ49	US25714PDJ49	25714PDJ4	25714PDJ4			CORR			135401803
ICC	I	2016/02/09	2016/02/09	286392	4692441	USP3579EBK21	2016/01/29	USP3579EBK21	USP3579EBK21	P3579EBK2	P3579EBK2			CORR			135402117
ICC	I	2016/02/11	2016/02/11	286738	683366	US912810EB09	1998/11/23	US912810EB09	US912810EB09	912810EB0	912810EB0			CORR			004653874
ICC	I	2016/02/11	2016/02/11	286748	773560	US912810ES34	1994/08/15	US912810ES34	US912810ES34	912810ES3	912810ES3			CORR			005238455
ICC	I	2016/02/11	2016/02/11	286753	683441	US912810ET17	1995/02/15	US912810ET17	US912810ET17	912810ET1	912810ET1			CORR			005576989
ICC	I	2016/02/11	2016/02/11	286758	683447	US912810EX29	1996/08/15	US912810EX29	US912810EX29	912810EX2	912810EX2			CORR			006869505
ICC	I	2016/03/23	2016/03/23	290426	2392553	XS0584435142	2011/01/29	XS0584435142	XS0584435142		V6713EAA8			CORR		058443514	058443514
ICC	I	2016/05/31	2016/05/31	295892	4756741	US040114GZ77	2016/04/22	US040114GZ77	US040114GZ77	040114GZ7	040114GZ7			CORR			140127442
ICC	I	2016/05/31	2016/05/31	295904	4756669	USP04808AG92	2016/04/22	USP04808AG92	USP04808AG92	P04808AG9	P04808AG9			CORR			140128058
ICC	I	2016/06/27	2016/06/27	298317	4470474	XS1207654853	2016/06/24	XS1207654853	XS1207654853		Y5S01WAB6			CORR		120765485	120765485
ICC	I	2016/07/11	2016/07/11	299376	4821394	USP04808AJ32	2016/07/06	USP04808AJ32	USP04808AJ32	P04808AJ3	P04808AJ3			CORR			144237218
ICC	I	2016/07/11	2016/07/11	299405	4821378	US040114HE30	2016/07/06	US040114HE30	US040114HE30	040114HE3	040114HE3			CORR			144237234
ICC	I	2016/07/22	2016/07/22	300391	4840868	US912834DV73	2016/07/22		US912834DV73		912834DV7			CORR			
ICC	I	2016/07/22	2016/07/22	300392	4840923	US912834EP96	2016/07/22		US912834EP96		912834EP9			CORR			
ICC	I	2016/07/25	2016/07/25	300475	4840948	US105756BY51	2016/07/24	US105756BY51	US105756BY51	105756BY5	105756BY5			CORR			146071554
ICC	I	2016/08/15	2016/08/15	302128	169512	US105756AE07	1997/06/10	US105756AE07	US105756AE07	105756AE0	105756AE0	656931	656931	CORR			007687117
ICC	I	2016/11/22	2016/11/22	310511	4942545	US80413TAC36	2016/10/26	US80413TAC36	US80413TAC36	80413TAC3	80413TAC3			CORR			150891841
ICC	I	2016/11/29	2016/11/29	311289	4584114	US912834PM47	2015/08/18	US912834PM47	US912834PM47		912834PM4			CORR			
ICC	I	2016/12/22	2016/12/22	313858	4933252	US085209AD62	2016/10/19	US085209AD62	US085209AD62	085209AD6	085209AD6			CORR			150605849
ICC	I	2016/12/22	2016/12/22	313859	4933250	USG10367AD52	2016/10/19	USG10367AD52	USG10367AD52	G10367AD5	G10367AD5			CORR			150605814
ICC	I	2017/01/20	2017/01/20	316784	5023695	US195325DL65	2017/01/19	US195325DL65	US195325DL65	195325DL6	195325DL6			CORR			155578378
ICC	I	2017/01/20	2017/01/20	316794	5023679	US718286CB15	2017/01/19	US718286CB15	US718286CB15	718286CB1	718286CB1			CORR			155562854
ICC	I	2017/01/25	2017/01/25	317378	5019787	US438180AH47	2017/01/19	US438180AH47	US438180AH47	438180AH4	438180AH4			CORR			155344334
ICC	I	2017/01/25	2017/01/25	317416	5020033	USP5178RAC27	2017/01/19	USP5178RAC27	USP5178RAC27	P5178RAC2	P5178RAC2			CORR			155344342
ICC	I	2017/02/06	2017/02/06	318987	5024665	USP3579EBV85	2017/01/25	USP3579EBV85	USP3579EBV85	P3579EBV8	P3579EBV8			CORR			153998892
ICC	I	2017/02/06	2017/02/06	318988	5024667	US25714PDT21	2017/01/25	US25714PDT21	US25714PDT21	25714PDT2	25714PDT2			CORR			153999333
ICC	I	2017/02/07	2017/02/07	319027	5025629	USP04808AM60	2017/01/26	USP04808AM60	USP04808AM60	P04808AM6	P04808AM6			CORR			155650923
ICC	I	2017/02/07	2017/02/07	319032	5025634	US040114HJ27	2017/01/26	US040114HJ27	US040114HJ27	040114HJ2	040114HJ2			CORR			155650940
ICC	I	2017/02/07	2017/02/07	319033	5025658	US040114HH60	2017/01/26	US040114HH60	US040114HH60	040114HH6	040114HH6			CORR			155645938
ICC	I	2017/02/17	2017/02/17	320003	5023763	US900123CL22	2017/01/23	US900123CL22	US900123CL22	900123CL2	900123CL2			CORR			155614269
ICC	I	2017/03/01	2017/03/01	320798	4927695	US05674RAG92	2016/10/12	US05674RAG92	US05674RAG92	05674RAG9	05674RAG9			CORR			098266267
ICC	I	2017/03/03	2017/03/03	321100	5058805	US283875BW13	2017/02/28	US283875BW13	US283875BW13	283875BW1	283875BW1			CORR			157312162
ICC	I	2017/03/11	2017/03/13	322079	5067900	US682051AD99	2017/03/08	US682051AD99	US682051AD99	682051AD9	682051AD9			CORR			157622684
ICC	I	2017/03/29	2017/03/29	323600	5091682	US699149AD22	2017/03/27	US699149AD22	US699149AD22	699149AD2	699149AD2			CORR			158856425
ICC	I	2017/07/24	2017/07/24	335230	4395037	XS1147732553	2017/07/17	XS1147732553	XS1147732553		Y6S075AA9			CORR		114773255	114773255
ICC	I	2017/08/02	2017/08/02	336560	5202198	US455780CB07	2017/07/18	US455780CB07	US455780CB07	455780CB0	455780CB0			CORR			164844102
ICC	I	2017/11/02	2017/11/02	351198	5310065	US87020DBB91	2017/11/02	US87020DBB91	US87020DBB91	87020DBB9	87020DBB9			CORR			170955005
ICC	I	2017/12/18	2017/12/18	355493	5367454	US9128203W54	2017/11/15		US9128203W54		9128203W5			CLEAN			
ICC	I	2018/02/22	2018/02/22	363304	5440419	US912796PT04	2018/02/21		US912796PT04		912796PT0			CLEAN			
ICC	I	2018/04/11	2018/04/11	368274	5495669	US698299BH68	2018/04/09	US698299BH68	US698299BH68	698299BH6	698299BH6			CORR			180847197
ICC	I	2018/04/17	2018/04/17	368927	5151843	XS1620176831	2018/04/16	XS1620176831	XS1620176831		M7S2D9AA1			CORR		162017683	162017683
ICC	I	2018/04/23	2018/04/23	369510	5469764	US221604AT82	2017/05/24	US78013XDU90	US221604AT82	78013XDU9	221604AT8			CLEAN			
ICC	I	2018/05/18	2018/05/18	371680	5534131	US836205AY00	2018/05/16	US836205AY00	US836205AY00	836205AY0	836205AY0			CORR			182307416
ICC	I	2018/05/18	2018/05/18	371681	5534120	US836205AZ74	2018/05/16	US836205AZ74	US836205AZ74	836205AZ7	836205AZ7			CORR			182307424
EDI_ENDOFFILE
