EDI_BDC_20180613
TableName	Actflag	Created	Changed	BdcID	SecID	ISIN	BDCAppliedTo	CntrID	Notes
BDC	I	2008/01/25	2008/01/25	36019	168269	US715638AP79	I	8	
BDC	I	2008/01/25	2008/01/25	36020	168269	US715638AP79	M	8	
BDC	I	2008/01/25	2008/01/25	36021	168269	US715638AP79	I	58	
BDC	I	2008/01/25	2008/01/25	36022	168269	US715638AP79	M	58	
BDC	I	2016/05/26	2016/05/26	1134353	168269	US715638AP79	I	10	
BDC	I	2016/05/26	2016/05/26	1134354	168269	US715638AP79	M	10	
BDC	I	2012/09/29	2012/09/29	567994	168285	US718286AK32	I	9	
BDC	I	2012/09/29	2012/09/29	567995	168285	US718286AK32	M	9	
BDC	I	2012/10/03	2012/10/03	585042	237546	US912810FP85	I	10	
BDC	I	2012/10/03	2012/10/03	585043	237546	US912810FP85	M	10	
BDC	I	2012/03/30	2012/03/30	501802	268970	US78307AAE38	I	8	
BDC	I	2012/03/30	2012/03/30	501803	268970	US78307AAE38	M	8	
BDC	I	2012/10/05	2012/10/05	597453	272954	US912810EW46	I	10	
BDC	I	2012/10/05	2012/10/05	597454	272954	US912810EW46	M	10	
BDC	I	2012/10/05	2012/10/05	599376	276192	US912810FQ68	I	10	
BDC	I	2012/10/05	2012/10/05	599377	276192	US912810FQ68	M	10	
BDC	I	2012/10/05	2012/10/05	599372	276198	US912810FD55	I	10	
BDC	I	2012/10/05	2012/10/05	599373	276198	US912810FD55	M	10	
BDC	I	2012/10/05	2012/10/05	599378	276199	US912810FR42	I	10	
BDC	I	2012/10/05	2012/10/05	599379	276199	US912810FR42	M	10	
BDC	I	2012/10/05	2012/10/05	599374	276205	US912810FH69	I	10	
BDC	I	2012/10/05	2012/10/05	599375	276205	US912810FH69	M	10	
BDC	I	2012/10/03	2012/10/03	585088	276424	US912810FF04	I	10	
BDC	I	2012/10/03	2012/10/03	585089	276424	US912810FF04	M	10	
BDC	I	2012/10/03	2012/10/03	585090	276432	US912810FJ26	I	10	
BDC	I	2012/10/03	2012/10/03	585091	276432	US912810FJ26	M	10	
BDC	I	2012/10/03	2012/10/03	585253	276612	US912810FM54	I	10	
BDC	I	2012/10/03	2012/10/03	585254	276612	US912810FM54	M	10	
BDC	I	2012/10/03	2012/10/03	585247	276685	US912810FE39	I	10	
BDC	I	2012/10/03	2012/10/03	585248	276685	US912810FE39	M	10	
BDC	I	2012/10/03	2012/10/03	585249	276687	US912810FG86	I	10	
BDC	I	2012/10/03	2012/10/03	585250	276687	US912810FG86	M	10	
BDC	I	2012/09/29	2012/09/29	570717	287393	US040114AH34	I	9	
BDC	I	2012/09/29	2012/09/29	570718	287393	US040114AH34	M	9	
BDC	I	2010/10/22	2010/10/22	360491	298131	US27927WAD48	I	8	
BDC	I	2010/10/22	2010/10/22	360492	298131	US27927WAD48	M	8	
BDC	I	2010/06/29	2010/06/29	319483	325606	US105756BK57	I	8	
BDC	I	2010/06/29	2010/06/29	319484	325606	US105756BK57	M	8	
BDC	I	2016/03/22	2016/03/22	1114056	325606	US105756BK57	I	10	
BDC	I	2016/03/22	2016/03/22	1114057	325606	US105756BK57	M	10	
BDC	I	2008/03/31	2008/03/31	40896	329944	US698299AW45	I	8	
BDC	I	2008/03/31	2008/03/31	40897	329944	US698299AW45	M	8	
BDC	I	2012/10/05	2012/10/05	599380	394879	US912810FS25	I	10	
BDC	I	2012/10/05	2012/10/05	599381	394879	US912810FS25	M	10	
BDC	I	2012/04/03	2012/04/03	503604	416483	US698299AV61	I	8	
BDC	I	2012/04/03	2012/04/03	503605	416483	US698299AV61	M	8	
BDC	I	2012/10/03	2012/10/03	585094	434987	US912810FT08	I	10	
BDC	I	2012/10/03	2012/10/03	585095	434987	US912810FT08	M	10	
BDC	I	2012/10/03	2012/10/03	585255	555708	US912810PT97	I	10	
BDC	I	2012/10/03	2012/10/03	585256	555708	US912810PT97	M	10	
BDC	I	2012/10/05	2012/10/05	599382	555714	US912810PS15	I	10	
BDC	I	2012/10/05	2012/10/05	599383	555714	US912810PS15	M	10	
BDC	I	2009/07/20	2009/07/20	135824	626646	US105756BN96	I	8	
BDC	I	2009/07/20	2009/07/20	135825	626646	US105756BN96	M	8	
BDC	I	2009/07/20	2009/07/20	135826	626646	US105756BN96	I	74	
BDC	I	2009/07/20	2009/07/20	135827	626646	US105756BN96	M	74	
BDC	I	2012/10/03	2012/10/03	585259	694387	US912810PU60	I	10	
BDC	I	2012/10/03	2012/10/03	585260	694387	US912810PU60	M	10	
BDC	I	2013/09/14	2013/09/14	759843	726132	US46513EKL55	I	8	
BDC	I	2013/09/14	2013/09/14	759844	726132	US46513EKL55	M	8	
BDC	I	2008/01/23	2008/01/23	35353	758112	US040114GL81	I	8	
BDC	I	2008/01/23	2008/01/23	35354	758112	US040114GL81	I	65	
BDC	I	2008/01/23	2008/01/23	35355	758112	US040114GL81	M	8	
BDC	I	2008/01/23	2008/01/23	35356	758112	US040114GL81	M	65	
BDC	I	2015/05/07	2015/05/07	983495	758112	US040114GL81	I	10	
BDC	I	2015/05/07	2015/05/07	983496	758112	US040114GL81	M	10	
BDC	I	2012/10/05	2012/10/05	599384	768853	US912810PV44	I	10	
BDC	I	2012/10/05	2012/10/05	599385	768853	US912810PV44	M	10	
BDC	I	2012/10/05	2012/10/05	599400	1097937	US912828JE19	I	10	
BDC	I	2012/10/05	2012/10/05	599401	1097937	US912828JE19	M	10	
BDC	I	2009/11/09	2009/11/09	201289	1146354	US900123BD15	I	8	
BDC	I	2009/11/09	2009/11/09	201290	1146354	US900123BD15	M	8	
BDC	I	2012/10/05	2012/10/05	599402	1365136	US912828JX99	I	10	
BDC	I	2012/10/05	2012/10/05	599403	1365136	US912828JX99	M	10	
BDC	I	2009/07/30	2009/07/30	146557	1365450	US46513E5Y48	I	8	
BDC	I	2009/07/30	2009/07/30	146558	1365450	US46513E5Y48	M	8	
BDC	I	2009/07/31	2009/07/31	148400	1426188	US900123BF62	I	8	
BDC	I	2009/07/31	2009/07/31	148401	1426188	US900123BF62	M	8	
BDC	I	2012/10/03	2012/10/03	585004	1437316	US912828KQ20	I	10	
BDC	I	2012/10/03	2012/10/03	585005	1437316	US912828KQ20	M	10	
BDC	I	2012/10/05	2012/10/05	599406	1494343	US912828LA68	I	10	
BDC	I	2012/10/05	2012/10/05	599407	1494343	US912828LA68	M	10	
BDC	I	2012/10/05	2012/10/05	599386	1517540	US912810PZ57	I	10	
BDC	I	2012/10/05	2012/10/05	599387	1517540	US912810PZ57	M	10	
BDC	I	2014/06/06	2014/06/06	868039	1600439	US105756BR01	I	10	
BDC	I	2014/06/06	2014/06/06	868040	1600439	US105756BR01	M	10	
BDC	I	2012/10/05	2012/10/05	597090	1664680	US912828LY45	I	10	
BDC	I	2012/10/05	2012/10/05	597091	1664680	US912828LY45	M	10	
BDC	I	2012/10/05	2012/10/05	599408	1736459	US912828MF47	I	10	
BDC	I	2012/10/05	2012/10/05	599409	1736459	US912828MF47	M	10	
BDC	U	2011/01/04	2011/01/04	383087	1760867	US445545AD87	I	8	
BDC	U	2011/01/04	2011/01/04	383088	1760867	US445545AD87	M	8	
BDC	U	2011/01/04	2011/01/04	383089	1760867	US445545AD87	I	1	
BDC	U	2011/01/04	2011/01/04	383090	1760867	US445545AD87	M	1	
BDC	I	2013/08/05	2013/08/05	745249	1760867	US445545AD87	I	10	
BDC	I	2013/08/05	2013/08/05	745250	1760867	US445545AD87	M	10	
BDC	I	2012/10/05	2012/10/05	597104	1792170	US912828MP29	I	10	
BDC	I	2012/10/05	2012/10/05	597105	1792170	US912828MP29	M	10	
BDC	I	2012/10/04	2012/10/04	586996	1793290	US912810QE10	I	10	
BDC	I	2012/10/04	2012/10/04	586997	1793290	US912810QE10	M	10	
BDC	I	2012/10/05	2012/10/05	600003	1800147	US912810QF84	I	10	
BDC	I	2012/10/05	2012/10/05	600004	1800147	US912810QF84	M	10	
BDC	U	2011/03/31	2011/03/31	405605	1812870	US836205AN45	I	1	
BDC	U	2011/03/31	2011/03/31	405606	1812870	US836205AN45	M	1	
BDC	U	2011/03/31	2011/03/31	405607	1812870	US836205AN45	I	8	
BDC	U	2011/03/31	2011/03/31	405608	1812870	US836205AN45	M	8	
BDC	I	2014/04/09	2014/04/09	848790	1812870	US836205AN45	I	10	
BDC	I	2014/04/09	2014/04/09	848791	1812870	US836205AN45	M	10	
BDC	I	2014/11/11	2014/11/11	920499	1885361	US105756BS83	I	10	
BDC	I	2014/11/11	2014/11/11	920500	1885361	US105756BS83	M	10	
BDC	I	2012/10/05	2012/10/05	599558	1991188	US912828NM88	I	10	
BDC	I	2012/10/05	2012/10/05	599559	1991188	US912828NM88	M	10	
BDC	I	2012/10/05	2012/10/05	599546	2040730	US912810QK79	I	10	
BDC	I	2012/10/05	2012/10/05	599547	2040730	US912810QK79	M	10	
BDC	I	2012/01/17	2012/01/17	482062	2112877	US718286BJ59	I	117	
BDC	I	2012/01/17	2012/01/17	482063	2112877	US718286BJ59	M	117	
BDC	I	2012/10/05	2012/10/05	599578	2213459	US912828PC88	I	10	
BDC	I	2012/10/05	2012/10/05	599579	2213459	US912828PC88	M	10	
BDC	I	2012/10/05	2012/10/05	599548	2213463	US912810QL52	I	10	
BDC	I	2012/10/05	2012/10/05	599549	2213463	US912810QL52	M	10	
BDC	U	2011/04/04	2011/04/04	406848	2222391	US715638BM30	I	8	
BDC	U	2011/04/04	2011/04/04	406849	2222391	US715638BM30	M	8	
BDC	U	2011/04/04	2011/04/04	406850	2222391	US715638BM30	I	58	
BDC	U	2011/04/04	2011/04/04	406851	2222391	US715638BM30	M	58	
BDC	I	2017/04/14	2017/04/14	1245335	2222391	US715638BM30	I	10	
BDC	I	2017/04/14	2017/04/14	1245336	2222391	US715638BM30	M	10	
BDC	I	2012/10/05	2012/10/05	599570	2383668	US912828PP91	I	10	
BDC	I	2012/10/05	2012/10/05	599571	2383668	US912828PP91	M	10	
BDC	I	2012/10/05	2012/10/05	599564	2433740	US912828PX26	I	10	
BDC	I	2012/10/05	2012/10/05	599565	2433740	US912828PX26	M	10	
BDC	I	2012/10/05	2012/10/05	599550	2433875	US912810QN19	I	10	
BDC	I	2012/10/05	2012/10/05	599551	2433875	US912810QN19	M	10	
BDC	I	2012/10/05	2012/10/05	600005	2452828	US912810QP66	I	10	
BDC	I	2012/10/05	2012/10/05	600006	2452828	US912810QP66	M	10	
BDC	I	2012/05/26	2012/05/26	524605	2546667	US445545AE60	I	8	
BDC	I	2012/05/26	2012/05/26	524606	2546667	US445545AE60	M	8	
BDC	I	2012/05/26	2012/05/26	524607	2546667	US445545AE60	I	1	
BDC	I	2012/05/26	2012/05/26	524608	2546667	US445545AE60	M	1	
BDC	I	2017/01/20	2017/01/20	1212935	2546667	US445545AE60	I	10	
BDC	I	2017/01/20	2017/01/20	1212936	2546667	US445545AE60	M	10	
BDC	I	2012/04/24	2012/04/24	511670	2555356	US445545AF36	I	1	
BDC	I	2012/04/24	2012/04/24	511671	2555356	US445545AF36	I	8	
BDC	I	2012/04/24	2012/04/24	511672	2555356	US445545AF36	M	1	
BDC	I	2012/04/24	2012/04/24	511673	2555356	US445545AF36	M	8	
BDC	I	2017/11/09	2017/11/09	1337110	2555356	US445545AF36	I	10	
BDC	I	2017/11/09	2017/11/09	1337111	2555356	US445545AF36	M	10	
BDC	I	2012/10/08	2012/10/08	611066	3228685	US857524AB80	I	10	
BDC	I	2012/10/08	2012/10/08	611067	3228685	US857524AB80	M	10	
BDC	I	2012/04/03	2012/04/03	503615	3232728	US62987BAA08	I	8	
BDC	I	2012/04/03	2012/04/03	503616	3232728	US62987BAA08	M	8	
BDC	I	2013/04/30	2013/04/30	710414	3470604	US912828SA95	I	10	
BDC	I	2013/04/30	2013/04/30	710415	3470604	US912828SA95	M	10	
BDC	I	2013/04/30	2013/04/30	710416	3790194	US912828SV33	I	10	
BDC	I	2013/04/30	2013/04/30	710417	3790194	US912828SV33	M	10	
BDC	I	2013/08/06	2013/08/06	745695	3881732	US912828TJ95	I	10	
BDC	I	2013/08/06	2013/08/06	745696	3881732	US912828TJ95	M	10	
BDC	I	2013/09/25	2013/09/25	764241	3943051	US283875AR37	I	5	
BDC	I	2013/09/25	2013/09/25	764242	3943051	US283875AR37	M	5	
BDC	I	2013/09/25	2013/09/25	764243	3943051	US283875AR37	I	8	
BDC	I	2013/09/25	2013/09/25	764244	3943051	US283875AR37	M	8	
BDC	I	2013/09/25	2013/09/25	764245	3943051	US283875AR37	I	108	
BDC	I	2013/09/25	2013/09/25	764246	3943051	US283875AR37	M	108	
BDC	I	2013/11/12	2013/11/12	780561	4080222	US912828VM96	I	10	
BDC	I	2013/11/12	2013/11/12	780562	4080222	US912828VM96	M	10	
BDC	I	2014/04/09	2014/04/09	848802	4105800	US836205AR58	I	10	
BDC	I	2014/04/09	2014/04/09	848803	4105800	US836205AR58	M	10	
BDC	I	2016/04/22	2016/04/22	1123000	4115104	US91086QBC15	I	10	
BDC	I	2016/04/22	2016/04/22	1123001	4115104	US91086QBC15	M	10	
BDC	I	2014/02/25	2014/02/25	827172	4207240	US135087C776	I	1	
BDC	I	2014/02/25	2014/02/25	827173	4207240	US135087C776	M	1	
BDC	I	2014/02/25	2014/02/25	827174	4207240	US135087C776	I	8	
BDC	I	2014/02/25	2014/02/25	827175	4207240	US135087C776	M	8	
BDC	I	2014/02/25	2014/02/25	827176	4207240	US135087C776	I	29	
BDC	I	2014/02/25	2014/02/25	827177	4207240	US135087C776	M	29	
BDC	I	2015/01/30	2015/01/30	950514	4207834	US912810RF75	I	10	
BDC	I	2015/01/30	2015/01/30	950515	4207834	US912810RF75	M	10	
BDC	I	2015/01/30	2015/01/30	950528	4246834	US912828C996	I	10	
BDC	I	2015/01/30	2015/01/30	950529	4246834	US912828C996	M	10	
BDC	I	2015/02/02	2015/02/02	951024	4262370	US912828WJ58	I	10	
BDC	I	2015/02/02	2015/02/02	951025	4262370	US912828WJ58	M	10	
BDC	I	2015/01/30	2015/01/30	950518	4262357	US912810RG58	I	10	
BDC	I	2015/01/30	2015/01/30	950519	4262357	US912810RG58	M	10	
BDC	I	2015/02/02	2015/02/02	951026	4311956	US912828WU04	I	10	
BDC	I	2015/02/02	2015/02/02	951027	4311956	US912828WU04	M	10	
BDC	I	2014/08/27	2014/08/27	895338	4322936	USP75744AB11	I	8	
BDC	I	2014/08/27	2014/08/27	895339	4322936	USP75744AB11	M	8	
BDC	I	2014/08/27	2014/08/27	895358	4322953	US699149AB65	I	8	
BDC	I	2014/08/27	2014/08/27	895359	4322953	US699149AB65	M	8	
BDC	I	2015/01/30	2015/01/30	950530	4323239	US912828D564	I	10	
BDC	I	2015/01/30	2015/01/30	950531	4323239	US912828D564	M	10	
BDC	I	2015/01/30	2015/01/30	950520	4323230	US912810RH32	I	10	
BDC	I	2015/01/30	2015/01/30	950521	4323230	US912810RH32	M	10	
BDC	I	2012/09/29	2012/09/29	571294	169512	US105756AE07	I	10	
BDC	I	2012/09/29	2012/09/29	571295	169512	US105756AE07	M	10	
BDC	I	2015/01/31	2015/02/02	950727	4379995	US912828G385	I	10	
BDC	I	2015/01/31	2015/02/02	950728	4379995	US912828G385	M	10	
BDC	I	2015/01/30	2015/01/30	950522	4379991	US912810RJ97	I	10	
BDC	I	2015/01/30	2015/01/30	950523	4379991	US912810RJ97	M	10	
BDC	I	2015/01/31	2015/02/02	950731	4394288	US912828G534	I	10	
BDC	I	2015/01/31	2015/02/02	950732	4394288	US912828G534	M	10	
BDC	I	2015/01/31	2015/02/02	950735	4411022	US912828G872	I	10	
BDC	I	2015/01/31	2015/02/02	950736	4411022	US912828G872	M	10	
BDC	I	2015/01/31	2015/02/02	950737	4411039	US912828G955	I	10	
BDC	I	2015/01/31	2015/02/02	950738	4411039	US912828G955	M	10	
BDC	I	2013/04/30	2013/04/30	710682	4016933	US900123CB40	I	8	
BDC	I	2013/04/30	2013/04/30	710683	4016933	US900123CB40	M	8	
BDC	I	2015/02/07	2015/02/09	952985	4429693	US25714PCV85	I	8	
BDC	I	2015/02/07	2015/02/09	952986	4429693	US25714PCV85	M	8	
BDC	I	2015/02/07	2015/02/09	952995	4429697	USP3579EBD87	I	8	
BDC	I	2015/02/07	2015/02/09	952996	4429697	USP3579EBD87	M	8	
BDC	I	2015/02/07	2015/02/09	953005	4429721	US25714PCW68	I	8	
BDC	I	2015/02/07	2015/02/09	953006	4429721	US25714PCW68	M	8	
BDC	I	2015/02/07	2015/02/09	953007	4429722	USP3579EBE60	I	8	
BDC	I	2015/02/07	2015/02/09	953008	4429722	USP3579EBE60	M	8	
BDC	I	2013/10/14	2013/10/14	771651	4104142	US50064FAK03	I	8	
BDC	I	2013/10/14	2013/10/14	771652	4104142	US50064FAK03	M	8	
BDC	I	2014/09/16	2014/09/16	901765	4292480	US491798AF18	I	1	
BDC	I	2014/09/16	2014/09/16	901766	4292480	US491798AF18	M	1	
BDC	I	2014/09/16	2014/09/16	901767	4292480	US491798AF18	I	8	
BDC	I	2014/09/16	2014/09/16	901768	4292480	US491798AF18	M	8	
BDC	I	2015/03/17	2015/03/17	965285	4432418	US912828H524	I	10	
BDC	I	2015/03/17	2015/03/17	965286	4432418	US912828H524	M	10	
BDC	I	2014/07/05	2014/07/05	875435	4287802	US760942BA98	I	8	
BDC	I	2014/07/05	2014/07/05	875436	4287802	US760942BA98	M	8	
BDC	I	2015/03/17	2015/03/17	965281	4442675	US912810RK60	I	10	
BDC	I	2015/03/17	2015/03/17	965282	4442675	US912810RK60	M	10	
BDC	I	2015/03/17	2015/03/17	965292	4442680	US912828J272	I	10	
BDC	I	2015/03/17	2015/03/17	965293	4442680	US912828J272	M	10	
BDC	I	2015/04/29	2015/04/29	981174	4447416	US912810RL44	I	10	
BDC	I	2015/04/29	2015/04/29	981175	4447416	US912810RL44	M	10	
BDC	I	2015/04/15	2015/04/15	976336	3990722	US817477AD48	I	1	
BDC	I	2015/04/15	2015/04/15	976337	3990722	US817477AD48	M	1	
BDC	I	2015/04/15	2015/04/15	976338	3990722	US817477AD48	I	8	
BDC	I	2015/04/15	2015/04/15	976339	3990722	US817477AD48	M	8	
BDC	I	2014/08/02	2014/08/02	884432	4155294	US817477AE21	I	1	
BDC	I	2014/08/02	2014/08/02	884433	4155294	US817477AE21	M	1	
BDC	I	2014/08/02	2014/08/02	884434	4155294	US817477AE21	I	8	
BDC	I	2014/08/02	2014/08/02	884435	4155294	US817477AE21	M	8	
BDC	I	2015/03/17	2015/03/17	965297	4450492	US912828J439	I	10	
BDC	I	2015/03/17	2015/03/17	965298	4450492	US912828J439	M	10	
BDC	I	2014/11/18	2014/11/18	924426	1760132	US92670LAF67	I	8	
BDC	I	2014/11/18	2014/11/18	924427	1760132	US92670LAF67	M	8	
BDC	I	2014/11/18	2014/11/18	924428	1760132	US92670LAF67	I	112	
BDC	I	2014/11/18	2014/11/18	924429	1760132	US92670LAF67	M	112	
BDC	I	2009/05/14	2009/05/14	93932	1386469	XS0422754258	I	8	
BDC	I	2009/05/14	2009/05/14	93933	1386469	XS0422754258	M	8	
BDC	I	2013/04/02	2013/04/02	691343	1386469	XS0422754258	M	1	
BDC	I	2013/04/02	2013/04/02	691344	1386469	XS0422754258	I	1	
BDC	I	2014/11/10	2014/11/10	919542	4179467	US85227SAL07	I	1	
BDC	I	2014/11/10	2014/11/10	919543	4179467	US85227SAL07	M	1	
BDC	I	2014/11/10	2014/11/10	919544	4179467	US85227SAL07	I	8	
BDC	I	2014/11/10	2014/11/10	919545	4179467	US85227SAL07	M	8	
BDC	I	2014/11/10	2014/11/10	919546	4179467	US85227SAL07	I	44	
BDC	I	2014/11/10	2014/11/10	919547	4179467	US85227SAL07	M	44	
BDC	I	2015/03/17	2015/03/17	965299	4450829	US912828J504	I	10	
BDC	I	2015/03/17	2015/03/17	965300	4450829	US912828J504	M	10	
BDC	I	2015/04/29	2015/04/29	981184	4474140	US912828J769	I	10	
BDC	I	2015/04/29	2015/04/29	981185	4474140	US912828J769	M	10	
BDC	I	2015/04/29	2015/04/29	981176	4426518	US912828H458	I	10	
BDC	I	2015/04/29	2015/04/29	981177	4426518	US912828H458	M	10	
BDC	I	2015/04/29	2015/04/29	981186	4474106	US912828J843	I	10	
BDC	I	2015/04/29	2015/04/29	981187	4474106	US912828J843	M	10	
BDC	I	2014/11/10	2014/11/10	919548	4179476	USY8137FAA67	I	1	
BDC	I	2014/11/10	2014/11/10	919549	4179476	USY8137FAA67	M	1	
BDC	I	2014/11/10	2014/11/10	919550	4179476	USY8137FAA67	I	8	
BDC	I	2014/11/10	2014/11/10	919551	4179476	USY8137FAA67	M	8	
BDC	I	2014/11/10	2014/11/10	919552	4179476	USY8137FAA67	I	44	
BDC	I	2014/11/10	2014/11/10	919553	4179476	USY8137FAA67	M	44	
BDC	I	2014/11/18	2014/11/18	924442	1759566	USY9374MAF06	I	8	
BDC	I	2014/11/18	2014/11/18	924443	1759566	USY9374MAF06	M	8	
BDC	I	2014/11/18	2014/11/18	924444	1759566	USY9374MAF06	I	112	
BDC	I	2014/11/18	2014/11/18	924445	1759566	USY9374MAF06	M	112	
BDC	I	2014/09/16	2014/09/16	901753	4290243	US491798AE43	I	1	
BDC	I	2014/09/16	2014/09/16	901754	4290243	US491798AE43	M	1	
BDC	I	2014/09/16	2014/09/16	901755	4290243	US491798AE43	I	8	
BDC	I	2014/09/16	2014/09/16	901756	4290243	US491798AE43	M	8	
BDC	I	2010/02/01	2010/02/01	250785	1761597	US056732AF75	I	8	
BDC	I	2010/02/01	2010/02/01	250786	1761597	US056732AF75	M	8	
BDC	I	2015/08/18	2015/08/18	1030352	4497395	US912828K338	I	10	
BDC	I	2015/08/18	2015/08/18	1030353	4497395	US912828K338	M	10	
BDC	I	2012/04/02	2012/04/02	502753	416840	US067070AD41	M	8	
BDC	I	2015/08/18	2015/08/18	1030366	4500843	US912828K585	I	10	
BDC	I	2015/08/18	2015/08/18	1030367	4500843	US912828K585	M	10	
BDC	I	2007/12/11	2007/12/11	28245	737079	US25714PAJ75	I	8	
BDC	I	2007/12/11	2007/12/11	28246	737079	US25714PAJ75	M	8	
BDC	U	2011/01/27	2011/01/27	389776	1897771	US25714PAK49	I	8	
BDC	U	2011/01/27	2011/01/27	389777	1897771	US25714PAK49	M	8	
BDC	I	2013/05/28	2013/05/28	720125	4017915	US25714PBY34	I	8	
BDC	I	2013/05/28	2013/05/28	720126	4017915	US25714PBY34	M	8	
BDC	I	2013/11/25	2013/11/25	785691	4131615	US25714PBZ09	I	8	
BDC	I	2013/11/25	2013/11/25	785692	4131615	US25714PBZ09	M	8	
BDC	I	2014/05/20	2014/05/20	862447	4255962	US25714PCF36	I	8	
BDC	I	2014/05/20	2014/05/20	862448	4255962	US25714PCF36	M	8	
BDC	I	2012/03/27	2012/03/27	500028	2023279	US38377HAA59	I	8	
BDC	I	2012/03/27	2012/03/27	500029	2023279	US38377HAA59	M	8	
BDC	I	2014/04/24	2014/04/24	854644	4244082	US695847AL74	I	1	
BDC	I	2014/04/24	2014/04/24	854645	4244082	US695847AL74	M	1	
BDC	I	2014/04/24	2014/04/24	854646	4244082	US695847AL74	I	8	
BDC	I	2014/04/24	2014/04/24	854647	4244082	US695847AL74	M	8	
BDC	I	2012/09/08	2012/09/08	557678	3794380	US451029AE22	I	8	
BDC	I	2012/09/08	2012/09/08	557679	3794380	US451029AE22	M	8	
BDC	I	2010/05/11	2010/05/11	304758	253487	US46513EFG26	I	8	
BDC	I	2010/05/11	2010/05/11	304759	253487	US46513EFG26	M	8	
BDC	I	2012/08/29	2012/08/29	554858	246723	US46513EFF43	I	8	
BDC	I	2012/08/29	2012/08/29	554859	246723	US46513EFF43	M	8	
BDC	U	2011/03/29	2011/03/29	404607	1849503	US536878AD31	I	1	
BDC	U	2011/03/29	2011/03/29	404608	1849503	US536878AD31	M	1	
BDC	U	2011/03/29	2011/03/29	404609	1849503	US536878AD31	I	5	
BDC	U	2011/03/29	2011/03/29	404610	1849503	US536878AD31	M	5	
BDC	U	2011/03/29	2011/03/29	404611	1849503	US536878AD31	I	8	
BDC	U	2011/03/29	2011/03/29	404612	1849503	US536878AD31	M	8	
BDC	U	2012/04/03	2012/04/10	503588	2818081	US536878AF88	I	1	
BDC	I	2012/04/03	2012/04/03	503589	2818081	US536878AF88	M	1	
BDC	I	2012/04/03	2012/04/03	503590	2818081	US536878AF88	I	5	
BDC	I	2012/04/03	2012/04/03	503591	2818081	US536878AF88	M	5	
BDC	I	2012/04/03	2012/04/03	503592	2818081	US536878AF88	I	8	
BDC	I	2012/04/03	2012/04/03	503593	2818081	US536878AF88	M	8	
BDC	I	2012/06/04	2012/06/04	527678	3495812	US536878AG61	I	1	
BDC	I	2012/06/04	2012/06/04	527679	3495812	US536878AG61	M	1	
BDC	I	2012/06/04	2012/06/04	527680	3495812	US536878AG61	I	8	
BDC	I	2012/06/04	2012/06/04	527681	3495812	US536878AG61	M	8	
BDC	I	2012/06/04	2012/06/04	527682	3495812	US536878AG61	I	5	
BDC	I	2012/06/04	2012/06/04	527683	3495812	US536878AG61	M	5	
BDC	I	2014/04/24	2014/04/24	854660	4244096	US695847AK91	I	1	
BDC	I	2014/04/24	2014/04/24	854661	4244096	US695847AK91	M	1	
BDC	I	2014/04/24	2014/04/24	854662	4244096	US695847AK91	I	8	
BDC	I	2014/04/24	2014/04/24	854663	4244096	US695847AK91	M	8	
BDC	I	2011/08/09	2011/08/09	439941	2767705	US518417AA89	I	1	
BDC	I	2011/08/09	2011/08/09	439942	2767705	US518417AA89	M	1	
BDC	I	2011/08/09	2011/08/09	439943	2767705	US518417AA89	I	8	
BDC	I	2011/08/09	2011/08/09	439944	2767705	US518417AA89	M	8	
BDC	I	2010/08/07	2010/08/07	338059	265971	US221597AF46	I	8	
BDC	I	2010/08/07	2010/08/07	338060	265971	US221597AF46	M	8	
BDC	I	2012/12/15	2012/12/15	636291	819499	US283875AH54	I	5	
BDC	I	2012/12/15	2012/12/15	636292	819499	US283875AH54	M	5	
BDC	I	2012/12/15	2012/12/15	636293	819499	US283875AH54	I	8	
BDC	I	2012/12/15	2012/12/15	636294	819499	US283875AH54	M	8	
BDC	I	2013/11/05	2013/11/05	779002	732880	US283875AK83	I	5	
BDC	I	2013/11/05	2013/11/05	779003	732880	US283875AK83	M	5	
BDC	I	2013/11/05	2013/11/05	779004	732880	US283875AK83	I	8	
BDC	I	2013/11/05	2013/11/05	779005	732880	US283875AK83	M	8	
BDC	I	2013/11/05	2013/11/05	779006	732880	US283875AK83	I	108	
BDC	I	2013/11/05	2013/11/05	779007	732880	US283875AK83	M	108	
BDC	I	2009/09/10	2009/09/10	169989	687992	US283875AM40	I	5	
BDC	I	2009/09/10	2009/09/10	169990	687992	US283875AM40	M	5	
BDC	I	2009/09/10	2009/09/10	169991	687992	US283875AM40	I	8	
BDC	I	2009/09/10	2009/09/10	169992	687992	US283875AM40	M	8	
BDC	I	2009/09/10	2009/09/10	169993	687992	US283875AM40	I	108	
BDC	I	2009/09/10	2009/09/10	169994	687992	US283875AM40	M	108	
BDC	I	2013/09/26	2013/09/26	764628	3818911	US831588AB47	I	1	
BDC	I	2013/09/26	2013/09/26	764629	3818911	US831588AB47	M	1	
BDC	I	2013/09/26	2013/09/26	764630	3818911	US831588AB47	I	5	
BDC	I	2013/09/26	2013/09/26	764631	3818911	US831588AB47	M	5	
BDC	I	2013/09/26	2013/09/26	764632	3818911	US831588AB47	I	8	
BDC	I	2013/09/26	2013/09/26	764633	3818911	US831588AB47	M	8	
BDC	I	2013/05/22	2013/05/22	718012	4031577	US831594AD88	I	1	
BDC	I	2013/05/22	2013/05/22	718013	4031577	US831594AD88	M	1	
BDC	I	2013/05/22	2013/05/22	718014	4031577	US831594AD88	I	8	
BDC	I	2013/05/22	2013/05/22	718015	4031577	US831594AD88	M	8	
BDC	I	2013/05/22	2013/05/22	718016	4031577	US831594AD88	I	10	
BDC	I	2013/05/22	2013/05/22	718017	4031577	US831594AD88	M	10	
BDC	I	2013/05/22	2013/05/22	718018	4031577	US831594AD88	I	107	
BDC	I	2013/05/22	2013/05/22	718019	4031577	US831594AD88	M	107	
BDC	I	2014/02/20	2014/02/20	825232	4199454	US831594AF37	I	1	
BDC	I	2014/02/20	2014/02/20	825233	4199454	US831594AF37	M	1	
BDC	I	2014/02/20	2014/02/20	825234	4199454	US831594AF37	I	8	
BDC	I	2014/02/20	2014/02/20	825235	4199454	US831594AF37	M	8	
BDC	I	2014/02/20	2014/02/20	825236	4199454	US831594AF37	I	10	
BDC	I	2014/02/20	2014/02/20	825237	4199454	US831594AF37	M	10	
BDC	I	2014/02/20	2014/02/20	825238	4199454	US831594AF37	I	107	
BDC	I	2014/02/20	2014/02/20	825239	4199454	US831594AF37	M	107	
BDC	I	2014/02/20	2014/02/20	825251	4201048	US831594AG10	I	1	
BDC	I	2014/02/20	2014/02/20	825252	4201048	US831594AG10	M	1	
BDC	I	2014/02/20	2014/02/20	825253	4201048	US831594AG10	I	8	
BDC	I	2014/02/20	2014/02/20	825254	4201048	US831594AG10	M	8	
BDC	I	2014/02/20	2014/02/20	825255	4201048	US831594AG10	I	10	
BDC	I	2014/02/20	2014/02/20	825256	4201048	US831594AG10	M	10	
BDC	I	2014/02/20	2014/02/20	825257	4201048	US831594AG10	I	107	
BDC	I	2014/02/20	2014/02/20	825258	4201048	US831594AG10	M	107	
BDC	I	2013/08/15	2013/08/15	748964	4086352	US085209AC89	I	8	
BDC	I	2013/08/15	2013/08/15	748965	4086352	US085209AC89	M	8	
BDC	I	2012/07/31	2012/07/31	548085	3867677	US085209AB07	I	8	
BDC	I	2012/07/31	2012/07/31	548086	3867677	US085209AB07	M	8	
BDC	I	2012/12/15	2012/12/15	636201	1882176	US283875AP70	I	5	
BDC	I	2012/12/15	2012/12/15	636202	1882176	US283875AP70	M	5	
BDC	I	2012/12/15	2012/12/15	636203	1882176	US283875AP70	I	8	
BDC	I	2012/12/15	2012/12/15	636204	1882176	US283875AP70	M	8	
BDC	I	2012/12/15	2012/12/15	636205	1882176	US283875AP70	I	108	
BDC	I	2012/12/15	2012/12/15	636206	1882176	US283875AP70	M	108	
BDC	I	2012/11/19	2012/11/19	627181	2397761	US283875AQ53	I	8	
BDC	I	2012/11/19	2012/11/19	627182	2397761	US283875AQ53	M	8	
BDC	I	2012/11/19	2012/11/19	627183	2397761	US283875AQ53	I	5	
BDC	I	2012/11/19	2012/11/19	627184	2397761	US283875AQ53	M	5	
BDC	I	2012/11/19	2012/11/19	627185	2397761	US283875AQ53	I	108	
BDC	I	2012/11/19	2012/11/19	627186	2397761	US283875AQ53	M	108	
BDC	I	2008/03/12	2008/03/12	39000	683649	US896292AF68	I	8	
BDC	I	2008/03/12	2008/03/12	39001	683649	US896292AF68	M	8	
BDC	I	2012/09/29	2012/09/29	571222	683649	US896292AF68	I	10	
BDC	I	2012/09/29	2012/09/29	571223	683649	US896292AF68	M	10	
BDC	I	2013/12/21	2013/12/21	799202	4163596	US896292AH25	I	8	
BDC	I	2013/12/21	2013/12/21	799203	4163596	US896292AH25	M	8	
BDC	U	2011/04/04	2011/04/04	406474	2129824	US85227SAH94	I	1	
BDC	U	2011/04/04	2011/04/04	406475	2129824	US85227SAH94	M	1	
BDC	U	2011/04/04	2011/04/04	406476	2129824	US85227SAH94	I	8	
BDC	U	2011/04/04	2011/04/04	406477	2129824	US85227SAH94	M	8	
BDC	U	2011/04/04	2011/04/04	406478	2129824	US85227SAH94	I	44	
BDC	U	2011/04/04	2011/04/04	406479	2129824	US85227SAH94	M	44	
BDC	I	2013/08/15	2013/08/15	748833	2866204	US85227SAJ50	I	1	
BDC	I	2013/08/15	2013/08/15	748834	2866204	US85227SAJ50	M	1	
BDC	I	2013/08/15	2013/08/15	748835	2866204	US85227SAJ50	I	8	
BDC	I	2013/08/15	2013/08/15	748836	2866204	US85227SAJ50	M	8	
BDC	I	2013/08/15	2013/08/15	748837	2866204	US85227SAJ50	I	44	
BDC	I	2013/08/15	2013/08/15	748838	2866204	US85227SAJ50	M	44	
BDC	I	2013/07/29	2013/07/29	743194	4084160	US07782GAG82	I	8	
BDC	I	2013/07/29	2013/07/29	743195	4084160	US07782GAG82	M	8	
BDC	I	2013/07/29	2013/07/29	743196	4084160	US07782GAG82	I	79	
BDC	I	2013/07/29	2013/07/29	743197	4084160	US07782GAG82	M	79	
BDC	I	2015/08/18	2015/08/18	1030402	4510082	US912828XB14	I	10	
BDC	I	2015/08/18	2015/08/18	1030403	4510082	US912828XB14	M	10	
BDC	I	2015/08/18	2015/08/18	1030398	4501549	US912828WZ90	I	10	
BDC	I	2015/08/18	2015/08/18	1030399	4501549	US912828WZ90	M	10	
BDC	I	2012/07/31	2012/07/31	548098	3867681	USG10367AA14	I	8	
BDC	I	2012/07/31	2012/07/31	548099	3867681	USG10367AA14	M	8	
BDC	I	2013/08/15	2013/08/15	748966	4085757	USG10367AB96	I	8	
BDC	I	2013/08/15	2013/08/15	748967	4085757	USG10367AB96	M	8	
BDC	I	2008/01/25	2008/01/25	36029	249468	US78307AAG85	I	8	
BDC	I	2008/01/25	2008/01/25	36030	249468	US78307AAG85	M	8	
BDC	I	2012/05/16	2012/05/16	519717	250384	US74727PAE16	I	1	
BDC	I	2012/05/16	2012/05/16	519718	250384	US74727PAE16	M	1	
BDC	I	2012/05/16	2012/05/16	519719	250384	US74727PAE16	I	8	
BDC	I	2012/05/16	2012/05/16	519720	250384	US74727PAE16	M	8	
BDC	I	2011/06/03	2011/06/03	420880	636747	USP16394AF89	I	8	
BDC	I	2011/06/03	2011/06/03	420881	636747	USP16394AF89	M	8	
BDC	I	2011/06/03	2011/06/03	420882	636747	USP16394AF89	I	79	
BDC	I	2011/06/03	2011/06/03	420883	636747	USP16394AF89	M	79	
BDC	I	2013/02/21	2013/02/21	657438	3967546	US699149AA82	I	8	
BDC	I	2013/02/21	2013/02/21	657439	3967546	US699149AA82	M	8	
BDC	I	2013/07/29	2013/07/29	743178	4084150	USP16394AG62	I	8	
BDC	I	2013/07/29	2013/07/29	743179	4084150	USP16394AG62	M	8	
BDC	I	2013/07/29	2013/07/29	743180	4084150	USP16394AG62	I	79	
BDC	I	2013/07/29	2013/07/29	743181	4084150	USP16394AG62	M	79	
BDC	I	2017/04/12	2017/04/12	1244015	933410	USP17625AA59	I	10	
BDC	I	2017/04/12	2017/04/12	1244016	933410	USP17625AA59	M	10	
BDC	I	2017/04/12	2017/04/12	1244036	955697	USP17625AB33	I	10	
BDC	I	2017/04/12	2017/04/12	1244037	955697	USP17625AB33	M	10	
BDC	I	2011/11/10	2011/11/10	468183	2896644	USP17625AD98	I	8	
BDC	I	2011/11/10	2011/11/10	468184	2896644	USP17625AD98	M	8	
BDC	I	2014/09/10	2014/09/10	899793	2896644	USP17625AD98	I	10	
BDC	I	2014/09/10	2014/09/10	899794	2896644	USP17625AD98	M	10	
BDC	I	2014/11/07	2014/11/07	917945	3198797	USP17625AE71	I	10	
BDC	I	2014/11/07	2014/11/07	917946	3198797	USP17625AE71	M	10	
BDC	I	2013/09/30	2013/09/30	766189	3794384	USX34650AA31	I	8	
BDC	I	2013/09/30	2013/09/30	766190	3794384	USX34650AA31	M	8	
BDC	I	2010/10/30	2010/10/30	363327	2129829	USY2029SAF12	I	1	
BDC	I	2010/10/30	2010/10/30	363328	2129829	USY2029SAF12	M	1	
BDC	I	2010/10/30	2010/10/30	363329	2129829	USY2029SAF12	I	8	
BDC	I	2010/10/30	2010/10/30	363330	2129829	USY2029SAF12	M	8	
BDC	I	2010/10/30	2010/10/30	363331	2129829	USY2029SAF12	I	44	
BDC	I	2010/10/30	2010/10/30	363332	2129829	USY2029SAF12	M	44	
BDC	I	2013/08/15	2013/08/15	748815	2866212	USY2029SAG94	I	1	
BDC	I	2013/08/15	2013/08/15	748816	2866212	USY2029SAG94	M	1	
BDC	I	2013/08/15	2013/08/15	748817	2866212	USY2029SAG94	I	8	
BDC	I	2013/08/15	2013/08/15	748818	2866212	USY2029SAG94	M	8	
BDC	I	2013/08/15	2013/08/15	748819	2866212	USY2029SAG94	I	44	
BDC	I	2013/08/15	2013/08/15	748820	2866212	USY2029SAG94	M	44	
BDC	I	2007/06/12	2007/06/12	9628	352021	USY8793YAL66	I	1	
BDC	I	2007/06/12	2007/06/12	9629	352021	USY8793YAL66	M	1	
BDC	I	2007/06/12	2007/06/12	9630	352021	USY8793YAL66	I	8	
BDC	I	2007/06/12	2007/06/12	9631	352021	USY8793YAL66	M	8	
BDC	U	2011/03/28	2011/03/28	404537	1896123	USP3579EAH01	I	8	
BDC	I	2013/08/24	2013/08/24	751933	1896123	USP3579EAH01	M	8	
BDC	I	2013/05/28	2013/05/28	720117	4017900	USP3579EAS65	I	8	
BDC	I	2013/05/28	2013/05/28	720118	4017900	USP3579EAS65	M	8	
BDC	I	2014/05/20	2014/05/20	862441	4255974	USP3579EAY34	I	8	
BDC	I	2014/05/20	2014/05/20	862442	4255974	USP3579EAY34	M	8	
BDC	I	2010/07/26	2010/07/26	331842	168227	USP3699PAA59	I	8	
BDC	I	2010/07/26	2010/07/26	331843	168227	USP3699PAA59	M	8	
BDC	I	2016/04/07	2016/04/07	1118577	168227	USP3699PAA59	I	10	
BDC	I	2016/04/07	2016/04/07	1118578	168227	USP3699PAA59	M	10	
BDC	I	2013/10/02	2013/10/02	767480	3941907	USP01012AS54	I	5	
BDC	I	2013/10/02	2013/10/02	767481	3941907	USP01012AS54	M	5	
BDC	I	2013/10/02	2013/10/02	767482	3941907	USP01012AS54	I	8	
BDC	I	2013/10/02	2013/10/02	767483	3941907	USP01012AS54	M	8	
BDC	I	2013/10/02	2013/10/02	767484	3941907	USP01012AS54	I	108	
BDC	I	2013/10/02	2013/10/02	767485	3941907	USP01012AS54	M	108	
BDC	I	2012/03/19	2012/03/19	496562	2401840	USP01012AR71	I	5	
BDC	I	2012/03/19	2012/03/19	496563	2401840	USP01012AR71	M	5	
BDC	I	2012/03/19	2012/03/19	496564	2401840	USP01012AR71	I	8	
BDC	I	2012/03/19	2012/03/19	496565	2401840	USP01012AR71	M	8	
BDC	I	2012/03/19	2012/03/19	496566	2401840	USP01012AR71	I	108	
BDC	I	2012/03/19	2012/03/19	496567	2401840	USP01012AR71	M	108	
BDC	I	2011/09/07	2011/09/07	448266	1666994	USP01012AQ98	I	5	
BDC	I	2011/09/07	2011/09/07	448267	1666994	USP01012AQ98	M	5	
BDC	I	2011/09/07	2011/09/07	448268	1666994	USP01012AQ98	I	8	
BDC	I	2011/09/07	2011/09/07	448269	1666994	USP01012AQ98	M	8	
BDC	I	2011/09/07	2011/09/07	448270	1666994	USP01012AQ98	I	108	
BDC	I	2011/09/07	2011/09/07	448271	1666994	USP01012AQ98	M	108	
BDC	I	2008/01/28	2008/01/28	36124	279984	USP01012AN67	I	5	
BDC	I	2008/01/28	2008/01/28	36125	279984	USP01012AN67	M	5	
BDC	I	2008/01/28	2008/01/28	36126	279984	USP01012AN67	I	8	
BDC	I	2008/01/28	2008/01/28	36127	279984	USP01012AN67	M	8	
BDC	I	2008/03/12	2008/03/12	39030	237560	USP01012AJ55	I	8	
BDC	I	2008/03/12	2008/03/12	39031	237560	USP01012AJ55	M	8	
BDC	I	2008/03/12	2008/03/12	39032	237560	USP01012AJ55	I	5	
BDC	I	2008/03/12	2008/03/12	39033	237560	USP01012AJ55	M	5	
BDC	I	2008/03/12	2008/03/12	39034	237560	USP01012AJ55	I	108	
BDC	I	2008/03/12	2008/03/12	39035	237560	USP01012AJ55	M	108	
BDC	I	2012/09/11	2012/09/11	558469	416848	USP48864AF26	M	8	
BDC	I	2013/02/21	2013/02/21	657435	3967567	USP75744AA38	I	8	
BDC	I	2013/02/21	2013/02/21	657436	3967567	USP75744AA38	M	8	
BDC	I	2012/09/29	2012/09/29	568046	185482	USP8056GAB97	I	10	
BDC	I	2012/09/29	2012/09/29	568047	185482	USP8056GAB97	M	10	
BDC	I	2008/03/13	2008/03/13	39242	169830	USP93960AA38	I	8	
BDC	I	2008/03/13	2008/03/13	39243	169830	USP93960AA38	M	8	
BDC	I	2007/12/14	2007/12/14	28698	738951	USP93960AD76	I	8	
BDC	I	2007/12/14	2007/12/14	28699	738951	USP93960AD76	M	8	
BDC	I	2013/12/21	2013/12/21	799230	4160407	USP93960AF25	I	8	
BDC	I	2013/12/21	2013/12/21	799231	4160407	USP93960AF25	M	8	
BDC	I	2012/09/29	2012/09/29	568048	170653	USP97475AD26	I	10	
BDC	I	2012/09/29	2012/09/29	568049	170653	USP97475AD26	M	10	
BDC	I	2017/04/12	2017/04/12	1244026	1613078	USP97475AN08	I	10	
BDC	I	2017/04/12	2017/04/12	1244027	1613078	USP97475AN08	M	10	
BDC	I	2017/04/12	2017/04/12	1244030	1616749	USP97475AP55	I	10	
BDC	I	2017/04/12	2017/04/12	1244031	1616749	USP97475AP55	M	10	
BDC	I	2008/01/23	2008/01/23	35348	279803	US040114GK09	I	8	
BDC	I	2008/01/23	2008/01/23	35349	279803	US040114GK09	I	65	
BDC	I	2008/01/23	2008/01/23	35350	279803	US040114GK09	M	8	
BDC	I	2008/01/23	2008/01/23	35351	279803	US040114GK09	M	65	
BDC	I	2012/10/04	2012/10/04	587089	279803	US040114GK09	I	10	
BDC	I	2012/10/04	2012/10/04	587090	279803	US040114GK09	M	10	
BDC	I	2008/01/22	2008/01/22	35139	307459	US040114GM64	I	8	
BDC	I	2008/01/22	2008/01/22	35140	307459	US040114GM64	M	8	
BDC	I	2008/01/22	2008/01/22	35141	307459	US040114GM64	I	65	
BDC	I	2008/01/22	2008/01/22	35142	307459	US040114GM64	M	65	
BDC	I	2009/10/09	2009/10/09	188617	307459	US040114GM64	I	10	
BDC	I	2009/10/09	2009/10/09	188618	307459	US040114GM64	M	10	
BDC	I	2015/08/18	2015/08/18	1030404	4520693	US912828XD79	I	10	
BDC	I	2015/08/18	2015/08/18	1030405	4520693	US912828XD79	M	10	
BDC	I	2012/05/16	2012/05/16	519629	1892841	US038461AE97	M	8	
BDC	I	2012/05/15	2012/05/15	519252	1892845	US038461AF62	M	8	
BDC	I	2007/08/02	2007/08/02	14924	636754	US07782GAF00	I	8	
BDC	I	2007/08/02	2007/08/02	14925	636754	US07782GAF00	M	8	
BDC	I	2007/08/07	2007/08/07	15068	636754	US07782GAF00	I	79	
BDC	I	2007/08/07	2007/08/07	15069	636754	US07782GAF00	M	79	
BDC	I	2012/09/29	2012/09/29	571302	169522	US105756AK66	I	10	
BDC	I	2012/09/29	2012/09/29	571303	169522	US105756AK66	M	10	
BDC	I	2012/09/29	2012/09/29	571304	169526	US105756AL40	I	10	
BDC	I	2012/09/29	2012/09/29	571305	169526	US105756AL40	M	10	
BDC	I	2010/10/01	2010/10/01	353259	169564	US105756AZ36	I	110	
BDC	I	2010/10/01	2010/10/01	353260	169564	US105756AZ36	M	110	
BDC	I	2012/09/29	2012/09/29	571318	169575	US105756BB58	I	10	
BDC	I	2012/09/29	2012/09/29	571319	169575	US105756BB58	M	10	
BDC	I	2008/01/31	2008/01/31	36659	221969	US105756BF62	I	8	
BDC	I	2008/01/31	2008/01/31	36660	221969	US105756BF62	I	5	
BDC	I	2008/01/31	2008/01/31	36661	221969	US105756BF62	M	8	
BDC	I	2008/01/31	2008/01/31	36662	221969	US105756BF62	M	5	
BDC	I	2009/09/04	2009/09/04	166487	432735	US105756BL31	I	74	
BDC	I	2009/09/04	2009/09/04	166488	432735	US105756BL31	M	74	
BDC	I	2009/09/04	2009/09/04	166489	432735	US105756BL31	I	8	
BDC	I	2009/09/04	2009/09/04	166490	432735	US105756BL31	M	8	
BDC	I	2013/05/03	2013/05/03	711734	3759143	US105756BT66	I	8	
BDC	I	2013/05/03	2013/05/03	711735	3759143	US105756BT66	M	8	
BDC	I	2014/09/10	2014/09/10	899818	3900535	US105756BU30	I	10	
BDC	I	2014/09/10	2014/09/10	899819	3900535	US105756BU30	M	10	
BDC	I	2014/09/10	2014/09/10	899699	4132185	US105756BV13	I	10	
BDC	I	2014/09/10	2014/09/10	899700	4132185	US105756BV13	M	10	
BDC	U	2011/01/13	2011/01/13	386267	2364507	US168863AU21	I	181	
BDC	U	2011/01/13	2011/01/13	386268	2364507	US168863AU21	M	181	
BDC	I	2014/11/27	2014/11/27	927545	2364714	US168863AV04	I	10	
BDC	I	2014/11/27	2014/11/27	927546	2364714	US168863AV04	M	10	
BDC	I	2014/09/10	2014/09/10	899713	3487873	US168863AW86	I	10	
BDC	I	2014/09/10	2014/09/10	899714	3487873	US168863AW86	M	10	
BDC	I	2014/06/07	2014/06/07	868383	3924453	US168863BP27	I	10	
BDC	I	2014/06/07	2014/06/07	868384	3924453	US168863BP27	M	10	
BDC	I	2014/09/10	2014/09/10	899753	3924414	US168863BN78	I	10	
BDC	I	2014/09/10	2014/09/10	899754	3924414	US168863BN78	M	10	
BDC	I	2010/10/01	2010/10/01	353316	185273	US040114GB00	I	8	
BDC	I	2010/10/01	2010/10/01	353319	185273	US040114GB00	M	8	
BDC	I	2012/09/29	2012/09/29	570723	185273	US040114GB00	I	9	
BDC	I	2012/09/29	2012/09/29	570724	185273	US040114GB00	M	9	
BDC	I	2012/09/29	2012/09/29	567952	260853	US040114FB19	I	9	
BDC	I	2012/09/29	2012/09/29	567953	260853	US040114FB19	M	9	
BDC	I	2012/09/29	2012/09/29	570721	185276	US040114AV28	I	10	
BDC	I	2012/09/29	2012/09/29	570722	185276	US040114AV28	M	10	
BDC	I	2015/12/24	2015/12/24	1083838	185276	US040114AV28	I	8	
BDC	I	2015/12/24	2015/12/24	1083839	185276	US040114AV28	M	8	
BDC	I	2010/10/01	2010/10/01	353329	260850	US040114BC38	I	8	
BDC	I	2010/10/01	2010/10/01	353330	260850	US040114BC38	M	8	
BDC	I	2012/09/29	2012/09/29	567950	260850	US040114BC38	I	9	
BDC	I	2012/09/29	2012/09/29	567951	260850	US040114BC38	M	9	
BDC	I	2012/09/29	2012/09/29	571204	168073	US195325BB02	I	10	
BDC	I	2012/09/29	2012/09/29	571205	168073	US195325BB02	M	10	
BDC	U	2011/01/14	2011/01/14	386847	1628707	US195325BM66	I	8	
BDC	U	2011/01/14	2011/01/14	386848	1628707	US195325BM66	M	8	
BDC	I	2013/07/05	2013/07/05	733428	3902606	US195325BP97	I	8	
BDC	I	2013/07/05	2013/07/05	733429	3902606	US195325BP97	M	8	
BDC	I	2013/07/05	2013/07/05	733430	3902606	US195325BP97	I	89	
BDC	I	2013/07/05	2013/07/05	733431	3902606	US195325BP97	M	89	
BDC	I	2012/11/01	2012/11/01	622940	3904257	XS0833886095	I	8	
BDC	I	2012/11/01	2012/11/01	622941	3904257	XS0833886095	M	8	
BDC	I	2012/11/01	2012/11/01	622942	3904257	XS0833886095	I	89	
BDC	I	2012/11/01	2012/11/01	622943	3904257	XS0833886095	M	89	
BDC	I	2015/08/19	2015/08/19	1031317	4533269	US912828XF28	I	10	
BDC	I	2015/08/19	2015/08/19	1031318	4533269	US912828XF28	M	10	
BDC	I	2012/03/23	2012/03/23	498454	1638929	US226775AB01	I	1	
BDC	I	2012/03/23	2012/03/23	498455	1638929	US226775AB01	M	1	
BDC	I	2012/03/23	2012/03/23	498456	1638929	US226775AB01	I	8	
BDC	I	2012/03/23	2012/03/23	498457	1638929	US226775AB01	M	8	
BDC	I	2012/03/30	2012/03/30	501886	1992568	US226775AC83	I	1	
BDC	I	2012/03/30	2012/03/30	501887	1992568	US226775AC83	M	1	
BDC	I	2012/03/30	2012/03/30	501888	1992568	US226775AC83	I	8	
BDC	I	2012/03/30	2012/03/30	501889	1992568	US226775AC83	M	8	
BDC	I	2012/03/28	2012/03/28	500882	2542798	US226775AD66	I	1	
BDC	I	2012/03/28	2012/03/28	500883	2542798	US226775AD66	M	1	
BDC	I	2012/03/28	2012/03/28	500884	2542798	US226775AD66	I	8	
BDC	I	2012/03/28	2012/03/28	500885	2542798	US226775AD66	M	8	
BDC	I	2013/04/26	2013/04/26	709376	4009179	US226775AF15	I	1	
BDC	I	2013/04/26	2013/04/26	709377	4009179	US226775AF15	M	1	
BDC	I	2013/04/26	2013/04/26	709378	4009179	US226775AF15	I	8	
BDC	I	2013/04/26	2013/04/26	709379	4009179	US226775AF15	M	8	
BDC	I	2013/11/29	2013/11/29	787568	4146683	US226775AG97	I	1	
BDC	I	2013/11/29	2013/11/29	787569	4146683	US226775AG97	M	8	
BDC	I	2013/11/29	2013/11/29	787570	4146683	US226775AG97	M	1	
BDC	I	2013/11/29	2013/11/29	787571	4146683	US226775AG97	I	8	
BDC	I	2015/08/18	2015/08/18	1030350	4510084	US912810RM27	I	10	
BDC	I	2015/08/18	2015/08/18	1030351	4510084	US912810RM27	M	10	
BDC	I	2014/03/25	2014/03/25	837771	4218539	US05477LAA44	I	8	
BDC	I	2014/03/25	2014/03/25	837772	4218539	US05477LAA44	M	8	
BDC	I	2015/06/15	2015/06/15	998897	4534390	US362420AC51	I	8	
BDC	I	2015/06/15	2015/06/15	998898	4534390	US362420AC51	M	8	
BDC	I	2015/06/15	2015/06/15	998899	4534390	US362420AC51	I	1	
BDC	I	2015/06/15	2015/06/15	998900	4534390	US362420AC51	M	1	
BDC	I	2010/10/22	2010/10/22	360469	683673	US27927WAE21	I	8	
BDC	I	2010/10/22	2010/10/22	360470	683673	US27927WAE21	M	8	
BDC	I	2012/09/29	2012/09/29	571218	683673	US27927WAE21	I	10	
BDC	I	2012/09/29	2012/09/29	571219	683673	US27927WAE21	M	10	
BDC	I	2013/03/22	2013/03/22	677829	2603242	US37311PAA84	I	8	
BDC	I	2013/03/22	2013/03/22	677830	2603242	US37311PAA84	M	8	
BDC	I	2013/08/16	2013/08/16	749215	4083750	US374422AB97	I	1	
BDC	I	2013/08/16	2013/08/16	749216	4083750	US374422AB97	M	1	
BDC	I	2013/08/16	2013/08/16	749217	4083750	US374422AB97	I	8	
BDC	I	2013/08/16	2013/08/16	749218	4083750	US374422AB97	M	8	
BDC	I	2015/08/19	2015/08/19	1031329	4543256	US912828XH83	I	10	
BDC	I	2015/08/19	2015/08/19	1031330	4543256	US912828XH83	M	10	
BDC	I	2012/04/05	2012/04/05	504256	429058	US283875AN23	I	8	
BDC	I	2012/04/05	2012/04/05	504257	429058	US283875AN23	M	8	
BDC	I	2012/04/05	2012/04/05	504258	429058	US283875AN23	I	108	
BDC	I	2012/04/05	2012/04/05	504259	429058	US283875AN23	M	108	
BDC	I	2012/04/05	2012/04/05	504260	429058	US283875AN23	I	5	
BDC	I	2012/04/05	2012/04/05	504261	429058	US283875AN23	M	5	
BDC	I	2012/09/29	2012/09/29	567932	146844	US465410AH18	I	10	
BDC	I	2012/09/29	2012/09/29	567933	146844	US465410AH18	M	10	
BDC	I	2012/09/29	2012/09/29	567936	167984	US465410BG26	I	10	
BDC	I	2012/09/29	2012/09/29	567937	167984	US465410BG26	M	10	
BDC	I	2012/04/09	2012/04/09	505266	3487871	US46513AGA25	I	8	
BDC	I	2013/08/21	2013/08/21	750564	3972855	US4651387N91	I	8	
BDC	I	2013/08/21	2013/08/21	750566	3972855	US4651387N91	M	8	
BDC	I	2013/08/21	2013/08/21	750567	3972851	US4651387M19	I	8	
BDC	I	2013/08/21	2013/08/21	750568	3972851	US4651387M19	M	8	
BDC	I	2012/03/23	2012/03/23	498399	333480	US50064FAE43	I	8	
BDC	I	2012/03/23	2012/03/23	498400	333480	US50064FAE43	M	8	
BDC	I	2015/01/30	2015/01/30	950534	4373057	US912828F627	I	10	
BDC	I	2015/01/30	2015/01/30	950535	4373057	US912828F627	M	10	
BDC	I	2008/03/24	2008/03/24	39891	168244	US698299AK07	I	8	
BDC	I	2008/03/24	2008/03/24	39892	168244	US698299AK07	M	8	
BDC	I	2012/09/29	2012/09/29	567974	168244	US698299AK07	I	9	
BDC	I	2012/09/29	2012/09/29	567975	168244	US698299AK07	M	9	
BDC	I	2007/12/28	2007/12/28	29928	168245	US698299AM62	I	8	
BDC	I	2007/12/28	2007/12/28	29929	168245	US698299AM62	M	8	
BDC	I	2012/09/29	2012/09/29	567976	168245	US698299AM62	I	9	
BDC	I	2012/09/29	2012/09/29	567977	168245	US698299AM62	M	9	
BDC	I	2012/09/29	2012/09/29	567956	177022	US593048BN00	I	9	
BDC	I	2012/09/29	2012/09/29	567957	177022	US593048BN00	M	9	
BDC	I	2013/02/19	2013/02/19	656185	3957759	US617726AF15	I	8	
BDC	I	2013/02/19	2013/02/19	656186	3957759	US617726AF15	M	8	
BDC	I	2013/01/08	2013/01/08	641899	3951637	US617726AG97	I	8	
BDC	I	2013/01/08	2013/01/08	641900	3951637	US617726AG97	M	8	
BDC	I	2012/09/29	2012/09/29	567958	185478	US593048AX90	I	9	
BDC	I	2012/09/29	2012/09/29	567959	185478	US593048AX90	M	9	
BDC	I	2014/03/22	2014/03/22	837137	4226243	US445545AK21	I	1	
BDC	I	2014/03/22	2014/03/22	837138	4226243	US445545AK21	M	1	
BDC	I	2014/03/22	2014/03/22	837139	4226243	US445545AK21	I	8	
BDC	I	2014/03/22	2014/03/22	837140	4226243	US445545AK21	M	8	
BDC	I	2016/01/19	2016/01/19	1092361	4226243	US445545AK21	I	10	
BDC	I	2016/01/19	2016/01/19	1092362	4226243	US445545AK21	M	10	
BDC	I	2013/10/14	2013/10/14	771529	3982147	US445545AH91	I	1	
BDC	I	2013/10/14	2013/10/14	771530	3982147	US445545AH91	M	1	
BDC	I	2013/10/14	2013/10/14	771531	3982147	US445545AH91	I	8	
BDC	I	2013/10/14	2013/10/14	771532	3982147	US445545AH91	M	8	
BDC	I	2016/01/19	2016/01/19	1092355	3982147	US445545AH91	I	10	
BDC	I	2016/01/19	2016/01/19	1092356	3982147	US445545AH91	M	10	
BDC	I	2016/01/19	2016/01/19	1092357	4146324	US445545AJ57	I	10	
BDC	I	2016/01/19	2016/01/19	1092358	4146324	US445545AJ57	M	10	
BDC	I	2014/03/22	2014/03/22	837141	4226252	US445545AL04	I	1	
BDC	I	2014/03/22	2014/03/22	837142	4226252	US445545AL04	M	1	
BDC	I	2014/03/22	2014/03/22	837143	4226252	US445545AL04	I	8	
BDC	I	2014/03/22	2014/03/22	837144	4226252	US445545AL04	M	8	
BDC	I	2016/01/19	2016/01/19	1092365	4226252	US445545AL04	I	10	
BDC	I	2016/01/19	2016/01/19	1092366	4226252	US445545AL04	M	10	
BDC	I	2013/07/16	2013/07/16	737662	4070715	US65412ACE01	I	1	
BDC	I	2013/07/16	2013/07/16	737663	4070715	US65412ACE01	M	1	
BDC	I	2013/07/16	2013/07/16	737664	4070715	US65412ACE01	I	8	
BDC	I	2013/07/16	2013/07/16	737665	4070715	US65412ACE01	M	8	
BDC	I	2013/07/16	2013/07/16	737758	4070753	US65412ACD28	I	1	
BDC	I	2013/07/16	2013/07/16	737759	4070753	US65412ACD28	M	1	
BDC	I	2013/07/16	2013/07/16	737760	4070753	US65412ACD28	I	8	
BDC	I	2013/07/16	2013/07/16	737761	4070753	US65412ACD28	M	8	
BDC	I	2012/11/16	2012/11/16	626753	2394789	US65412AAA07	I	1	
BDC	I	2012/11/16	2012/11/16	626754	2394789	US65412AAA07	M	1	
BDC	I	2012/11/16	2012/11/16	626755	2394789	US65412AAA07	I	8	
BDC	I	2012/11/16	2012/11/16	626756	2394789	US65412AAA07	M	8	
BDC	I	2013/06/10	2013/06/10	725665	359633	US695847AB92	I	1	
BDC	I	2013/06/10	2013/06/10	725666	359633	US695847AB92	M	1	
BDC	I	2013/06/10	2013/06/10	725667	359633	US695847AB92	I	8	
BDC	I	2013/06/10	2013/06/10	725668	359633	US695847AB92	M	8	
BDC	I	2012/09/29	2012/09/29	567996	168290	US718286AL15	I	9	
BDC	I	2012/09/29	2012/09/29	567997	168290	US718286AL15	M	9	
BDC	I	2014/03/08	2014/03/08	831992	168290	US718286AL15	I	8	
BDC	I	2014/03/08	2014/03/08	831993	168290	US718286AL15	M	8	
BDC	I	2012/09/29	2012/09/29	567998	168295	US718286AP29	I	9	
BDC	I	2012/09/29	2012/09/29	567999	168295	US718286AP29	M	9	
BDC	I	2007/12/28	2007/12/28	29920	168243	US698299AD63	I	8	
BDC	I	2007/12/28	2007/12/28	29921	168243	US698299AD63	M	8	
BDC	I	2012/09/29	2012/09/29	567970	168243	US698299AD63	I	9	
BDC	I	2012/09/29	2012/09/29	567971	168243	US698299AD63	M	9	
BDC	I	2007/12/28	2007/12/28	29951	168249	US698299AS33	I	8	
BDC	I	2007/12/28	2007/12/28	29952	168249	US698299AS33	M	8	
BDC	I	2012/09/29	2012/09/29	571208	168249	US698299AS33	I	9	
BDC	I	2012/09/29	2012/09/29	571209	168249	US698299AS33	M	9	
BDC	I	2012/09/29	2012/09/29	567907	168251	US698299AT16	I	10	
BDC	I	2012/09/29	2012/09/29	567908	168251	US698299AT16	M	10	
BDC	U	2011/01/05	2011/01/05	383742	1665001	US698299AX28	I	8	
BDC	U	2011/01/05	2011/01/05	383743	1665001	US698299AX28	M	8	
BDC	I	2013/05/20	2013/05/20	717337	4028578	US698299BB98	I	8	
BDC	I	2013/05/20	2013/05/20	717338	4028578	US698299BB98	M	8	
BDC	I	2013/08/05	2013/08/05	745359	1496628	US731011AR30	I	10	
BDC	I	2013/08/05	2013/08/05	745360	1496628	US731011AR30	M	10	
BDC	U	2011/01/08	2011/01/08	385027	564489	US715638AU64	I	8	
BDC	U	2011/01/08	2011/01/08	385028	564489	US715638AU64	M	8	
BDC	U	2011/01/08	2011/01/08	385029	564489	US715638AU64	I	58	
BDC	U	2011/01/08	2011/01/08	385030	564489	US715638AU64	M	58	
BDC	U	2011/01/08	2011/01/08	385031	564489	US715638AU64	I	5	
BDC	U	2011/01/08	2011/01/08	385032	564489	US715638AU64	M	5	
BDC	I	2016/01/27	2016/01/27	1095813	564489	US715638AU64	I	10	
BDC	I	2016/01/27	2016/01/27	1095814	564489	US715638AU64	M	10	
BDC	I	2012/01/18	2012/01/18	482198	2365896	US718286BM88	I	117	
BDC	I	2012/01/18	2012/01/18	482199	2365896	US718286BM88	M	117	
BDC	U	2011/01/14	2011/01/14	386833	1398176	US74727PAG63	I	1	
BDC	U	2011/01/14	2011/01/14	386834	1398176	US74727PAG63	M	1	
BDC	U	2011/01/14	2011/01/14	386835	1398176	US74727PAG63	I	8	
BDC	U	2011/01/14	2011/01/14	386836	1398176	US74727PAG63	M	8	
BDC	I	2012/07/19	2012/07/19	544666	1665817	US74727PAK75	I	1	
BDC	I	2012/07/19	2012/07/19	544667	1665817	US74727PAK75	M	1	
BDC	I	2012/07/19	2012/07/19	544668	1665817	US74727PAK75	I	8	
BDC	I	2012/07/19	2012/07/19	544669	1665817	US74727PAK75	M	8	
BDC	I	2012/07/19	2012/07/19	544346	1667593	US74727PAL58	I	1	
BDC	I	2012/07/19	2012/07/19	544347	1667593	US74727PAL58	M	1	
BDC	I	2012/07/19	2012/07/19	544348	1667593	US74727PAL58	I	8	
BDC	I	2012/07/19	2012/07/19	544349	1667593	US74727PAL58	M	8	
BDC	I	2012/02/24	2012/02/24	490693	3328236	US74727PAP62	I	1	
BDC	I	2012/02/24	2012/02/24	490694	3328236	US74727PAP62	M	1	
BDC	I	2012/02/24	2012/02/24	490695	3328236	US74727PAP62	I	8	
BDC	I	2012/02/24	2012/02/24	490696	3328236	US74727PAP62	M	8	
BDC	I	2012/04/05	2012/04/05	504145	3328240	US74727PAR29	I	1	
BDC	I	2012/04/05	2012/04/05	504146	3328240	US74727PAR29	M	1	
BDC	I	2012/04/05	2012/04/05	504147	3328240	US74727PAR29	I	8	
BDC	I	2012/04/05	2012/04/05	504148	3328240	US74727PAR29	M	8	
BDC	I	2008/03/25	2008/03/25	40073	170569	US760942AE20	I	8	
BDC	I	2008/03/25	2008/03/25	40074	170569	US760942AE20	M	8	
BDC	I	2012/09/29	2012/09/29	568010	170569	US760942AE20	I	9	
BDC	I	2012/09/29	2012/09/29	568011	170569	US760942AE20	M	9	
BDC	I	2008/05/15	2008/05/15	43385	409633	US760942AS16	I	8	
BDC	I	2008/05/15	2008/05/15	43386	409633	US760942AS16	M	8	
BDC	I	2007/06/29	2007/06/29	12316	438538	US760942AT98	I	8	
BDC	I	2007/06/29	2007/06/29	12317	438538	US760942AT98	M	8	
BDC	I	2009/10/26	2009/10/26	195413	754616	US760942AU61	I	8	
BDC	I	2009/10/26	2009/10/26	195414	754616	US760942AU61	M	8	
BDC	U	2011/01/07	2011/01/07	384498	757628	US760942AV45	I	8	
BDC	U	2011/01/07	2011/01/07	384499	757628	US760942AV45	M	8	
BDC	I	2010/02/18	2010/02/18	261141	1797083	US760942AX01	I	8	
BDC	I	2010/02/18	2010/02/18	261142	1797083	US760942AX01	M	8	
BDC	I	2013/09/10	2013/09/10	757716	3935663	US760942AY83	I	8	
BDC	I	2013/09/10	2013/09/10	757717	3935663	US760942AY83	M	8	
BDC	I	2013/05/21	2013/05/21	717627	4027459	US78347YAA10	I	8	
BDC	I	2013/05/21	2013/05/21	717628	4027459	US78347YAA10	I	1	
BDC	I	2013/05/21	2013/05/21	717629	4027459	US78347YAA10	I	320	
BDC	I	2013/05/21	2013/05/21	717630	4027459	US78347YAA10	M	320	
BDC	I	2013/05/21	2013/05/21	717631	4027459	US78347YAA10	M	1	
BDC	I	2013/05/21	2013/05/21	717632	4027459	US78347YAA10	M	8	
BDC	I	2012/04/23	2012/04/23	510663	3686912	US78307ADE01	I	8	
BDC	I	2012/04/23	2012/04/23	510664	3686912	US78307ADE01	M	8	
BDC	I	2014/02/12	2014/02/12	821553	4107265	US78307ADF75	I	1	
BDC	I	2014/02/12	2014/02/12	821554	4107265	US78307ADF75	M	1	
BDC	I	2014/02/12	2014/02/12	821555	4107265	US78307ADF75	I	8	
BDC	I	2014/02/12	2014/02/12	821556	4107265	US78307ADF75	M	8	
BDC	I	2014/02/12	2014/02/12	821528	4107283	US78307ADG58	I	1	
BDC	I	2014/02/12	2014/02/12	821529	4107283	US78307ADG58	M	1	
BDC	I	2014/02/12	2014/02/12	821530	4107283	US78307ADG58	I	8	
BDC	I	2014/02/12	2014/02/12	821531	4107283	US78307ADG58	M	8	
BDC	I	2014/02/12	2014/02/12	821559	4106473	US78307ADH32	I	1	
BDC	I	2014/02/12	2014/02/12	821560	4106473	US78307ADH32	M	1	
BDC	I	2014/02/12	2014/02/12	821561	4106473	US78307ADH32	I	8	
BDC	I	2014/02/12	2014/02/12	821562	4106473	US78307ADH32	M	8	
BDC	I	2008/01/31	2008/01/31	36699	249491	US78307ACZ49	I	8	
BDC	I	2008/01/31	2008/01/31	36700	249491	US78307ACZ49	M	8	
BDC	I	2012/09/29	2012/09/29	568012	249491	US78307ACZ49	I	9	
BDC	I	2012/09/29	2012/09/29	568013	249491	US78307ACZ49	M	9	
BDC	I	2012/03/24	2012/03/24	498609	1892906	US78307ADB61	I	8	
BDC	I	2012/03/24	2012/03/24	498610	1892906	US78307ADB61	M	8	
BDC	I	2012/04/23	2012/04/23	510721	3692466	US78307ADC45	I	8	
BDC	I	2012/04/23	2012/04/23	510722	3692466	US78307ADC45	M	8	
BDC	I	2014/04/09	2014/04/09	848757	3900622	US731011AT95	I	10	
BDC	I	2014/04/09	2014/04/09	848758	3900622	US731011AT95	M	10	
BDC	I	2013/09/19	2013/09/19	761728	2813414	US81720TAA34	I	1	
BDC	I	2013/09/19	2013/09/19	761729	2813414	US81720TAA34	M	1	
BDC	I	2013/09/19	2013/09/19	761730	2813414	US81720TAA34	I	8	
BDC	I	2013/09/19	2013/09/19	761731	2813414	US81720TAA34	M	8	
BDC	I	2007/10/15	2007/10/15	18843	647440	US836205AL88	I	8	
BDC	I	2007/10/15	2007/10/15	18844	647440	US836205AL88	M	8	
BDC	I	2007/10/15	2007/10/15	18845	647440	US836205AL88	I	1	
BDC	I	2007/10/15	2007/10/15	18846	647440	US836205AL88	M	1	
BDC	I	2014/04/09	2014/04/09	848760	647440	US836205AL88	I	10	
BDC	I	2014/04/09	2014/04/09	848761	647440	US836205AL88	M	10	
BDC	I	2009/10/06	2009/10/06	186555	1440849	US836205AM61	I	1	
BDC	I	2009/10/06	2009/10/06	186556	1440849	US836205AM61	M	1	
BDC	I	2009/10/06	2009/10/06	186557	1440849	US836205AM61	I	8	
BDC	I	2009/10/06	2009/10/06	186558	1440849	US836205AM61	M	8	
BDC	I	2014/04/09	2014/04/09	848766	1440849	US836205AM61	I	10	
BDC	I	2014/04/09	2014/04/09	848767	1440849	US836205AM61	M	10	
BDC	I	2012/03/28	2012/03/28	500635	2505206	US836205AP92	I	8	
BDC	I	2012/03/28	2012/03/28	500636	2505206	US836205AP92	M	8	
BDC	I	2012/03/28	2012/03/28	500637	2505206	US836205AP92	I	1	
BDC	I	2012/03/28	2012/03/28	500638	2505206	US836205AP92	M	1	
BDC	I	2015/04/01	2015/04/01	970129	2505206	US836205AP92	I	10	
BDC	I	2015/04/01	2015/04/01	970130	2505206	US836205AP92	M	10	
BDC	I	2013/09/30	2013/09/30	766465	3227366	US817477AB81	I	1	
BDC	I	2013/09/30	2013/09/30	766466	3227366	US817477AB81	M	1	
BDC	I	2013/09/30	2013/09/30	766467	3227366	US817477AB81	I	8	
BDC	I	2013/09/30	2013/09/30	766468	3227366	US817477AB81	M	8	
BDC	I	2013/09/26	2013/09/26	764556	3928701	US831594AB23	I	107	
BDC	I	2013/09/26	2013/09/26	764557	3928701	US831594AB23	M	107	
BDC	I	2013/09/26	2013/09/26	764558	3928701	US831594AB23	I	1	
BDC	I	2013/09/26	2013/09/26	764559	3928701	US831594AB23	M	1	
BDC	I	2013/09/26	2013/09/26	764560	3928701	US831594AB23	I	8	
BDC	I	2013/09/26	2013/09/26	764561	3928701	US831594AB23	M	8	
BDC	I	2013/09/26	2013/09/26	764562	3928701	US831594AB23	I	10	
BDC	I	2013/09/26	2013/09/26	764563	3928701	US831594AB23	M	10	
BDC	I	2013/04/30	2013/04/30	710386	2624895	US857524AA08	I	10	
BDC	I	2013/04/30	2013/04/30	710387	2624895	US857524AA08	M	10	
BDC	I	2015/04/01	2015/04/01	970146	4183266	US857524AC63	I	10	
BDC	I	2015/04/01	2015/04/01	970147	4183266	US857524AC63	M	10	
BDC	I	2012/09/29	2012/09/29	571224	170506	US900123AL40	I	9	
BDC	I	2012/09/29	2012/09/29	571225	170506	US900123AL40	M	9	
BDC	I	2012/09/29	2012/09/29	571230	170534	US900123AT75	I	10	
BDC	I	2012/09/29	2012/09/29	571231	170534	US900123AT75	M	10	
BDC	I	2014/06/10	2014/06/10	868727	215049	US900123AW05	I	10	
BDC	I	2014/06/10	2014/06/10	868728	215049	US900123AW05	M	10	
BDC	I	2007/07/25	2007/07/25	14393	277269	US900123AX87	I	59	
BDC	I	2007/07/25	2007/07/25	14394	277269	US900123AX87	M	59	
BDC	I	2007/07/25	2007/07/25	14395	277269	US900123AX87	I	8	
BDC	I	2007/07/25	2007/07/25	14396	277269	US900123AX87	M	8	
BDC	I	2018/01/13	2018/01/15	1364438	277269	US900123AX87	I	10	
BDC	I	2018/01/13	2018/01/15	1364439	277269	US900123AX87	M	10	
BDC	I	2009/07/24	2009/07/24	139103	812561	US900123BB58	I	8	
BDC	I	2009/07/24	2009/07/24	139104	812561	US900123BB58	M	8	
BDC	U	2011/03/30	2011/03/30	405516	1724067	US900123BG46	I	8	
BDC	U	2011/03/30	2011/03/30	405517	1724067	US900123BG46	M	8	
BDC	I	2012/09/21	2012/09/21	563629	2365582	US900123BJ84	I	8	
BDC	I	2012/09/21	2012/09/21	563630	2365582	US900123BJ84	M	8	
BDC	I	2012/09/29	2012/09/29	571238	242807	US91086QAJ76	I	9	
BDC	I	2012/09/29	2012/09/29	571239	242807	US91086QAJ76	M	9	
BDC	I	2016/04/22	2016/04/22	1122996	1502731	US91086QAV05	I	10	
BDC	I	2016/04/22	2016/04/22	1122997	1502731	US91086QAV05	M	10	
BDC	I	2012/08/07	2012/08/07	549476	3470576	US900123BZ27	I	8	
BDC	I	2012/08/07	2012/08/07	549477	3470576	US900123BZ27	M	8	
BDC	I	2012/10/08	2012/10/08	611068	3470576	US900123BZ27	I	10	
BDC	I	2012/10/08	2012/10/08	611069	3470576	US900123BZ27	M	10	
BDC	I	2013/02/20	2013/02/20	656741	3960916	US900123CA66	I	8	
BDC	I	2013/02/20	2013/02/20	656742	3960916	US900123CA66	M	8	
BDC	I	2013/11/14	2013/11/14	781862	4141115	US900123CE88	I	8	
BDC	I	2013/11/14	2013/11/14	781863	4141115	US900123CE88	M	8	
BDC	I	2014/01/30	2014/01/30	815279	4186386	US900123CF53	I	8	
BDC	I	2014/01/30	2014/01/30	815280	4186386	US900123CF53	M	8	
BDC	I	2014/04/18	2014/04/18	852615	4244115	US900123CH10	I	8	
BDC	I	2014/04/18	2014/04/18	852616	4244115	US900123CH10	M	8	
BDC	I	2012/09/29	2012/09/29	571256	170639	US922646AS37	I	9	
BDC	I	2012/09/29	2012/09/29	571257	170639	US922646AS37	M	9	
BDC	I	2008/01/28	2008/01/28	36120	170656	US922646BL74	I	8	
BDC	I	2008/01/28	2008/01/28	36121	170656	US922646BL74	M	8	
BDC	I	2012/09/29	2012/09/29	571258	170656	US922646BL74	I	10	
BDC	I	2012/09/29	2012/09/29	571259	170656	US922646BL74	M	10	
BDC	I	2009/11/05	2009/11/05	199521	170626	US917288BA96	I	8	
BDC	I	2009/11/05	2009/11/05	199522	170626	US917288BA96	M	8	
BDC	I	2012/09/29	2012/09/29	571268	170626	US917288BA96	I	9	
BDC	I	2012/09/29	2012/09/29	571269	170626	US917288BA96	M	9	
BDC	I	2011/06/07	2011/06/07	422517	2024050	USG1035JAB47	I	8	
BDC	I	2011/06/07	2011/06/07	422518	2024050	USG1035JAB47	M	8	
BDC	I	2012/09/19	2012/09/19	562081	3902853	US988895AA69	I	8	
BDC	I	2012/09/19	2012/09/19	562082	3902853	US988895AA69	M	8	
BDC	I	2012/09/19	2012/09/19	562083	3902853	US988895AA69	I	1	
BDC	I	2012/09/19	2012/09/19	562084	3902853	US988895AA69	M	1	
BDC	I	2012/09/19	2012/09/19	562085	3902853	US988895AA69	I	174	
BDC	I	2012/09/19	2012/09/19	562086	3902853	US988895AA69	M	174	
BDC	I	2007/12/28	2007/12/28	29993	182317	USP01012AM84	I	5	
BDC	I	2007/12/28	2007/12/28	29994	182317	USP01012AM84	M	5	
BDC	I	2007/12/28	2007/12/28	29995	182317	USP01012AM84	I	8	
BDC	I	2007/12/28	2007/12/28	29996	182317	USP01012AM84	M	8	
BDC	I	2011/06/20	2011/06/20	425859	182317	USP01012AM84	I	108	
BDC	I	2011/06/20	2011/06/20	425860	182317	USP01012AM84	M	108	
BDC	I	2012/09/29	2012/09/29	571938	182317	USP01012AM84	I	10	
BDC	I	2012/09/29	2012/09/29	571939	182317	USP01012AM84	M	10	
BDC	I	2013/06/18	2013/06/18	728624	1273257	USP80557AD64	I	8	
BDC	I	2013/06/18	2013/06/18	728625	1273257	USP80557AD64	M	8	
BDC	I	2013/12/14	2013/12/14	795898	4160140	US362420AB78	I	1	
BDC	I	2013/12/14	2013/12/14	795899	4160140	US362420AB78	M	1	
BDC	I	2013/12/14	2013/12/14	795900	4160140	US362420AB78	I	8	
BDC	I	2013/12/14	2013/12/14	795901	4160140	US362420AB78	M	8	
BDC	I	2017/04/07	2017/04/07	1242296	322088	USP97475AG56	I	10	
BDC	I	2017/04/07	2017/04/07	1242297	322088	USP97475AG56	M	10	
BDC	I	2013/11/25	2013/11/25	785693	4131613	USP3579EAT49	I	8	
BDC	I	2013/11/25	2013/11/25	785694	4131613	USP3579EAT49	M	8	
BDC	I	2008/01/28	2008/01/28	36151	205824	US052591AS38	I	29	
BDC	I	2008/01/28	2008/01/28	36152	205824	US052591AS38	M	29	
BDC	I	2008/01/28	2008/01/28	36153	205824	US052591AS38	I	8	
BDC	I	2008/01/28	2008/01/28	36154	205824	US052591AS38	M	8	
BDC	I	2008/01/28	2008/01/28	36155	205824	US052591AS38	I	10	
BDC	I	2008/01/28	2008/01/28	36156	205824	US052591AS38	M	10	
BDC	U	2011/02/25	2011/02/25	395811	213806	US052591AT11	I	29	
BDC	U	2011/02/25	2011/02/25	395812	213806	US052591AT11	M	29	
BDC	U	2011/02/25	2011/02/25	395813	213806	US052591AT11	I	8	
BDC	U	2011/02/25	2011/02/25	395814	213806	US052591AT11	M	8	
BDC	U	2011/02/25	2011/02/25	395815	213806	US052591AT11	I	10	
BDC	U	2011/02/25	2011/02/25	395816	213806	US052591AT11	M	10	
BDC	I	2012/09/29	2012/09/29	571310	169539	US105756AR10	I	10	
BDC	I	2012/09/29	2012/09/29	571311	169539	US105756AR10	M	10	
BDC	I	2012/09/29	2012/09/29	571210	185938	US195325AU91	I	10	
BDC	I	2012/09/29	2012/09/29	571211	185938	US195325AU91	M	10	
BDC	I	2011/06/15	2011/06/15	424717	260462	USP8055KGV19	I	8	
BDC	I	2011/06/15	2011/06/15	424718	260462	USP8055KGV19	M	8	
BDC	I	2013/10/25	2013/10/25	776962	4115648	US31788DAD66	I	1	
BDC	I	2013/10/25	2013/10/25	776963	4115648	US31788DAD66	M	1	
BDC	I	2013/10/25	2013/10/25	776964	4115648	US31788DAD66	I	8	
BDC	I	2013/10/25	2013/10/25	776965	4115648	US31788DAD66	M	8	
BDC	I	2013/10/25	2013/10/25	776966	4115648	US31788DAD66	I	16	
BDC	I	2013/10/25	2013/10/25	776967	4115648	US31788DAD66	M	16	
BDC	I	2012/09/29	2012/09/29	571260	170642	US922646AT10	I	9	
BDC	I	2012/09/29	2012/09/29	571261	170642	US922646AT10	M	9	
BDC	I	2012/09/29	2012/09/29	571236	185490	US91086QAG38	I	9	
BDC	I	2012/09/29	2012/09/29	571237	185490	US91086QAG38	M	9	
BDC	I	2012/09/29	2012/09/29	571250	168202	US91086QAN88	I	9	
BDC	I	2012/09/29	2012/09/29	571251	168202	US91086QAN88	M	9	
BDC	I	2012/09/29	2012/09/29	571248	182674	US91086QAS75	I	10	
BDC	I	2012/09/29	2012/09/29	571249	182674	US91086QAS75	M	10	
BDC	I	2017/06/14	2017/06/14	1270739	2369668	US91086QAZ19	I	10	
BDC	I	2017/06/14	2017/06/14	1270740	2369668	US91086QAZ19	M	10	
BDC	I	2012/10/08	2012/10/08	611070	3625390	US91086QBA58	I	10	
BDC	I	2012/10/08	2012/10/08	611071	3625390	US91086QBA58	M	10	
BDC	I	2016/01/27	2016/01/27	1095819	3678352	US91086QBB32	I	10	
BDC	I	2016/01/27	2016/01/27	1095820	3678352	US91086QBB32	M	10	
BDC	I	2016/05/26	2016/05/26	1134371	4180735	US91086QBD97	I	10	
BDC	I	2016/05/26	2016/05/26	1134372	4180735	US91086QBD97	M	10	
BDC	I	2016/05/26	2016/05/26	1134375	4180755	US91086QBE70	I	10	
BDC	I	2016/05/26	2016/05/26	1134376	4180755	US91086QBE70	M	10	
BDC	I	2012/04/05	2012/04/05	504420	3444289	US836205AQ75	I	8	
BDC	I	2012/04/05	2012/04/05	504421	3444289	US836205AQ75	M	8	
BDC	I	2012/04/05	2012/04/05	504422	3444289	US836205AQ75	I	1	
BDC	I	2012/04/05	2012/04/05	504423	3444289	US836205AQ75	M	1	
BDC	I	2012/10/08	2012/10/08	610228	3444289	US836205AQ75	I	10	
BDC	I	2012/10/08	2012/10/08	610229	3444289	US836205AQ75	M	10	
BDC	I	2013/08/05	2013/08/05	745369	3522483	US77586TAA43	I	10	
BDC	I	2013/08/05	2013/08/05	745370	3522483	US77586TAA43	M	10	
BDC	I	2017/04/14	2017/04/14	1245401	4089646	US760942AZ58	I	10	
BDC	I	2017/04/14	2017/04/14	1245402	4089646	US760942AZ58	M	10	
BDC	I	2015/11/30	2015/11/30	1073704	4633914	USY8137FAE89	I	1	
BDC	I	2015/11/30	2015/11/30	1073705	4633914	USY8137FAE89	M	1	
BDC	I	2015/11/30	2015/11/30	1073706	4633914	USY8137FAE89	I	8	
BDC	I	2015/11/30	2015/11/30	1073707	4633914	USY8137FAE89	M	8	
BDC	I	2015/11/30	2015/11/30	1073708	4633914	USY8137FAE89	I	44	
BDC	I	2015/11/30	2015/11/30	1073709	4633914	USY8137FAE89	M	44	
BDC	U	2016/02/16	2016/02/17	1103347	4634752	US903724AR33	I	1	
BDC	U	2016/02/16	2016/02/17	1103348	4634752	US903724AR33	M	1	
BDC	U	2016/02/16	2016/02/17	1103349	4634752	US903724AR33	I	8	
BDC	U	2016/02/16	2016/02/17	1103350	4634752	US903724AR33	M	8	
BDC	U	2016/02/16	2016/02/17	1103334	4634758	US903724AQ59	I	1	
BDC	U	2016/02/16	2016/02/17	1103335	4634758	US903724AQ59	M	1	
BDC	U	2016/02/16	2016/02/17	1103336	4634758	US903724AQ59	I	8	
BDC	U	2016/02/16	2016/02/17	1103337	4634758	US903724AQ59	M	8	
BDC	U	2016/02/17	2016/02/17	1103482	4634778	US903724AT98	I	1	
BDC	U	2016/02/17	2016/02/17	1103483	4634778	US903724AT98	M	1	
BDC	U	2016/02/17	2016/02/17	1103484	4634778	US903724AT98	I	8	
BDC	U	2016/02/17	2016/02/17	1103485	4634778	US903724AT98	M	8	
BDC	U	2016/02/16	2016/02/17	1103351	4634785	US903724AV45	I	1	
BDC	U	2016/02/16	2016/02/17	1103352	4634785	US903724AV45	M	1	
BDC	U	2016/02/16	2016/02/17	1103353	4634785	US903724AV45	I	8	
BDC	U	2016/02/16	2016/02/17	1103354	4634785	US903724AV45	M	8	
BDC	U	2016/02/16	2016/02/17	1103368	4634799	US903724AS16	I	1	
BDC	U	2016/02/16	2016/02/17	1103369	4634799	US903724AS16	M	1	
BDC	U	2016/02/16	2016/02/17	1103370	4634799	US903724AS16	I	8	
BDC	U	2016/02/16	2016/02/17	1103371	4634799	US903724AS16	M	8	
BDC	I	2015/11/30	2015/11/30	1073698	4634838	US85227SAQ93	I	1	
BDC	I	2015/11/30	2015/11/30	1073699	4634838	US85227SAQ93	M	1	
BDC	I	2015/11/30	2015/11/30	1073700	4634838	US85227SAQ93	I	8	
BDC	I	2015/11/30	2015/11/30	1073701	4634838	US85227SAQ93	M	8	
BDC	I	2015/11/30	2015/11/30	1073702	4634838	US85227SAQ93	I	44	
BDC	I	2015/11/30	2015/11/30	1073703	4634838	US85227SAQ93	M	44	
BDC	I	2015/11/05	2015/11/05	1066255	4639066	US418097AG67	I	8	
BDC	I	2015/11/05	2015/11/05	1066256	4639066	US418097AG67	M	8	
BDC	I	2015/11/05	2015/11/05	1066257	4639066	US418097AG67	I	1	
BDC	I	2015/11/05	2015/11/05	1066258	4639066	US418097AG67	M	1	
BDC	U	2016/02/17	2016/02/17	1103486	4643526	US903724AU61	I	1	
BDC	U	2016/02/17	2016/02/17	1103487	4643526	US903724AU61	M	1	
BDC	U	2016/02/17	2016/02/17	1103488	4643526	US903724AU61	I	8	
BDC	U	2016/02/17	2016/02/17	1103489	4643526	US903724AU61	M	8	
BDC	U	2016/02/17	2016/02/17	1103476	4643531	US903724AP76	I	1	
BDC	U	2016/02/17	2016/02/17	1103477	4643531	US903724AP76	M	1	
BDC	U	2016/02/17	2016/02/17	1103478	4643531	US903724AP76	I	8	
BDC	U	2016/02/17	2016/02/17	1103479	4643531	US903724AP76	M	8	
BDC	U	2016/02/17	2016/02/17	1103460	4643537	US903724AN29	I	8	
BDC	U	2016/02/17	2016/02/17	1103461	4643537	US903724AN29	M	8	
BDC	U	2016/02/17	2016/02/17	1103462	4643537	US903724AN29	I	1	
BDC	U	2016/02/17	2016/02/17	1103463	4643537	US903724AN29	M	1	
BDC	U	2016/02/16	2016/02/17	1103401	4643686	US903724AM46	I	1	
BDC	U	2016/02/16	2016/02/17	1103402	4643686	US903724AM46	M	1	
BDC	U	2016/02/16	2016/02/17	1103403	4643686	US903724AM46	I	8	
BDC	U	2016/02/16	2016/02/17	1103404	4643686	US903724AM46	M	8	
BDC	I	2015/08/18	2015/08/18	1030406	4522070	US912828XE52	I	10	
BDC	I	2015/08/18	2015/08/18	1030407	4522070	US912828XE52	M	10	
BDC	I	2014/12/06	2014/12/08	931608	4399379	US168863BW77	I	8	
BDC	I	2014/12/06	2014/12/08	931609	4399379	US168863BW77	M	8	
BDC	I	2010/04/23	2010/04/23	298157	1886604	US896292AG42	I	8	
BDC	I	2010/04/23	2010/04/23	298158	1886604	US896292AG42	M	8	
BDC	I	2016/03/11	2016/03/11	1111110	4725156	US38373UAC62	I	8	
BDC	I	2016/03/11	2016/03/11	1111111	4725156	US38373UAC62	M	8	
BDC	I	2016/03/12	2016/03/14	1111297	4725794	USP48863AD94	I	8	
BDC	I	2016/03/12	2016/03/14	1111298	4725794	USP48863AD94	M	8	
BDC	I	2011/07/07	2011/07/07	430547	2392553	XS0584435142	I	1	
BDC	I	2011/07/07	2011/07/07	430548	2392553	XS0584435142	M	1	
BDC	I	2011/07/07	2011/07/07	430549	2392553	XS0584435142	I	8	
BDC	I	2011/07/07	2011/07/07	430550	2392553	XS0584435142	M	8	
BDC	I	2016/04/28	2016/04/28	1124433	4756669	USP04808AG92	I	10	
BDC	I	2016/04/28	2016/04/28	1124434	4756669	USP04808AG92	M	10	
BDC	I	2016/05/31	2016/05/31	1135625	4756669	USP04808AG92	I	8	
BDC	I	2016/05/31	2016/05/31	1135626	4756669	USP04808AG92	M	8	
BDC	I	2016/05/31	2016/05/31	1135627	4756669	USP04808AG92	I	65	
BDC	I	2016/05/31	2016/05/31	1135628	4756669	USP04808AG92	M	65	
BDC	I	2016/05/31	2016/05/31	1135557	4756741	US040114GZ77	I	8	
BDC	I	2016/05/31	2016/05/31	1135558	4756741	US040114GZ77	M	8	
BDC	I	2016/05/31	2016/05/31	1135559	4756741	US040114GZ77	I	65	
BDC	I	2016/05/31	2016/05/31	1135560	4756741	US040114GZ77	M	65	
BDC	I	2016/09/08	2016/09/08	1168016	4797338	US912828R853	I	10	
BDC	I	2016/09/08	2016/09/08	1168017	4797338	US912828R853	M	10	
BDC	I	2016/01/19	2016/01/19	1092343	4315212	US105756BW95	I	10	
BDC	I	2016/01/19	2016/01/19	1092344	4315212	US105756BW95	M	10	
BDC	I	2014/09/25	2014/09/25	905161	4348016	US698299BD54	I	8	
BDC	I	2014/09/25	2014/09/25	905162	4348016	US698299BD54	M	8	
BDC	I	2015/04/10	2015/04/10	974303	4483947	US900123CJ75	I	8	
BDC	I	2015/04/10	2015/04/10	974304	4483947	US900123CJ75	M	8	
BDC	I	2015/05/07	2015/05/07	983499	4483947	US900123CJ75	I	10	
BDC	I	2015/05/07	2015/05/07	983500	4483947	US900123CJ75	M	10	
BDC	I	2008/01/16	2008/01/16	34148	337829	US917288BC52	I	8	
BDC	I	2008/01/16	2008/01/16	34149	337829	US917288BC52	M	8	
BDC	I	2016/09/08	2016/09/08	1168020	4809723	US912828R937	I	10	
BDC	I	2016/09/08	2016/09/08	1168021	4809723	US912828R937	M	10	
BDC	I	2015/09/05	2015/09/07	1039805	4470474	XS1207654853	I	8	
BDC	I	2015/09/05	2015/09/07	1039806	4470474	XS1207654853	M	8	
BDC	I	2016/07/11	2016/07/11	1149249	4821378	US040114HE30	I	65	
BDC	I	2016/07/11	2016/07/11	1149250	4821378	US040114HE30	M	65	
BDC	I	2016/07/11	2016/07/11	1149251	4821378	US040114HE30	I	8	
BDC	I	2016/07/11	2016/07/11	1149252	4821378	US040114HE30	M	8	
BDC	I	2016/07/11	2016/07/11	1149156	4821394	USP04808AJ32	I	8	
BDC	I	2016/07/11	2016/07/11	1149157	4821394	USP04808AJ32	M	8	
BDC	I	2016/07/11	2016/07/11	1149158	4821394	USP04808AJ32	I	65	
BDC	I	2016/07/11	2016/07/11	1149159	4821394	USP04808AJ32	M	65	
BDC	I	2016/07/15	2016/07/15	1151152	4821394	USP04808AJ32	I	10	
BDC	I	2016/07/15	2016/07/15	1151153	4821394	USP04808AJ32	M	10	
BDC	I	2016/09/08	2016/09/08	1168025	4840302	US912828S505	I	10	
BDC	I	2016/09/08	2016/09/08	1168026	4840302	US912828S505	M	10	
BDC	I	2016/09/08	2016/09/08	1168029	4846165	US912828S760	I	10	
BDC	I	2016/09/08	2016/09/08	1168030	4846165	US912828S760	M	10	
BDC	I	2016/09/08	2016/09/08	1168027	4843531	US912828S687	I	10	
BDC	I	2016/09/08	2016/09/08	1168028	4843531	US912828S687	M	10	
BDC	I	2016/07/28	2016/07/28	1157573	4846113	US912828S844	I	8	
BDC	I	2016/07/28	2016/07/28	1157574	4846113	US912828S844	M	8	
BDC	I	2017/04/22	2017/04/24	1248235	4850094	US896292AJ80	I	8	
BDC	I	2017/04/22	2017/04/24	1248236	4850094	US896292AJ80	M	8	
BDC	I	2016/09/09	2016/09/09	1168288	4828541	US912828S430	I	10	
BDC	I	2016/09/09	2016/09/09	1168289	4828541	US912828S430	M	10	
BDC	I	2016/12/22	2016/12/22	1202056	4933250	USG10367AD52	I	8	
BDC	I	2016/12/22	2016/12/22	1202057	4933250	USG10367AD52	M	8	
BDC	I	2016/12/22	2016/12/22	1202045	4933252	US085209AD62	I	8	
BDC	I	2016/12/22	2016/12/22	1202046	4933252	US085209AD62	M	8	
BDC	I	2016/10/27	2016/10/27	1183159	4946564	US912828T750	I	8	
BDC	I	2016/10/27	2016/10/27	1183160	4946564	US912828T750	M	8	
BDC	I	2016/11/10	2016/11/10	1188017	4959045	US038461AG46	I	1	
BDC	I	2016/11/10	2016/11/10	1188018	4959045	US038461AG46	M	1	
BDC	I	2016/11/10	2016/11/10	1188019	4959045	US038461AG46	I	8	
BDC	I	2016/11/10	2016/11/10	1188020	4959045	US038461AG46	M	8	
BDC	I	2016/11/10	2016/11/10	1188025	4959056	US038461AH29	I	1	
BDC	I	2016/11/10	2016/11/10	1188026	4959056	US038461AH29	M	1	
BDC	I	2016/11/10	2016/11/10	1188027	4959056	US038461AH29	I	8	
BDC	I	2016/11/10	2016/11/10	1188028	4959056	US038461AH29	M	8	
BDC	I	2016/11/10	2016/11/10	1188033	4959068	US038461AJ84	I	1	
BDC	I	2016/11/10	2016/11/10	1188034	4959068	US038461AJ84	M	1	
BDC	I	2016/11/10	2016/11/10	1188035	4959068	US038461AJ84	I	8	
BDC	I	2016/11/10	2016/11/10	1188036	4959068	US038461AJ84	M	8	
BDC	I	2017/01/25	2017/01/25	1214776	5019787	US438180AH47	I	8	
BDC	I	2017/01/25	2017/01/25	1214777	5019787	US438180AH47	M	8	
BDC	I	2017/01/25	2017/01/25	1214857	5020033	USP5178RAC27	I	8	
BDC	I	2017/01/25	2017/01/25	1214858	5020033	USP5178RAC27	M	8	
BDC	I	2017/01/20	2017/01/20	1212978	5023763	US900123CL22	I	8	
BDC	I	2017/01/20	2017/01/20	1212979	5023763	US900123CL22	M	8	
BDC	I	2017/02/06	2017/02/06	1218893	5024665	USP3579EBV85	I	8	
BDC	I	2017/02/06	2017/02/06	1218894	5024665	USP3579EBV85	M	8	
BDC	I	2017/02/06	2017/02/06	1218902	5024667	US25714PDT21	I	8	
BDC	I	2017/02/06	2017/02/06	1218903	5024667	US25714PDT21	M	8	
BDC	I	2017/02/07	2017/02/07	1218990	5025629	USP04808AM60	I	65	
BDC	I	2017/02/07	2017/02/07	1218991	5025629	USP04808AM60	M	65	
BDC	I	2017/02/07	2017/02/07	1218992	5025629	USP04808AM60	I	8	
BDC	I	2017/02/07	2017/02/07	1218993	5025629	USP04808AM60	M	8	
BDC	I	2017/02/22	2017/02/22	1223856	5025629	USP04808AM60	I	10	
BDC	I	2017/02/22	2017/02/22	1223857	5025629	USP04808AM60	M	10	
BDC	I	2017/02/07	2017/02/07	1219016	5025634	US040114HJ27	I	8	
BDC	I	2017/02/07	2017/02/07	1219017	5025634	US040114HJ27	M	8	
BDC	I	2017/02/07	2017/02/07	1219018	5025634	US040114HJ27	I	65	
BDC	I	2017/02/07	2017/02/07	1219019	5025634	US040114HJ27	M	65	
BDC	I	2017/02/07	2017/02/07	1219073	5025658	US040114HH60	I	8	
BDC	I	2017/02/07	2017/02/07	1219074	5025658	US040114HH60	M	8	
BDC	I	2017/02/07	2017/02/07	1219075	5025658	US040114HH60	I	65	
BDC	I	2017/02/07	2017/02/07	1219076	5025658	US040114HH60	M	65	
BDC	I	2017/01/26	2017/01/26	1215304	5030662	US912828V640	I	8	
BDC	I	2017/01/26	2017/01/26	1215305	5030662	US912828V640	M	8	
BDC	I	2017/03/11	2017/03/13	1230970	5067900	US682051AD99	I	1	
BDC	I	2017/03/11	2017/03/13	1230971	5067900	US682051AD99	M	1	
BDC	I	2017/03/11	2017/03/13	1230972	5067900	US682051AD99	I	8	
BDC	I	2017/03/11	2017/03/13	1230973	5067900	US682051AD99	M	8	
BDC	I	2017/03/11	2017/03/13	1231007	5076892	US682051AE72	I	8	
BDC	I	2017/03/11	2017/03/13	1231008	5076892	US682051AE72	M	8	
BDC	I	2017/03/11	2017/03/13	1231009	5076892	US682051AE72	I	1	
BDC	I	2017/03/11	2017/03/13	1231010	5076892	US682051AE72	M	1	
BDC	I	2017/04/26	2017/04/26	1249174	5080466	US040114HG87	I	10	
BDC	I	2017/04/26	2017/04/26	1249175	5080466	US040114HG87	M	10	
BDC	I	2018/05/19	2018/05/21	1438869	5080466	US040114HG87	I	8	
BDC	I	2018/05/19	2018/05/21	1438870	5080466	US040114HG87	M	8	
BDC	I	2018/05/19	2018/05/21	1438871	5080466	US040114HG87	I	65	
BDC	I	2018/05/19	2018/05/21	1438872	5080466	US040114HG87	M	65	
BDC	I	2017/04/26	2017/04/26	1249178	5080479	US040114HK99	I	10	
BDC	I	2017/04/26	2017/04/26	1249179	5080479	US040114HK99	M	10	
BDC	I	2018/05/19	2018/05/21	1438877	5080479	US040114HK99	I	8	
BDC	I	2018/05/19	2018/05/21	1438878	5080479	US040114HK99	M	8	
BDC	I	2018/05/19	2018/05/21	1438879	5080479	US040114HK99	I	65	
BDC	I	2018/05/19	2018/05/21	1438880	5080479	US040114HK99	M	65	
BDC	I	2017/03/29	2017/03/29	1238876	5091671	USP75744AE59	I	8	
BDC	I	2017/03/29	2017/03/29	1238877	5091671	USP75744AE59	M	8	
BDC	I	2017/03/29	2017/03/29	1238870	5091682	US699149AD22	I	8	
BDC	I	2017/03/29	2017/03/29	1238871	5091682	US699149AD22	M	8	
BDC	I	2016/01/19	2016/01/19	1092570	3983907	US77586TAC09	I	10	
BDC	I	2016/01/19	2016/01/19	1092571	3983907	US77586TAC09	M	10	
BDC	I	2017/04/27	2017/04/27	1249937	5124566	US912828X547	I	8	
BDC	I	2017/04/27	2017/04/27	1249938	5124566	US912828X547	M	8	
BDC	I	2016/01/19	2016/01/19	1092582	4181083	US77586TAD81	I	10	
BDC	I	2016/01/19	2016/01/19	1092583	4181083	US77586TAD81	M	10	
BDC	I	2016/01/19	2016/01/19	1092574	4181146	US77586TAE64	I	10	
BDC	I	2016/01/19	2016/01/19	1092575	4181146	US77586TAE64	M	10	
BDC	I	2014/12/05	2014/12/05	931017	4395037	XS1147732553	I	8	
BDC	I	2014/12/05	2014/12/05	931018	4395037	XS1147732553	M	8	
BDC	I	2014/12/05	2014/12/05	931019	4395037	XS1147732553	I	1	
BDC	I	2014/12/05	2014/12/05	931020	4395037	XS1147732553	M	1	
BDC	I	2017/07/27	2017/07/27	1292107	5219181	US9128282M19	I	8	
BDC	I	2017/07/27	2017/07/27	1292108	5219181	US9128282M19	M	8	
BDC	I	2017/10/20	2017/10/20	1329139	5303767	US9128283B45	I	8	
BDC	I	2017/10/20	2017/10/20	1329140	5303767	US9128283B45	M	8	
BDC	I	2017/11/02	2017/11/02	1334713	5310065	US87020DBB91	I	1	
BDC	I	2018/01/25	2018/01/25	1371606	5407602	US9128283T52	M	8	
BDC	I	2018/01/25	2018/01/25	1371607	5407602	US9128283T52	I	8	
BDC	I	2018/05/30	2018/05/30	1444922	5151843	XS1620176831	I	8	
BDC	I	2018/05/30	2018/05/30	1444923	5151843	XS1620176831	M	8	
BDC	I	2018/04/20	2018/04/20	1423737	5508134	US9128284K35	I	8	
BDC	I	2018/04/20	2018/04/20	1423738	5508134	US9128284K35	M	8	
BDC	I	2018/05/18	2018/05/18	1437919	5534120	US836205AZ74	I	1	
BDC	I	2018/05/18	2018/05/18	1437920	5534120	US836205AZ74	M	1	
BDC	I	2018/05/18	2018/05/18	1437921	5534120	US836205AZ74	I	8	
BDC	I	2018/05/18	2018/05/18	1437922	5534120	US836205AZ74	M	8	
BDC	I	2018/05/18	2018/05/18	1437913	5534131	US836205AY00	I	8	
BDC	I	2018/05/18	2018/05/18	1437914	5534131	US836205AY00	M	8	
BDC	I	2018/05/18	2018/05/18	1437915	5534131	US836205AY00	I	1	
BDC	I	2018/05/18	2018/05/18	1437916	5534131	US836205AY00	M	1	
EDI_ENDOFFILE
