EDI_ISSUR_20180613
TableName	Actflag	Created	Changed	IssID	SIC	CIK	GICS	IssuerName	IndusID	CntryofIncorp	FinancialYearEnd	Shortname	LegalName	isstype	CntryofDom	StateofDom	LEI	NAICS	Notes
ISSUR	U	2004/08/06	2015/09/22	84029	5812			Peru		PE			F	GOV				722511	
ISSUR	U	2004/07/28	2018/02/19	83643				Philippines		PH			F	GOV			529900RAHBALMYIJ3T08		
ISSUR	U	2005/04/16	2018/03/26	91063	8888			United States Of America		US			F	GOV			254900HROIFWPRGM1V77	447190	
ISSUR	U	2004/07/15	2014/03/07	83358	6799	0000909321		China		CN			F	GOV					
ISSUR	U	2005/06/08	2018/03/12	91779				Russia		RU			F	GOV			5493004EHVGF71PDBU58		
ISSUR	U	2004/08/23	2017/11/20	84539		0000007169		Argentina		AR	3112		F	GOV			549300KPBYGYF7HCHO27		
ISSUR	U	2004/08/11	2017/11/13	84216				Ecuador		EC			F	GOV			5299003Y2U5XK0A35H71		
ISSUR	U	2004/07/13	2017/11/20	83281	8888	0000205317		Brazil		BR			F	GOV			254900ZFY40OYEADAP90		
ISSUR	U	2004/08/06	2017/10/16	84026				Panama		PA			F	GOV			549300SHS4T08CL0LP14		
ISSUR	U	2005/06/17	2017/07/25	92186	8699			Israel		IL	3112		F	GOV			213800T8ZHTFZIBYPE21	813410	
ISSUR	U	2004/07/15	2017/10/16	83335	8888	0000230098		Canada		CA			F	GOV			4BFD7AQU0A75QLAHK410		
ISSUR	U	2004/04/24	2017/07/06	81697	8888	0000869687		Turkey		TR			F	GOV			5493000PCHOG3B6S3Q85		
ISSUR	U	2004/07/26	2014/01/23	83529	8888	0000917142		Colombia		CO			F	GOV					
ISSUR	U	2004/08/17	2018/03/12	84396				Indonesia		ID			F	GOV			529900FWX0GRR7WG5W79		
ISSUR	U	2004/07/15	2017/10/16	83362	8888	0000889414		Hungary		HU			F	GOV			5299008DH62LEB10JK83		
ISSUR	U	2004/03/01	2018/01/15	79988	8888	0000932419		South Africa		ZA			F	GOV			378900AAFB4F17004C49		
ISSUR	U	2005/10/07	2015/10/05	95021	7231			Aruba		AW			F	GOV				812199	
ISSUR	U	2004/08/14	2010/06/15	84356				Vietnam		VN			F	GOV					
ISSUR	U	2005/08/25	2017/07/10	94187				Dominican Republic		DO			F	GOV			549300DTVR57NON7XL66		
ISSUR	U	2004/07/28	2017/07/20	83645				Poland		PL			F	GOV			259400R9L8QEP0TPXS31		
ISSUR	U	2008/04/03	2010/05/18	119700				Namibia		NA			F	GOV					
ISSUR	U	2008/04/14	2015/10/26	120198	7231			Georgia		GE			F	GOV				812112	
ISSUR	U	2004/09/28	2018/02/19	85594	5812			El Salvador		SV			F	GOV			529900AKDMUSFSDOM949	722511	
ISSUR	U	2004/08/06	2010/05/18	84020				Costa Rica		CR			F	GOV					
ISSUR	U	2003/08/15	2017/12/04	76252				United Mexican States		MX			F	GOV			254900EGTWEU67VP6075		
ISSUR	U	2004/03/31	2017/07/06	81184				Finland		FI			F	GOV			743700M6Y2OQRVSBRD14		
ISSUR	U	2004/02/19	2015/09/15	79760	7389			Jordan		JO			F	GOV				561990	
ISSUR	U	2004/03/30	2017/10/23	81155				Barbados		BB			F	GOV			529900UD1KUUS4SFD905		
ISSUR	U	2005/06/11	2018/04/23	92033	5947			Ivory Coast		CI			F	GOV			254900ICW11T82O6H590	448140	
ISSUR	U	2004/04/01	2017/10/09	81225				Italy		IT			F	GOV			815600DE60799F5A9309		
ISSUR	U	2005/06/13	2015/09/29	92078	7389			Morocco		MA	3112		F	GOV				561499	
ISSUR	U	2004/08/12	2018/04/23	84257				Ukraine		UA	3112		F	GOV			6354001WLTJXOMEXPY07		
ISSUR	U	2005/05/24	2010/02/23	91597				Tunisia		TN			F	GOV					
ISSUR	U	2007/12/13	2015/11/16	116155	9721			Sri Lanka		LK			F	GOV				928120	
ISSUR	U	2008/05/12	2010/02/23	121270				Senegal		SN			F	GOV					
ISSUR	U	2013/01/19	2018/02/19	154361				Paraguay		PY			F	GOV			529900UXKJTJPCU0HK83		
ISSUR	U	2004/07/07	2017/08/03	83145				Czech Republic		CZ			F	GOV			3157007EFDLQABN47912		
ISSUR	U	2004/08/11	2014/03/07	84228	8888	0000019957		Chile		CL			F	GOV					
ISSUR	U	2008/05/08	2011/08/08	121122				Grenada		GD			F	GOV					
ISSUR	U	2004/08/05	2018/03/26	84004				Korea		KR			F	GOV			549300O0QCVSQGPGDT58		
ISSUR	U	2005/05/19	2018/03/26	91550				Kenya		KE			F	GOV			549300VVURQQYU45PR87		
ISSUR	U	2004/08/12	2017/03/31	84274				Uruguay		UY			F	GOV			549300DTMS39GZYBX161		
ISSUR	U	2005/04/11	2018/03/12	90963				Serbia		RS			F	GOV			254900W94OCY91V32O78		
ISSUR	U	2004/08/09	2010/02/23	84134				Venezuela		VE			F	GOV					
ISSUR	U	2014/10/28	2017/10/16	168135				Abu Dhabi (Emirate Of)		AE			F	GOV			213800FER4348CINTA77		
ISSUR	U	2004/08/06	2018/02/26	84025				Pakistan		PK			F	GOV			529900LOP29R5WKHOD86		
ISSUR	U	2007/07/03	2018/02/26	110552	7389			Bahamas		BS			F	GOV			5493001GPGA7MB70ZX09	561990	
ISSUR	U	2009/12/11	2012/03/24	134232				Cayman Islands		KY			F	GOV					
ISSUR	U	2004/10/01	2015/09/29	85762	0781			Bolivia		BO			F	GOV				541320	
ISSUR	U	2010/07/16	2012/03/23	139139				Bermuda (Govt Of)		BM			F	GOV					
ISSUR	U	2004/08/16	2015/09/29	84384	7389			Guatemala		GT			F	GOV				561990	
ISSUR	U	2004/04/01	2017/11/20	81223	7999			Iceland		IS			F	GOV			254900IPCJWRC6XAJN15	713940	
ISSUR	U	2004/07/13	2018/02/26	83250				Lithuania		LT			F	GOV			529900F7Y171QF1RSU09		
ISSUR	U	2004/07/12	2017/09/25	83242				Latvia		LV			F	GOV			25490002QDEB2KTLNK39		
ISSUR	U	2004/07/27	2017/08/03	83563				Slovakia		SK			F	GOV			097900BHFM0000074794		
ISSUR	U	2004/07/27	2017/07/06	83565				Slovenia		SI			F	GOV			485100000LWQHIX4XX88		
ISSUR	U	2004/04/13	2012/03/23	81356				Trinidad & Tobago		TT			F	GOV					
ISSUR	U	2005/04/16	2015/09/29	91060	3534			Belize		BZ			F	GOV				333921	
ISSUR	U	2004/10/07	2018/06/04	86052				Qatar(State Of)		QA			F	GOV			52990074F6OJOAXK4P65		
ISSUR	U	2004/02/19	2018/02/19	79759				Egypt		EG			F	GOV			529900GFIVH4086NMH82		
ISSUR	U	2008/09/04	2015/10/27	124660	5932			Armenia		AM			F	GOV				453310	
ISSUR	U	2004/02/19	2018/04/02	79762				Bahrain		BH			F	GOV			549300W1SSDOZGRC5Z85		
ISSUR	U	2004/07/09	2017/09/18	83217				Croatia		HR	3112		F	GOV			74780000O00QGQ7CER13		
ISSUR	U	2007/01/22	2010/02/23	106867				Azerbaijan		AZ			F	GOV					
ISSUR	U	2007/12/15	2012/03/23	116261				Gabon		GA			F	GOV					
ISSUR	U	2007/10/09	2018/05/14	113811				Ghana		GH			F	GOV			213800PP4399SNNXZ126		
ISSUR	U	2004/10/08	2010/02/23	86112				Jamaica		JM			F	GOV					
ISSUR	U	2008/04/03	2010/05/18	119689				Nigeria		NG			F	GOV					
ISSUR	U	2011/02/11	2011/02/11	143164				Rwanda		RW			F	GOV					
ISSUR	U	2011/12/05	2012/03/23	147732				Zambia		ZM			F	GOV					
ISSUR	U	2004/07/27	2017/03/01	83618				Austria		AT			F	GOV			529900QWWUI4XRVR7I03		
ISSUR	U	2004/02/20	2018/02/19	79785				Lebanon		LB			F	GOV			529900QPC4K9S1KHL354		
ISSUR	U	2004/07/29	2018/02/19	83736				Romania		RO			F	GOV			315700IASY927EDWBK92		
ISSUR	U	2004/04/15	2017/10/23	81464	8888	0000225913		Sweden		SE			F	GOV			ERE94C0BSULG2RM19605		
ISSUR	U	2016/10/31	2018/02/26	189230				Kingdom of Saudi Arabia		SA			F	GOV			54930044PULMORCKB765		
ISSUR	U	2005/04/07	2018/01/15	90936				Oman		OM			F	GOV			549300SZ20F0QTKNQC75		
ISSUR	U	2011/08/03	2015/11/17	145957	5812			Honduras		HN			F	GOV				722511	
ISSUR	U	2006/12/20	2018/04/23	105332				Iraq		IQ			F	GOV			549300VKTRXFIL5RTO92		
EDI_ENDOFFILE
