EDI_CH144_20180613
TableName	Actflag	Created	Changed	LK144ID	EffectiveDate	SerialNumber	OldSecID144A	NewSecID144a	OldSecIDRegS	NewSecIDRegS	OldSecIDUnrestricted	NewSecIDUnrestricted	OldLinkOutstandingAmount	NewLinkOutstandingAmount	OldLinkOutstandingAmountDate	NewLinkOutstandingAmountDate	EventType	RelEventID	CH144ID
CH144	I	2016/02/27	2016/02/29	11	2016/02/24	1	1849503	1849503	1789875	1789875			3503.14900	1518.76600	2016/01/20	2016/02/24	BOCHG	1328621	1
CH144	I	2016/03/03	2016/03/03	199	2016/03/01	1	4646836	4646836	4647837	4647837			700.00000	975.00000	2015/11/24	2016/03/01	BOCHG	1332345	4
CH144	I	2016/03/03	2016/03/03	200	2016/03/01	1	4646833	4646833	4647583	4647583			800.00000	1125.00000	2015/11/24	2016/03/01	BOCHG	1332349	5
CH144	I	2016/03/22	2016/03/22	11	2016/03/18	1	1849503	1849503	1789875	1789875			1518.76600	1518.62400	2016/02/24	2016/03/18	BOCHG	1343373	13
CH144	I	2016/04/14	2016/04/14	11	2016/04/07	1	1849503	1849503	1789875	1789875			1518.62400	1519.29400	2016/03/18	2016/04/07	BOCHG	1358088	36
CH144	I	2016/04/18	2016/04/18	441	2011/11/16	1	2818081	2818081	2507858	2507858			1244.34200	1500.00000	2016/04/11	2011/11/16	BOCHG	506391	38
CH144	I	2016/04/26	2016/04/26	569	2016/04/18	1	3864472	3864472	3864455	3864455			1500.00000	1488.90000	2012/07/05	2016/04/18	BOCHG	1365133	66
CH144	I	2016/04/26	2016/04/26	734	2016/04/18	1	1665817	1665817	1665510	1665510			2500.00000	2071.19500	2009/11/24	2016/04/18	BOCHG	1365162	69
CH144	I	2016/04/27	2016/04/27	569	2016/04/19	1	3864472	3864472	3864455	3864455			1488.90000	1488.50000	2016/04/18	2016/04/19	BOCHG	1365846	75
CH144	I	2016/04/28	2016/04/28	842	2016/04/20	1	2394789	2394789	2392553	2392553			500.00000	473.54100	2011/01/28	2016/04/20	BOCHG	1366757	86
CH144	I	2016/04/28	2016/04/28	441	2016/04/20	1	2818081	2818081	2507858	2507858			1500.00000	1234.54200	2011/11/16	2016/04/20	BOCHG	1366774	87
CH144	I	2016/04/28	2016/04/28	478	2016/04/20	1	4242726	4242726	4242716	4242716			1000.00000	738.79400	2014/04/14	2016/04/20	BOCHG	1366778	89
CH144	I	2016/04/28	2016/04/28	11	2016/04/21	1	1849503	1849503	1789875	1789875			1519.29400	1519.46600	2016/04/07	2016/04/21	BOCHG	1366917	94
CH144	I	2016/04/30	2016/05/02	734	2016/04/22	1	1665817	1665817	1665510	1665510			2071.19500	2069.89500	2016/04/18	2016/04/22	BOCHG	1368536	110
CH144	I	2016/04/30	2016/05/02	11	2016/04/25	1	1849503	1849503	1789875	1789875			1519.46600	1519.26600	2016/04/21	2016/04/25	BOCHG	1368618	111
CH144	I	2016/05/02	2016/05/02	734	2016/04/25	1	1665817	1665817	1665510	1665510			2069.89500	2075.20200	2016/04/22	2016/04/25	BOCHG	1369632	122
CH144	I	2016/05/03	2016/05/03	734	2016/04/27	1	1665817	1665817	1665510	1665510			2075.20200	2074.80200	2016/04/25	2016/04/27	BOCHG	1370220	129
CH144	I	2016/05/03	2016/05/03	569	2016/04/27	1	3864472	3864472	3864455	3864455			1488.50000	1488.30000	2016/04/19	2016/04/27	BOCHG	1370232	130
CH144	I	2016/05/04	2016/05/04	441	2016/04/28	1	2818081	2818081	2507858	2507858			1234.54200	1234.32200	2016/04/20	2016/04/28	BOCHG	1371011	143
CH144	I	2016/05/05	2016/05/05	478	2016/04/28	1	4242726	4242726	4242716	4242716			738.79400	748.05500	2016/04/20	2016/04/28	BOCHG	1371597	154
CH144	I	2016/05/05	2016/05/05	734	2016/04/28	1	1665817	1665817	1665510	1665510			2074.80200	2076.17100	2016/04/27	2016/04/28	BOCHG	1371653	157
CH144	I	2016/05/07	2016/05/09	478	2016/05/02	1	4242726	4242726	4242716	4242716			748.05500	742.51900	2016/04/28	2016/05/02	BOCHG	1372884	178
CH144	I	2016/05/10	2016/05/10	478	2016/05/05	1	4242726	4242726	4242716	4242716			742.51900	741.91900	2016/05/02	2016/05/05	BOCHG	1375950	192
CH144	I	2016/05/10	2016/05/10	501	2016/05/03	1	1849527	1849527	1849328	1849328			1250.00000	1240.42500	2010/03/31	2016/05/03	BOCHG	1376236	202
CH144	I	2016/05/11	2016/05/11	441	2016/05/03	1	2818081	2818081	2507858	2507858			1234.32200	1237.46200	2016/04/28	2016/05/03	BOCHG	1376954	208
CH144	I	2016/05/12	2016/05/12	11	2016/04/28	1	1849503	1849503	1789875	1789875			1519.26600	1519.49100	2016/04/25	2016/04/28	BOCHG	1373859	214
CH144	I	2016/05/12	2016/05/12	11	2016/04/28	2	1849503	1849503	1789875	1789875			1519.49100	1519.49100	2016/04/28	2016/04/28	BOCHG	1377536	215
CH144	I	2016/05/12	2016/05/12	839	2016/05/10	1	3227366	3227366	3109396	3109396			2000.00000	1748.94900	2012/10/04	2016/05/10	BOCHG	1378862	220
CH144	I	2016/05/13	2016/05/13	606	2016/05/10	1	3902853	3902853	3902862	3902862			750.00000	664.68300	2012/09/20	2016/05/10	BOCHG	1379480	226
CH144	I	2016/05/13	2016/05/13	606	2016/05/11	1	3902853	3902853	3902862	3902862			664.68300	663.28300	2016/05/10	2016/05/11	BOCHG	1379572	235
CH144	I	2016/05/13	2016/05/13	1131	2006/10/12	1	363435	363435	369244	369244			1500.00000	2250.00000	2006/04/12	2006/10/12	BOCHG	1376946	238
CH144	I	2016/05/19	2016/05/19	1057	2016/05/16	1	4070753	4070753	4056525	4056525			500.00000	438.42100	2013/07/12	2016/05/16	BOCHG	1382993	284
CH144	I	2016/05/21	2016/05/23	734	2016/05/12	1	1665817	1665817	1665510	1665510			2076.17100	2080.77100	2016/04/28	2016/05/12	BOCHG	1384296	303
CH144	I	2016/05/21	2016/05/23	1131	2007/04/12	1	363435	363435	369244	369244			2250.00000	2681.00000	2006/10/12	2007/04/12	BOCHG	1384123	314
CH144	I	2016/05/23	2016/05/23	839	2016/05/19	1	3227366	3227366	3109396	3109396			1748.94900	1746.04100	2016/05/10	2016/05/19	BOCHG	1385245	315
CH144	I	2016/05/24	2016/05/24	441	2016/05/17	1	2818081	2818081	2507858	2507858			1237.46200	1239.56100	2016/05/03	2016/05/17	BOCHG	1385965	338
CH144	I	2016/05/25	2016/05/25	11	2016/05/11	1	1849503	1849503	1789875	1789875			1519.49100	1519.89100	2016/04/28	2016/05/11	BOCHG	1386793	363
CH144	I	2016/05/26	2016/05/26	478	2016/05/10	1	4242726	4242726	4242716	4242716			741.91900	740.71900	2016/05/05	2016/05/10	BOCHG	1378958	387
CH144	I	2016/05/30	2016/05/30	606	2016/05/24	1	3902853	3902853	3902862	3902862			663.28300	664.59300	2016/05/11	2016/05/24	BOCHG	1389387	426
CH144	I	2016/05/30	2016/05/30	478	2016/05/18	1	4242726	4242726	4242716	4242716			740.71900	747.59800	2016/05/10	2016/05/18	BOCHG	1388704	433
CH144	I	2016/10/04	2016/10/04	962	2016/09/30	1	249491	249491	575468	575468			21218.17665	17786.11899	2006/11/28	2016/09/30	BOCHG	1472333	852
CH144	I	2016/10/10	2016/10/10	669	2016/10/06	1	2767705	2767705	2764543	2764543			500.00000	401.49000	2011/06/16	2016/10/06	BOCHG	1476936	866
CH144	I	2017/04/05	2017/04/05	962	2017/03/31	1	249491	249491	575468	575468			17786.11899	35022.15182	2016/09/30	2017/03/31	BOCHG	1613154	1367
CH144	I	2017/04/20	2017/04/20	1378	2017/04/12	1	4756741	4756741	4756669	4756669			2750.00000	2732.99100	2016/04/22	2017/04/12	BOCHG	1627050	1460
CH144	I	2017/04/20	2017/04/20	2752	2017/04/12	1	5025658	5025658	5025654	5025654			3250.00000	3245.60500	2017/01/26	2017/04/12	BOCHG	1627154	1470
CH144	I	2017/04/20	2017/04/20	2750	2017/04/12	1	5025634	5025634	5025629	5025629			3750.00000	3744.55600	2017/01/26	2017/04/12	BOCHG	1627155	1471
CH144	I	2017/08/14	2017/08/14	4030	2017/08/11	1	4534390	4534390	4534385	4534385			500.00000	700.00000	2015/06/16	2017/08/11	BOCHG	1711349	1823
CH144	I	2018/01/31	2018/01/31	5022	2016/05/12	1	4634758	4634758	4620357	4620357			1330.11400	1355.23100	2015/11/12	2016/05/12	BOCHG	1853490	2144
CH144	I	2018/01/31	2018/01/31	5023	2016/05/12	1	4634752	4634752	4620356	4620356			1315.07200	1339.05700	2015/11/12	2016/05/12	BOCHG	1853491	2145
CH144	I	2018/01/31	2018/01/31	5024	2016/05/12	1	4634799	4634799	4620385	4620385			1306.03200	1328.88700	2015/11/12	2016/05/12	BOCHG	1853492	2146
CH144	I	2018/01/31	2018/01/31	5019	2016/05/12	1	4634778	4634778	4620362	4620362			1295.40400	1317.94000	2015/11/12	2016/05/12	BOCHG	1853488	2147
CH144	I	2018/01/31	2018/01/31	5020	2016/05/12	1	4643526	4643526	4620366	4620366			1286.22800	1307.16100	2015/11/12	2016/05/12	BOCHG	1853489	2148
CH144	I	2018/03/19	2018/03/19	1000	2018/03/14	1	2813414	2813414	2676661	2676661			500.00000	300.00000	2011/05/13	2018/03/14	BOCHG	1890317	2301
CH144	I	2018/04/17	2018/04/17	2774	2017/05/31	1	5030370	5030370	5030369	5030369			1750.00000	3250.00000	2017/01/31	2017/05/31	BOCHG	1912416	2351
CH144	I	2018/05/19	2018/05/21	1821	2017/04/12	2	4821378	4821378	4823310	4823310			1750.00000	39.27000	2016/07/06	2017/04/12	BOCHG	1946420	2412
CH144	I	2018/06/01	2018/06/01	86	2018/06/01	1	4208860	4208860	4240782	4240782			6000.00000		2011/06/01	2018/06/01	BOCHG	1956432	2447
EDI_ENDOFFILE
