EDI_FRNFX_20180613
TableName	Actflag	Created	Changed	FrnfxID	SecID	ISIN	EffectiveDate	OldFRNType	OldFRNIndexBenchmark	OldFrnMargin	OldMinimumInterestRate	OldMaximumInterestRate	OldRounding	NewFRNType	NewFRNindexBenchmark	NewFrnMargin	NewMinimumInterestRate	NewMaximumInterestRate	NewRounding	Eventtype	OldFrnIntAdjFreq	NewFrnIntAdjFreq
FRNFX	I	2008/03/01	2008/03/01	18535	276205	US912810FH69	2004/02/21	BASIC	IFL					BASIC	IFL6M					CLEAN		
FRNFX	I	2008/03/01	2008/03/01	18546	276192	US912810FQ68	2004/02/21	BASIC	IFL					BASIC	IFL6M					CLEAN		
FRNFX	I	2008/03/03	2008/03/03	18607	276199	US912810FR42	2004/07/31	BASIC	IFL					BASIC	IFL6M					CLEAN		
FRNFX	I	2013/06/06	2013/06/06	48046	276199	US912810FR42	2004/08/01							BASIC	IFL					CLEAN		
FRNFX	I	2013/06/06	2013/06/06	48047	276192	US912810FQ68	2004/02/22							BASIC	IFL					CLEAN		
FRNFX	I	2013/06/06	2013/06/06	48049	276205	US912810FH69	2004/02/22							BASIC	IFL					CLEAN		
FRNFX	I	2016/04/25	2016/04/25	64473	307459	US040114GM64	2004/01/01	BASIC	MBEN					BASIC	GDP					CORR		
EDI_ENDOFFILE
