EDI_SFUND_20200725
TableName	Actflag	Created	Changed	SfundID	SecID	ISIN	SfundDate	Sinking_Currency	Amount	AmountasPercent	Notes
SFUND	I	2009/03/21	2009/03/21	1677	260717	US654894AG96	1998/05/31	USD	5.00000	5.000000000	No further information
SFUND	I	2009/03/21	2009/03/21	1678	260717	US654894AG96	1999/05/31	USD	5.00000	5.000000000	No further information
SFUND	I	2009/03/21	2009/03/21	1679	260717	US654894AG96	2000/05/31	USD	5.00000	5.000000000	No further information
SFUND	I	2009/03/21	2009/03/21	1680	260717	US654894AG96	2001/05/31	USD	5.00000	5.000000000	No further information
SFUND	I	2009/03/21	2009/03/21	1681	260717	US654894AG96	2002/05/31	USD	5.00000	5.000000000	No further information
SFUND	I	2009/03/21	2009/03/21	1682	260717	US654894AG96	2003/05/31	USD	5.00000	5.000000000	No further information
SFUND	I	2009/03/21	2009/03/21	1683	260717	US654894AG96	2004/05/31	USD	5.00000	5.000000000	No further information
SFUND	I	2009/03/21	2009/03/21	1684	260717	US654894AG96	2005/05/31	USD	5.00000	5.000000000	No further information
SFUND	I	2009/03/21	2009/03/21	1685	260717	US654894AG96	2006/05/31	USD	5.00000	5.000000000	No further information
SFUND	I	2009/03/21	2009/03/21	1686	260717	US654894AG96	2007/05/31	USD	5.00000	5.000000000	No further information
SFUND	I	2009/03/21	2009/03/21	1687	260717	US654894AG96	2008/05/31	USD	5.00000	5.000000000	No further information
SFUND	I	2009/03/21	2009/03/21	1688	260717	US654894AG96	2009/05/31	USD	5.00000	5.000000000	No further information
SFUND	I	2009/03/21	2009/03/21	1689	260717	US654894AG96	2010/05/31	USD	5.00000	5.000000000	No further information
SFUND	I	2009/03/21	2009/03/21	1690	260717	US654894AG96	2011/05/31	USD	5.00000	5.000000000	No further information
SFUND	I	2013/06/17	2013/06/17	2407	4041962	US54909WAB46	2027/07/01	USD	4.36500		No further information
SFUND	I	2013/06/17	2013/06/17	2408	4041962	US54909WAB46	2028/07/01	USD	4.57000		No further information
SFUND	I	2013/06/17	2013/06/17	2409	4041962	US54909WAB46	2029/07/01	USD	4.78000		No further information
SFUND	I	2013/06/17	2013/06/17	2410	4041962	US54909WAB46	2030/07/01	USD	4.99500		No further information
SFUND	I	2013/06/17	2013/06/17	2411	4041962	US54909WAB46	2031/07/01	USD	5.22500		No further information
SFUND	I	2013/06/17	2013/06/17	2412	4041962	US54909WAB46	2032/07/01	USD	5.47000		No further information
SFUND	I	2013/06/17	2013/06/17	2413	4041962	US54909WAB46	2033/07/01	USD	5.72000		No further information
SFUND	I	2013/06/17	2013/06/17	2414	4041962	US54909WAB46	2034/07/01	USD	5.98000		No further information
SFUND	I	2013/06/17	2013/06/17	2415	4041962	US54909WAB46	2035/07/01	USD	6.25500		No further information
SFUND	I	2013/06/17	2013/06/17	2416	4041962	US54909WAB46	2036/07/01	USD	6.54500		No further information
SFUND	I	2013/06/17	2013/06/17	2417	4041962	US54909WAB46	2037/07/01	USD	6.84500		No further information
SFUND	I	2013/06/17	2013/06/17	2418	4041962	US54909WAB46	2038/07/01	USD	7.16000		No further information
SFUND	I	2013/06/17	2013/06/17	2419	4041962	US54909WAB46	2039/07/01	USD	7.49000		No further information
SFUND	I	2013/06/17	2013/06/17	2420	4041962	US54909WAB46	2040/07/01	USD	7.83500		No further information
SFUND	I	2013/06/17	2013/06/17	2421	4041962	US54909WAB46	2041/07/01	USD	8.19500		No further information
SFUND	I	2013/06/17	2013/06/17	2422	4041962	US54909WAB46	2042/07/01	USD	8.57000		No further information
SFUND	I	2013/09/06	2013/09/06	2462	1842531	US771367CA58	2009/06/30	USD	0.33354		Sinking and Improvement Fund<BR>While any first mortgage bonds issued under the mortgage are outstanding, we will, on or before<BR>June 30 of each year, deposit USD333,540 with the mortgage trustee. We may credit against this amount<BR>(i) up to 60% of the bondable value of property additions or (ii) the principal amount of prior liens or<BR>charges and first mortgage bonds issued under the mortgage which might then be made the basis for<BR>the issuance of first mortgage bonds under the mortgage. Cash so deposited with the mortgage trustee<BR>may be withdrawn or used as provided in the mortgage to purchase or redeem first mortgage bonds, or<BR>for other purposes. If on any December 31 the mortgage trustee holds USD250,000 or more so deposited,<BR>such cash must be used to purchase first mortgage bonds, or to redeem first mortgage bonds which by<BR>their terms are redeemable prior to maturity. (See section 4.19 of the mortgage.)<BR>
SFUND	I	2013/09/06	2013/09/06	2463	1842531	US771367CA58	2010/06/30	USD	0.33354		Sinking and Improvement Fund<BR>While any first mortgage bonds issued under the mortgage are outstanding, we will, on or before<BR>June 30 of each year, deposit USD333,540 with the mortgage trustee. We may credit against this amount<BR>(i) up to 60% of the bondable value of property additions or (ii) the principal amount of prior liens or<BR>charges and first mortgage bonds issued under the mortgage which might then be made the basis for<BR>the issuance of first mortgage bonds under the mortgage. Cash so deposited with the mortgage trustee<BR>may be withdrawn or used as provided in the mortgage to purchase or redeem first mortgage bonds, or<BR>for other purposes. If on any December 31 the mortgage trustee holds USD250,000 or more so deposited,<BR>such cash must be used to purchase first mortgage bonds, or to redeem first mortgage bonds which by<BR>their terms are redeemable prior to maturity. (See section 4.19 of the mortgage.)<BR>
SFUND	I	2013/09/06	2013/09/06	2464	1842531	US771367CA58	2011/06/30	USD	0.33354		Sinking and Improvement Fund<BR>While any first mortgage bonds issued under the mortgage are outstanding, we will, on or before<BR>June 30 of each year, deposit USD333,540 with the mortgage trustee. We may credit against this amount<BR>(i) up to 60% of the bondable value of property additions or (ii) the principal amount of prior liens or<BR>charges and first mortgage bonds issued under the mortgage which might then be made the basis for<BR>the issuance of first mortgage bonds under the mortgage. Cash so deposited with the mortgage trustee<BR>may be withdrawn or used as provided in the mortgage to purchase or redeem first mortgage bonds, or<BR>for other purposes. If on any December 31 the mortgage trustee holds USD250,000 or more so deposited,<BR>such cash must be used to purchase first mortgage bonds, or to redeem first mortgage bonds which by<BR>their terms are redeemable prior to maturity. (See section 4.19 of the mortgage.)<BR>
SFUND	I	2013/09/06	2013/09/06	2465	1842531	US771367CA58	2012/06/30	USD	0.33354		Sinking and Improvement Fund<BR>While any first mortgage bonds issued under the mortgage are outstanding, we will, on or before<BR>June 30 of each year, deposit USD333,540 with the mortgage trustee. We may credit against this amount<BR>(i) up to 60% of the bondable value of property additions or (ii) the principal amount of prior liens or<BR>charges and first mortgage bonds issued under the mortgage which might then be made the basis for<BR>the issuance of first mortgage bonds under the mortgage. Cash so deposited with the mortgage trustee<BR>may be withdrawn or used as provided in the mortgage to purchase or redeem first mortgage bonds, or<BR>for other purposes. If on any December 31 the mortgage trustee holds USD250,000 or more so deposited,<BR>such cash must be used to purchase first mortgage bonds, or to redeem first mortgage bonds which by<BR>their terms are redeemable prior to maturity. (See section 4.19 of the mortgage.)<BR><BR>
SFUND	I	2013/09/06	2013/09/06	2466	1842531	US771367CA58	2013/06/30	USD	0.33354		Sinking and Improvement Fund<BR>While any first mortgage bonds issued under the mortgage are outstanding, we will, on or before<BR>June 30 of each year, deposit USD333,540 with the mortgage trustee. We may credit against this amount<BR>(i) up to 60% of the bondable value of property additions or (ii) the principal amount of prior liens or<BR>charges and first mortgage bonds issued under the mortgage which might then be made the basis for<BR>the issuance of first mortgage bonds under the mortgage. Cash so deposited with the mortgage trustee<BR>may be withdrawn or used as provided in the mortgage to purchase or redeem first mortgage bonds, or<BR>for other purposes. If on any December 31 the mortgage trustee holds USD250,000 or more so deposited,<BR>such cash must be used to purchase first mortgage bonds, or to redeem first mortgage bonds which by<BR>their terms are redeemable prior to maturity. (See section 4.19 of the mortgage.)<BR>
SFUND	I	2013/09/06	2013/09/06	2467	1842531	US771367CA58	2014/06/30	USD	0.33354		Sinking and Improvement Fund<BR>While any first mortgage bonds issued under the mortgage are outstanding, we will, on or before<BR>June 30 of each year, deposit USD333,540 with the mortgage trustee. We may credit against this amount<BR>(i) up to 60% of the bondable value of property additions or (ii) the principal amount of prior liens or<BR>charges and first mortgage bonds issued under the mortgage which might then be made the basis for<BR>the issuance of first mortgage bonds under the mortgage. Cash so deposited with the mortgage trustee<BR>may be withdrawn or used as provided in the mortgage to purchase or redeem first mortgage bonds, or<BR>for other purposes. If on any December 31 the mortgage trustee holds USD250,000 or more so deposited,<BR>such cash must be used to purchase first mortgage bonds, or to redeem first mortgage bonds which by<BR>their terms are redeemable prior to maturity. (See section 4.19 of the mortgage.)<BR>
SFUND	I	2013/09/06	2013/09/06	2468	1842531	US771367CA58	2015/06/30	USD	0.33354		Sinking and Improvement Fund<BR>While any first mortgage bonds issued under the mortgage are outstanding, we will, on or before<BR>June 30 of each year, deposit USD333,540 with the mortgage trustee. We may credit against this amount<BR>(i) up to 60% of the bondable value of property additions or (ii) the principal amount of prior liens or<BR>charges and first mortgage bonds issued under the mortgage which might then be made the basis for<BR>the issuance of first mortgage bonds under the mortgage. Cash so deposited with the mortgage trustee<BR>may be withdrawn or used as provided in the mortgage to purchase or redeem first mortgage bonds, or<BR>for other purposes. If on any December 31 the mortgage trustee holds USD250,000 or more so deposited,<BR>such cash must be used to purchase first mortgage bonds, or to redeem first mortgage bonds which by<BR>their terms are redeemable prior to maturity. (See section 4.19 of the mortgage.)<BR>
SFUND	I	2013/09/06	2013/09/06	2469	1842531	US771367CA58	2016/06/30	USD	0.33354		Sinking and Improvement Fund<BR>While any first mortgage bonds issued under the mortgage are outstanding, we will, on or before<BR>June 30 of each year, deposit USD333,540 with the mortgage trustee. We may credit against this amount<BR>(i) up to 60% of the bondable value of property additions or (ii) the principal amount of prior liens or<BR>charges and first mortgage bonds issued under the mortgage which might then be made the basis for<BR>the issuance of first mortgage bonds under the mortgage. Cash so deposited with the mortgage trustee<BR>may be withdrawn or used as provided in the mortgage to purchase or redeem first mortgage bonds, or<BR>for other purposes. If on any December 31 the mortgage trustee holds USD250,000 or more so deposited,<BR>such cash must be used to purchase first mortgage bonds, or to redeem first mortgage bonds which by<BR>their terms are redeemable prior to maturity. (See section 4.19 of the mortgage.)<BR>
SFUND	I	2013/09/06	2013/09/06	2471	1842531	US771367CA58	2018/06/30	USD	0.33354		Sinking and Improvement Fund<BR>While any first mortgage bonds issued under the mortgage are outstanding, we will, on or before<BR>June 30 of each year, deposit USD333,540 with the mortgage trustee. We may credit against this amount<BR>(i) up to 60% of the bondable value of property additions or (ii) the principal amount of prior liens or<BR>charges and first mortgage bonds issued under the mortgage which might then be made the basis for<BR>the issuance of first mortgage bonds under the mortgage. Cash so deposited with the mortgage trustee<BR>may be withdrawn or used as provided in the mortgage to purchase or redeem first mortgage bonds, or<BR>for other purposes. If on any December 31 the mortgage trustee holds USD250,000 or more so deposited,<BR>such cash must be used to purchase first mortgage bonds, or to redeem first mortgage bonds which by<BR>their terms are redeemable prior to maturity. (See section 4.19 of the mortgage.)<BR>
SFUND	I	2013/09/06	2013/09/06	2472	1842531	US771367CA58	2019/06/30	USD	0.33354		Sinking and Improvement Fund<BR>While any first mortgage bonds issued under the mortgage are outstanding, we will, on or before<BR>June 30 of each year, deposit USD333,540 with the mortgage trustee. We may credit against this amount<BR>(i) up to 60% of the bondable value of property additions or (ii) the principal amount of prior liens or<BR>charges and first mortgage bonds issued under the mortgage which might then be made the basis for<BR>the issuance of first mortgage bonds under the mortgage. Cash so deposited with the mortgage trustee<BR>may be withdrawn or used as provided in the mortgage to purchase or redeem first mortgage bonds, or<BR>for other purposes. If on any December 31 the mortgage trustee holds USD250,000 or more so deposited,<BR>such cash must be used to purchase first mortgage bonds, or to redeem first mortgage bonds which by<BR>their terms are redeemable prior to maturity. (See section 4.19 of the mortgage.)<BR>
SFUND	I	2013/09/06	2013/09/06	2473	1842531	US771367CA58	2020/06/30	USD	0.33354		Sinking and Improvement Fund<BR>While any first mortgage bonds issued under the mortgage are outstanding, we will, on or before<BR>June 30 of each year, deposit USD333,540 with the mortgage trustee. We may credit against this amount<BR>(i) up to 60% of the bondable value of property additions or (ii) the principal amount of prior liens or<BR>charges and first mortgage bonds issued under the mortgage which might then be made the basis for<BR>the issuance of first mortgage bonds under the mortgage. Cash so deposited with the mortgage trustee<BR>may be withdrawn or used as provided in the mortgage to purchase or redeem first mortgage bonds, or<BR>for other purposes. If on any December 31 the mortgage trustee holds USD250,000 or more so deposited,<BR>such cash must be used to purchase first mortgage bonds, or to redeem first mortgage bonds which by<BR>their terms are redeemable prior to maturity. (See section 4.19 of the mortgage.)<BR>
SFUND	I	2013/09/06	2013/09/06	2474	1842531	US771367CA58	2021/06/30	USD	0.33354		Sinking and Improvement Fund<BR>While any first mortgage bonds issued under the mortgage are outstanding, we will, on or before<BR>June 30 of each year, deposit USD333,540 with the mortgage trustee. We may credit against this amount<BR>(i) up to 60% of the bondable value of property additions or (ii) the principal amount of prior liens or<BR>charges and first mortgage bonds issued under the mortgage which might then be made the basis for<BR>the issuance of first mortgage bonds under the mortgage. Cash so deposited with the mortgage trustee<BR>may be withdrawn or used as provided in the mortgage to purchase or redeem first mortgage bonds, or<BR>for other purposes. If on any December 31 the mortgage trustee holds USD250,000 or more so deposited,<BR>such cash must be used to purchase first mortgage bonds, or to redeem first mortgage bonds which by<BR>their terms are redeemable prior to maturity. (See section 4.19 of the mortgage.)<BR>
SFUND	I	2013/09/06	2013/09/06	2475	1842531	US771367CA58	2022/06/30	USD	0.33354		Sinking and Improvement Fund<BR>While any first mortgage bonds issued under the mortgage are outstanding, we will, on or before<BR>June 30 of each year, deposit USD333,540 with the mortgage trustee. We may credit against this amount<BR>(i) up to 60% of the bondable value of property additions or (ii) the principal amount of prior liens or<BR>charges and first mortgage bonds issued under the mortgage which might then be made the basis for<BR>the issuance of first mortgage bonds under the mortgage. Cash so deposited with the mortgage trustee<BR>may be withdrawn or used as provided in the mortgage to purchase or redeem first mortgage bonds, or<BR>for other purposes. If on any December 31 the mortgage trustee holds USD250,000 or more so deposited,<BR>such cash must be used to purchase first mortgage bonds, or to redeem first mortgage bonds which by<BR>their terms are redeemable prior to maturity. (See section 4.19 of the mortgage.)<BR>
SFUND	I	2013/09/06	2013/09/06	2476	1842531	US771367CA58	2023/06/30	USD	0.33354		Sinking and Improvement Fund<BR>While any first mortgage bonds issued under the mortgage are outstanding, we will, on or before<BR>June 30 of each year, deposit USD333,540 with the mortgage trustee. We may credit against this amount<BR>(i) up to 60% of the bondable value of property additions or (ii) the principal amount of prior liens or<BR>charges and first mortgage bonds issued under the mortgage which might then be made the basis for<BR>the issuance of first mortgage bonds under the mortgage. Cash so deposited with the mortgage trustee<BR>may be withdrawn or used as provided in the mortgage to purchase or redeem first mortgage bonds, or<BR>for other purposes. If on any December 31 the mortgage trustee holds USD250,000 or more so deposited,<BR>such cash must be used to purchase first mortgage bonds, or to redeem first mortgage bonds which by<BR>their terms are redeemable prior to maturity. (See section 4.19 of the mortgage.)<BR>
SFUND	I	2013/09/06	2013/09/06	2477	1842531	US771367CA58	2024/06/30	USD	0.33354		Sinking and Improvement Fund<BR>While any first mortgage bonds issued under the mortgage are outstanding, we will, on or before<BR>June 30 of each year, deposit USD333,540 with the mortgage trustee. We may credit against this amount<BR>(i) up to 60% of the bondable value of property additions or (ii) the principal amount of prior liens or<BR>charges and first mortgage bonds issued under the mortgage which might then be made the basis for<BR>the issuance of first mortgage bonds under the mortgage. Cash so deposited with the mortgage trustee<BR>may be withdrawn or used as provided in the mortgage to purchase or redeem first mortgage bonds, or<BR>for other purposes. If on any December 31 the mortgage trustee holds USD250,000 or more so deposited,<BR>such cash must be used to purchase first mortgage bonds, or to redeem first mortgage bonds which by<BR>their terms are redeemable prior to maturity. (See section 4.19 of the mortgage.)<BR>
SFUND	I	2013/09/06	2013/09/06	2478	1842531	US771367CA58	2025/06/30	USD	0.33354		Sinking and Improvement Fund<BR>While any first mortgage bonds issued under the mortgage are outstanding, we will, on or before<BR>June 30 of each year, deposit USD333,540 with the mortgage trustee. We may credit against this amount<BR>(i) up to 60% of the bondable value of property additions or (ii) the principal amount of prior liens or<BR>charges and first mortgage bonds issued under the mortgage which might then be made the basis for<BR>the issuance of first mortgage bonds under the mortgage. Cash so deposited with the mortgage trustee<BR>may be withdrawn or used as provided in the mortgage to purchase or redeem first mortgage bonds, or<BR>for other purposes. If on any December 31 the mortgage trustee holds USD250,000 or more so deposited,<BR>such cash must be used to purchase first mortgage bonds, or to redeem first mortgage bonds which by<BR>their terms are redeemable prior to maturity. (See section 4.19 of the mortgage.)<BR>
SFUND	I	2013/09/06	2013/09/06	2479	1842531	US771367CA58	2026/06/30	USD	0.33354		Sinking and Improvement Fund<BR>While any first mortgage bonds issued under the mortgage are outstanding, we will, on or before<BR>June 30 of each year, deposit USD333,540 with the mortgage trustee. We may credit against this amount<BR>(i) up to 60% of the bondable value of property additions or (ii) the principal amount of prior liens or<BR>charges and first mortgage bonds issued under the mortgage which might then be made the basis for<BR>the issuance of first mortgage bonds under the mortgage. Cash so deposited with the mortgage trustee<BR>may be withdrawn or used as provided in the mortgage to purchase or redeem first mortgage bonds, or<BR>for other purposes. If on any December 31 the mortgage trustee holds USD250,000 or more so deposited,<BR>such cash must be used to purchase first mortgage bonds, or to redeem first mortgage bonds which by<BR>their terms are redeemable prior to maturity. (See section 4.19 of the mortgage.)<BR>
SFUND	I	2013/10/26	2013/10/26	2530	3954037	US29366AAA25	2012/06/01	USD	12.32786		No further information
SFUND	I	2013/10/26	2013/10/26	2531	3954037	US29366AAA25	2012/12/01	USD	13.24456		No further information
SFUND	I	2013/10/26	2013/10/26	2532	3954037	US29366AAA25	2013/06/01	USD	6.71115		No further information
SFUND	I	2013/10/26	2013/10/26	2533	3954037	US29366AAA25	2013/12/01	USD	9.87980		No further information
SFUND	I	2013/10/26	2013/10/26	2534	3954037	US29366AAA25	2014/06/01	USD	10.44860		No further information
SFUND	I	2013/10/26	2013/10/26	2535	3954037	US29366AAA25	2014/12/01	USD	11.48035		No further information
SFUND	I	2013/10/26	2013/10/26	2536	3954037	US29366AAA25	2015/06/01	USD	9.27916		No further information
SFUND	I	2013/10/26	2013/10/26	2537	3954037	US29366AAA25	2015/12/01	USD	11.21666		No further information
SFUND	I	2013/10/26	2013/10/26	2538	3954037	US29366AAA25	2016/06/01	USD	9.96360		No further information
SFUND	I	2013/10/26	2013/10/26	2539	3954037	US29366AAA25	2016/12/01	USD	11.63220		No further information
SFUND	I	2013/10/26	2013/10/26	2540	3954037	US29366AAA25	2017/06/01	USD	9.98443		No further information
SFUND	I	2013/10/26	2013/10/26	2541	3954037	US29366AAA25	2017/12/01	USD	11.75993		No further information
SFUND	I	2013/10/26	2013/10/26	2542	3954037	US29366AAA25	2018/06/01	USD	10.29899		No further information
SFUND	I	2013/10/26	2013/10/26	2543	3954037	US29366AAA25	2018/12/01	USD	12.01829		No further information
SFUND	I	2013/10/26	2013/10/26	2544	3954037	US29366AAA25	2019/06/01	USD	10.49326		No further information
SFUND	I	2013/10/26	2013/10/26	2545	3954037	US29366AAA25	2019/12/01	USD	12.23151		No further information
SFUND	I	2013/10/26	2013/10/26	2546	3954037	US29366AAA25	2020/06/01	USD	10.74145		No further information
SFUND	I	2013/10/26	2013/10/26	2547	3954037	US29366AAA25	2020/12/01	USD	12.46385		No further information
SFUND	I	2013/10/26	2013/10/26	2548	3954037	US29366AAA25	2021/06/01	USD	10.98013		No further information
SFUND	I	2013/09/06	2013/09/06	2480	1842531	US771367CA58	2027/06/30	USD	0.33354		Sinking and Improvement Fund<BR>While any first mortgage bonds issued under the mortgage are outstanding, we will, on or before<BR>June 30 of each year, deposit USD333,540 with the mortgage trustee. We may credit against this amount<BR>(i) up to 60% of the bondable value of property additions or (ii) the principal amount of prior liens or<BR>charges and first mortgage bonds issued under the mortgage which might then be made the basis for<BR>the issuance of first mortgage bonds under the mortgage. Cash so deposited with the mortgage trustee<BR>may be withdrawn or used as provided in the mortgage to purchase or redeem first mortgage bonds, or<BR>for other purposes. If on any December 31 the mortgage trustee holds USD250,000 or more so deposited,<BR>such cash must be used to purchase first mortgage bonds, or to redeem first mortgage bonds which by<BR>their terms are redeemable prior to maturity. (See section 4.19 of the mortgage.)<BR>
SFUND	I	2013/09/06	2013/09/06	2481	1842531	US771367CA58	2028/06/30	USD	0.33354		Sinking and Improvement Fund<BR>While any first mortgage bonds issued under the mortgage are outstanding, we will, on or before<BR>June 30 of each year, deposit USD333,540 with the mortgage trustee. We may credit against this amount<BR>(i) up to 60% of the bondable value of property additions or (ii) the principal amount of prior liens or<BR>charges and first mortgage bonds issued under the mortgage which might then be made the basis for<BR>the issuance of first mortgage bonds under the mortgage. Cash so deposited with the mortgage trustee<BR>may be withdrawn or used as provided in the mortgage to purchase or redeem first mortgage bonds, or<BR>for other purposes. If on any December 31 the mortgage trustee holds USD250,000 or more so deposited,<BR>such cash must be used to purchase first mortgage bonds, or to redeem first mortgage bonds which by<BR>their terms are redeemable prior to maturity. (See section 4.19 of the mortgage.)<BR>
SFUND	I	2013/09/06	2013/09/06	2482	1842531	US771367CA58	2029/06/30	USD	0.33354		Sinking and Improvement Fund<BR>While any first mortgage bonds issued under the mortgage are outstanding, we will, on or before<BR>June 30 of each year, deposit USD333,540 with the mortgage trustee. We may credit against this amount<BR>(i) up to 60% of the bondable value of property additions or (ii) the principal amount of prior liens or<BR>charges and first mortgage bonds issued under the mortgage which might then be made the basis for<BR>the issuance of first mortgage bonds under the mortgage. Cash so deposited with the mortgage trustee<BR>may be withdrawn or used as provided in the mortgage to purchase or redeem first mortgage bonds, or<BR>for other purposes. If on any December 31 the mortgage trustee holds USD250,000 or more so deposited,<BR>such cash must be used to purchase first mortgage bonds, or to redeem first mortgage bonds which by<BR>their terms are redeemable prior to maturity. (See section 4.19 of the mortgage.)<BR>
SFUND	I	2013/09/06	2013/09/06	2483	1842531	US771367CA58	2030/06/30	USD	0.33354		Sinking and Improvement Fund<BR>While any first mortgage bonds issued under the mortgage are outstanding, we will, on or before<BR>June 30 of each year, deposit USD333,540 with the mortgage trustee. We may credit against this amount<BR>(i) up to 60% of the bondable value of property additions or (ii) the principal amount of prior liens or<BR>charges and first mortgage bonds issued under the mortgage which might then be made the basis for<BR>the issuance of first mortgage bonds under the mortgage. Cash so deposited with the mortgage trustee<BR>may be withdrawn or used as provided in the mortgage to purchase or redeem first mortgage bonds, or<BR>for other purposes. If on any December 31 the mortgage trustee holds USD250,000 or more so deposited,<BR>such cash must be used to purchase first mortgage bonds, or to redeem first mortgage bonds which by<BR>their terms are redeemable prior to maturity. (See section 4.19 of the mortgage.)<BR>
SFUND	I	2013/09/06	2013/09/06	2484	1842531	US771367CA58	2031/06/30	USD	0.33354		Sinking and Improvement Fund<BR>While any first mortgage bonds issued under the mortgage are outstanding, we will, on or before<BR>June 30 of each year, deposit USD333,540 with the mortgage trustee. We may credit against this amount<BR>(i) up to 60% of the bondable value of property additions or (ii) the principal amount of prior liens or<BR>charges and first mortgage bonds issued under the mortgage which might then be made the basis for<BR>the issuance of first mortgage bonds under the mortgage. Cash so deposited with the mortgage trustee<BR>may be withdrawn or used as provided in the mortgage to purchase or redeem first mortgage bonds, or<BR>for other purposes. If on any December 31 the mortgage trustee holds USD250,000 or more so deposited,<BR>such cash must be used to purchase first mortgage bonds, or to redeem first mortgage bonds which by<BR>their terms are redeemable prior to maturity. (See section 4.19 of the mortgage.)<BR>
SFUND	I	2013/11/26	2013/11/26	2549	4149275	USU0080RAC44	2008/11/01	USD	6.25000		No further information
SFUND	I	2013/11/26	2013/11/26	2550	4149275	USU0080RAC44	2009/11/01	USD	6.25000		No further information
SFUND	I	2013/11/26	2013/11/26	2551	4149275	USU0080RAC44	2010/11/01	USD	6.25000		No further information
SFUND	I	2013/11/26	2013/11/26	2552	4149275	USU0080RAC44	2011/11/01	USD	6.25000		No further information
SFUND	I	2013/11/26	2013/11/26	2553	4149275	USU0080RAC44	2012/11/01	USD	6.25000		No further information
SFUND	I	2013/11/26	2013/11/26	2554	4149275	USU0080RAC44	2013/11/01	USD	6.25000		No further information
SFUND	I	2013/11/26	2013/11/26	2555	4149275	USU0080RAC44	2014/11/01	USD	6.25000		No further information
SFUND	I	2013/11/26	2013/11/26	2556	4149275	USU0080RAC44	2015/11/01	USD	6.25000		No further information
SFUND	I	2013/11/26	2013/11/26	2557	4149275	USU0080RAC44	2016/11/01	USD	6.25000		No further information
SFUND	I	2013/11/26	2013/11/26	2558	4149275	USU0080RAC44	2017/11/01	USD	6.25000		No further information
SFUND	I	2013/11/26	2013/11/26	2559	4149275	USU0080RAC44	2018/11/01	USD	6.25000		No further information
SFUND	I	2013/11/26	2013/11/26	2560	4149275	USU0080RAC44	2019/11/01	USD	6.25000		No further information
SFUND	I	2013/11/26	2013/11/26	2561	4149275	USU0080RAC44	2020/11/01	USD	6.25000		No further information
SFUND	I	2013/11/26	2013/11/26	2562	4149275	USU0080RAC44	2021/11/01	USD	6.25000		No further information
SFUND	I	2013/11/26	2013/11/26	2563	4149275	USU0080RAC44	2022/11/01	USD	6.25000		No further information
SFUND	I	2013/11/26	2013/11/26	2564	4149275	USU0080RAC44	2023/11/01	USD	6.25000		No further information
SFUND	I	2013/11/26	2013/11/26	2565	4149275	USU0080RAC44	2024/11/01	USD	6.25000		No further information
SFUND	I	2013/11/26	2013/11/26	2566	4149275	USU0080RAC44	2025/11/01	USD	6.25000		No further information
SFUND	I	2013/11/26	2013/11/26	2567	4149275	USU0080RAC44	2026/11/01	USD	6.25000		No further information
SFUND	I	2013/11/29	2013/11/29	2568	1793570	US00130HAJ41	2008/11/01	USD	6.25000		No further information
SFUND	I	2013/11/29	2013/11/29	2569	1793570	US00130HAJ41	2009/11/01	USD	6.25000		No further information
SFUND	I	2013/11/29	2013/11/29	2570	1793570	US00130HAJ41	2010/11/01	USD	6.25000		No further information
SFUND	I	2013/11/29	2013/11/29	2571	1793570	US00130HAJ41	2011/11/01	USD	6.25000		No further information
SFUND	I	2013/11/29	2013/11/29	2572	1793570	US00130HAJ41	2012/11/01	USD	6.25000		No further information
SFUND	I	2013/09/06	2013/09/06	2485	1842531	US771367CA58	2032/06/30	USD	0.33354		Sinking and Improvement Fund<BR>While any first mortgage bonds issued under the mortgage are outstanding, we will, on or before<BR>June 30 of each year, deposit USD333,540 with the mortgage trustee. We may credit against this amount<BR>(i) up to 60% of the bondable value of property additions or (ii) the principal amount of prior liens or<BR>charges and first mortgage bonds issued under the mortgage which might then be made the basis for<BR>the issuance of first mortgage bonds under the mortgage. Cash so deposited with the mortgage trustee<BR>may be withdrawn or used as provided in the mortgage to purchase or redeem first mortgage bonds, or<BR>for other purposes. If on any December 31 the mortgage trustee holds USD250,000 or more so deposited,<BR>such cash must be used to purchase first mortgage bonds, or to redeem first mortgage bonds which by<BR>their terms are redeemable prior to maturity. (See section 4.19 of the mortgage.)<BR>
SFUND	I	2013/09/06	2013/09/06	2486	1842531	US771367CA58	2033/06/30	USD	0.33354		Sinking and Improvement Fund<BR>While any first mortgage bonds issued under the mortgage are outstanding, we will, on or before<BR>June 30 of each year, deposit USD333,540 with the mortgage trustee. We may credit against this amount<BR>(i) up to 60% of the bondable value of property additions or (ii) the principal amount of prior liens or<BR>charges and first mortgage bonds issued under the mortgage which might then be made the basis for<BR>the issuance of first mortgage bonds under the mortgage. Cash so deposited with the mortgage trustee<BR>may be withdrawn or used as provided in the mortgage to purchase or redeem first mortgage bonds, or<BR>for other purposes. If on any December 31 the mortgage trustee holds USD250,000 or more so deposited,<BR>such cash must be used to purchase first mortgage bonds, or to redeem first mortgage bonds which by<BR>their terms are redeemable prior to maturity. (See section 4.19 of the mortgage.)<BR>
SFUND	I	2013/09/06	2013/09/06	2487	1842531	US771367CA58	2017/06/30	USD	0.33354		Sinking and Improvement Fund<BR>While any first mortgage bonds issued under the mortgage are outstanding, we will, on or before<BR>June 30 of each year, deposit USD333,540 with the mortgage trustee. We may credit against this amount<BR>(i) up to 60% of the bondable value of property additions or (ii) the principal amount of prior liens or<BR>charges and first mortgage bonds issued under the mortgage which might then be made the basis for<BR>the issuance of first mortgage bonds under the mortgage. Cash so deposited with the mortgage trustee<BR>may be withdrawn or used as provided in the mortgage to purchase or redeem first mortgage bonds, or<BR>for other purposes. If on any December 31 the mortgage trustee holds USD250,000 or more so deposited,<BR>such cash must be used to purchase first mortgage bonds, or to redeem first mortgage bonds which by<BR>their terms are redeemable prior to maturity. (See section 4.19 of the mortgage.)<BR>
SFUND	I	2013/11/29	2013/11/29	2573	1793570	US00130HAJ41	2013/11/01	USD	6.25000		No further information
SFUND	I	2013/11/29	2013/11/29	2574	1793570	US00130HAJ41	2014/11/01	USD	6.25000		No further information
SFUND	I	2013/11/29	2013/11/29	2575	1793570	US00130HAJ41	2015/11/01	USD	6.25000		No further information
SFUND	I	2013/11/29	2013/11/29	2576	1793570	US00130HAJ41	2016/11/01	USD	6.25000		No further information
SFUND	I	2013/11/29	2013/11/29	2577	1793570	US00130HAJ41	2017/11/01	USD	6.25000		No further information
SFUND	I	2013/11/29	2013/11/29	2578	1793570	US00130HAJ41	2018/11/01	USD	6.25000		No further information
SFUND	I	2013/11/29	2013/11/29	2579	1793570	US00130HAJ41	2019/11/01	USD	6.25000		No further information
SFUND	I	2013/11/29	2013/11/29	2580	1793570	US00130HAJ41	2020/11/01	USD	6.25000		No further information
SFUND	I	2013/11/29	2013/11/29	2581	1793570	US00130HAJ41	2021/11/01	USD	6.25000		No further information
SFUND	I	2013/11/29	2013/11/29	2582	1793570	US00130HAJ41	2022/11/01	USD	6.25000		No further information
SFUND	I	2013/11/29	2013/11/29	2583	1793570	US00130HAJ41	2023/11/01	USD	6.25000		No further information
SFUND	I	2013/11/29	2013/11/29	2584	1793570	US00130HAJ41	2024/11/01	USD	6.25000		No further information
SFUND	I	2013/11/29	2013/11/29	2585	1793570	US00130HAJ41	2025/11/01	USD	6.25000		No further information
SFUND	I	2013/11/29	2013/11/29	2586	1793570	US00130HAJ41	2026/11/01	USD	6.25000		No further information
SFUND	I	2013/12/09	2013/12/09	2612	3547022	USM28368AB04	2019/06/16	USD	331.00000		No further information
SFUND	I	2013/12/09	2013/12/09	2613	3547022	USM28368AB04	2019/12/16	USD	662.00000		No further information
SFUND	I	2013/12/09	2013/12/09	2615	3547022	USM28368AB04	2020/06/16	USD	993.00000		No further information
SFUND	I	2013/12/09	2013/12/09	2616	3547022	USM28368AB04	2020/12/16	USD	1324.00000		No further information
SFUND	I	2013/12/09	2013/12/09	2617	3547022	USM28368AB04	2021/06/16	USD	1654.00000		No further information
SFUND	I	2013/12/20	2013/12/20	2793	4163647	US69336NAD12	2026/07/15	USD	1.03081		No further information
SFUND	I	2013/12/20	2013/12/20	2794	4163647	US69336NAD12	2027/01/15	USD	4.33891		No further information
SFUND	I	2013/12/20	2013/12/20	2795	4163647	US69336NAD12	2027/07/15	USD	4.60526		No further information
SFUND	I	2014/01/29	2014/01/29	2876	3547021	US256853AB86	2019/06/16	USD	331.00000		No further information
SFUND	I	2014/01/29	2014/01/29	2877	3547021	US256853AB86	2019/12/16	USD	662.00000		No further information
SFUND	I	2014/01/29	2014/01/29	2878	3547021	US256853AB86	2020/06/16	USD	993.00000		No further information
SFUND	I	2014/01/29	2014/01/29	2879	3547021	US256853AB86	2020/12/16	USD	1324.00000		No further information
SFUND	I	2014/01/29	2014/01/29	2880	3547021	US256853AB86	2021/06/16	USD	1654.00000		No further information
SFUND	I	2014/04/22	2014/04/22	3057	3859872	US553214AE79	2028/01/15	USD	11.18765		No further information
SFUND	I	2014/04/22	2014/04/22	3058	3859872	US553214AE79	2028/07/15	USD	14.78891		No further information
SFUND	I	2014/04/22	2014/04/22	3059	3859872	US553214AE79	2029/01/15	USD	14.55876		No further information
SFUND	I	2014/04/22	2014/04/22	3060	3859872	US553214AE79	2029/07/15	USD	15.39637		No further information
SFUND	I	2014/04/22	2014/04/22	3061	3859872	US553214AE79	2030/01/15	USD	8.44828		No further information
SFUND	I	2018/05/29	2018/05/29	5572	5550301	US147181CG42	2033/06/01	USD	0.172		No further information
SFUND	I	2018/05/29	2018/05/29	5573	5550301	US147181CG42	2033/12/01	USD	0.177		No further information
SFUND	I	2018/05/29	2018/05/29	5574	5550301	US147181CG42	2034/06/01	USD	0.183		No further information
SFUND	I	2018/05/29	2018/05/29	5575	5550301	US147181CG42	2034/12/01	USD	0.188		No further information
SFUND	I	2018/05/29	2018/05/29	5576	5550301	US147181CG42	2035/06/01	USD	0.194		No further information
SFUND	I	2018/05/29	2018/05/29	5577	5550301	US147181CG42	2035/12/01	USD	0.2		No further information
SFUND	I	2018/05/29	2018/05/29	5578	5550301	US147181CG42	2036/06/01	USD	0.206		No further information
SFUND	I	2018/05/29	2018/05/29	5579	5550301	US147181CG42	2036/12/01	USD	0.213		No further information
SFUND	I	2018/05/29	2018/05/29	5580	5550301	US147181CG42	2037/06/01	USD	0.22		No further information
SFUND	I	2020/07/15	2020/07/15	6073	4008704	USG13201AA91	2019/02/15	USD	127	10	No further information
SFUND	I	2020/07/15	2020/07/15	6074	4008704	USG13201AA91	2020/02/15	USD	127	10	No further information
SFUND	I	2020/07/15	2020/07/15	6075	4008704	USG13201AA91	2021/02/15	USD	127	10	No further information
SFUND	I	2020/07/15	2020/07/15	6076	4008704	USG13201AA91	2022/02/15	USD	127	10	No further information
SFUND	I	2020/07/15	2020/07/15	6077	4008704	USG13201AA91	2023/02/15	USD	127	10	No further information
SFUND	I	2020/07/15	2020/07/15	6078	4008704	USG13201AA91	2024/02/15	USD	127	10	No further information
SFUND	I	2020/07/15	2020/07/15	6079	4008704	USG13201AA91	2025/02/15	USD	127	10	No further information
SFUND	I	2020/07/15	2020/07/15	6080	4008704	USG13201AA91	2026/02/15	USD	127	10	No further information
SFUND	I	2020/07/15	2020/07/15	6081	4008704	USG13201AA91	2027/02/15	USD	127	10	No further information
SFUND	I	2020/07/15	2020/07/15	6082	4008704	USG13201AA91	2028/02/15	USD	127	10	No further information
EDI_ENDOFFILE
