EDI_MTCHG_20200724
TableName	Actflag	Created	Changed	MtChgID	SecID	ISIN	NotificationDate	OldMaturityDate	NewMaturityDate	Reason	EventType	OldMaturityBenchmark	NewMaturityBenchmark	Notes
MTCHG	I	2020/07/24	2020/07/24	73373	6478331	US05600FME69	2020/07/23	2025/07/21	2025/07/16		CORR			
MTCHG	I	2020/07/24	2020/07/24	73382	6447204		2020/07/24	2020/12/18	2022/06/30		CORR			
EDI_ENDOFFILE
