EDI_LAWST_20200724
TableName	Actflag	Created	Changed	LawstID	SecID	ISIN	IssID	EffectiveDate	LAType	Regdate
LAWST	U	2007/08/14	2009/04/25	2139	6488455	US53261MAA27	109984	2009/04/24	CLSACT	
EDI_ENDOFFILE
