EDI_BDC_20200724
TableName	Actflag	Created	Changed	BdcID	SecID	ISIN	BDCAppliedTo	CntrID	Notes
BDC	I	2020/07/24	2020/07/24	1913010	6284379	XS2115155033	I	1	
BDC	I	2020/07/24	2020/07/24	1913011	6284379	XS2115155033	M	1	
BDC	I	2020/07/24	2020/07/24	1913012	6284379	XS2115155033	I	8	
BDC	I	2020/07/24	2020/07/24	1913013	6284379	XS2115155033	M	8	
BDC	I	2020/07/24	2020/07/24	1913014	6284379	XS2115155033	I	15	
BDC	I	2020/07/24	2020/07/24	1913015	6284379	XS2115155033	M	15	
BDC	I	2020/07/24	2020/07/24	1913016	6284379	XS2115155033	I	44	
BDC	I	2020/07/24	2020/07/24	1913017	6284379	XS2115155033	M	44	
BDC	I	2020/07/24	2020/07/24	1912785	6474753	US74348Y5K30	I	8	
BDC	I	2020/07/24	2020/07/24	1912786	6474753	US74348Y5K30	M	8	
BDC	I	2020/07/24	2020/07/24	1912837	6474750	US74348Y5J66	I	8	
BDC	I	2020/07/24	2020/07/24	1912838	6474750	US74348Y5J66	M	8	
BDC	I	2020/07/24	2020/07/24	1912827	6474744	US74348Y5H01	I	8	
BDC	I	2020/07/24	2020/07/24	1912828	6474744	US74348Y5H01	M	8	
BDC	I	2020/07/20	2020/07/20	1911337	6479948	US69121KAD63	I	8	
BDC	I	2020/07/20	2020/07/20	1911338	6479948	US69121KAD63	M	8	
BDC	I	2020/07/21	2020/07/21	1911634	6484554	US89236THD00	I	8	
BDC	I	2020/07/21	2020/07/21	1911635	6484554	US89236THD00	M	8	
BDC	I	2020/07/24	2020/07/24	1912805	6490147	US064159VD54	I	8	
BDC	I	2020/07/24	2020/07/24	1912806	6490147	US064159VD54	M	8	
BDC	I	2020/07/24	2020/07/24	1912807	6490147	US064159VD54	I	29	
BDC	I	2020/07/24	2020/07/24	1912808	6490147	US064159VD54	M	29	
EDI_ENDOFFILE
