EDI_BOCHG_20200724
TableName	Actflag	Created	Changed	BochgID	RelEventID	SecID	ISIN	EffectiveDate	OldOutValue	NewOutValue	EventType	OldOutDate	NewOutDate	Notes
BOCHG	I	2020/07/24	2020/07/24	2670367	3389148	2027765	US6174467P85	2020/07/24	1890		REDEM	2010/12/28	2020/07/24	
BOCHG	I	2020/07/24	2020/07/24	2671311	3408123	3861910	US169905AE60	2020/07/24	400	216.571	REDEM	2012/06/27	2020/07/24	
BOCHG	I	2020/07/24	2020/07/24	2670383	3389165	4227961	US17305EFB65	2020/07/24	925		REDEM	2013/08/08	2020/07/24	
BOCHG	I	2020/07/24	2020/07/24	2670412	3389196	4566546	US38148X1422	2020/07/24	11		REDEM	2015/07/29	2020/07/24	
BOCHG	I	2020/07/24	2020/07/24	2670424	3389213	4840495	US40054KFC53	2020/07/24	17.895		REDEM	2016/07/26	2020/07/24	
BOCHG	I	2020/07/24	2020/07/24	2670873	3414579	5032414	XS1533921299	2020/07/24	600	520.259	REDEM	2017/02/02	2020/07/24	
BOCHG	I	2020/07/24	2020/07/24	2671278	3197904	5107742	US74348TAR32	2020/01/27	292.127	290.825	REDEM	2019/12/11	2020/01/27	
BOCHG	I	2020/07/24	2020/07/24	2671280		5107742	US74348TAR32	2020/07/23	290.825	258.24	CORR	2020/01/27	2020/07/23	
BOCHG	I	2020/07/24	2020/07/24	2670451	3389248	5214769	US61766X3769	2020/07/24	6		REDEM	2017/07/26	2020/07/24	
BOCHG	I	2020/07/24	2020/07/24	2670452	3389250	5214912	US36253M4226	2020/07/24	12.775		REDEM	2017/07/26	2020/07/24	
BOCHG	I	2020/07/24	2020/07/24	2670482	3389299	5403499	US22549E2422	2020/07/24	2.4514		REDEM	2018/01/24	2020/07/24	
BOCHG	I	2020/07/24	2020/07/24	2670518	3389369	5743289	US86565BJU61	2020/07/24	425		REDEM	2018/07/30	2020/07/24	
BOCHG	I	2020/07/24	2020/07/24	2670529	3389386	5834949	US362411AB61	2020/07/24	1		REDEM	2012/08/24	2020/07/24	
BOCHG	I	2020/07/24	2020/07/24	2671122		5922761	US56035LAD64	2020/07/28	325	450	REISS	2019/12/05	2020/07/28	
BOCHG	I	2020/07/24	2020/07/24	2670634	3389513	6041476		2020/07/24	0.75		REDEM	2019/07/24	2020/07/24	
BOCHG	I	2020/07/24	2020/07/24	2671294		6257678	XS2103199050	2020/07/22	300	455	REISS	2020/01/16	2020/07/22	
BOCHG	I	2020/07/24	2020/07/24	2670874	3414580	5123824	XS1577964965	2020/07/24	500	491.205	REDEM	2017/05/03	2020/07/24	
BOCHG	I	2020/07/24	2020/07/24	2671192		6474750	US74348Y5J66	2020/07/23	0.312	0.312	CORR	2020/07/16	2020/07/23	
EDI_ENDOFFILE
