EDI_REDEM_20200724
TableName	Actflag	Created	Changed	RedemID	SecID	ISIN	Recdate	RedemDate	RedemCurrency	RedemPrice	MandOptFlag	PartFinal	RedemType	AmountRedeemed	RedemPremium	RedemPercent	PoolFactor	PriceAsPercent	PremiumAsPercent	InDefPay	TenderOpenDate	TenderCloseDate	ExpTime	ExpTimeZone	MatGraceDays	MatGraceDayConvention	TenderOfferor	DutchAuction	DutchMinPrice	DutchMinAmount	DutchMaxPrice	DutchMaxAmount	Notes
REDEM	I	2020/07/24	2020/07/24	3422457	2071928	US06050WDK80		2020/08/15	USD	1000	M	F	MAT					100										F					
REDEM	I	2020/07/24	2020/07/24	3422640	2125392	US29365PAQ54		2020/08/20	USD	1000	M	F	CALL					100										F					(As on 23/07/2020)<BR>Redemption - Full Call <BR>Redemption on Traded Bonds <BR>The New York Stock Exchange, Inc. has been advised that the following securities have been called for redemption:<BR>  <BR>Bond Symbol                                  Description                                 CUSIP Coupon Maturity Announcement Date Redemption Date<BR>ETR/20 ENTERGY GULF STATES LA 3.95% 10/01/2020 29365PAQ5 3.95 10/01/2020 07/22/2020           08/20/2020<BR>
REDEM	I	2020/07/24	2020/07/24	3422637	3733953	US45138LAZ67		2020/07/29	USD	1000	M	F	CALL					100										F					(As on 23/07/2020)<BR>Redemption - Full Call <BR>Redemption on Traded Bonds <BR>The New York Stock Exchange, Inc. has been advised that the following securities have been called for redemption:<BR>  <BR>Bond Symbol                 Description                                 CUSIP     Coupon Maturity Announcement Date Redemption Date<BR>IDA/22 IDAHO POWER CORP 2.95% 04/01/2022 45138LAZ6 2.95 04/01/2022 07/22/2020            07/29/2020<BR>
REDEM	U	2020/07/10	2020/07/24	3408123	3861910	US169905AE60		2020/07/24	USD	2000	O	P	BBED	183.429	149.58			100	7.479		2020/07/09	2020/07/22	17:00	EST				F					(As on 23/07/20)<BR>CHOICE HOTELS ANNOUNCES EARLY TENDER RESULTS AND INCREASE IN AGGREGATE MAXIMUM TENDER AMOUNT OF TENDER OFFER FOR ITS OUTSTANDING 5.750% SENIOR NOTES DUE 2022<BR>ROCKVILLE, Md. (July 23, 2020)   Choice Hotels International, Inc. (NYSE: CHH) (the  Company ) announced today the early tender results for its previously announced tender offer (the  Tender Offer ) to purchase for cash up to an aggregate principal amount of USD180,000,000 of its 5.750% Senior Notes due 2022 (the  Notes ). Additionally, the Company announced today that it has amended the Tender Offer by increasing the aggregate maximum tender amount from USD180,000,000 to USD183,429,000 (as amended, the  Aggregate Maximum Tender Amount ).<BR><BR>Title of             CUSIP               Principal Amount       U.S. Treasury        Reference       Fixed        Early Tender       Principal Amount<BR>Note                Number                 Outstanding            Reference              Yield                Spread    Premium            Tendered at<BR>                                                                                           Security                                                              (per USD          Early Tender time <BR>                                                                                                                                                                       1,000)<BR><BR><BR>5.750%                                                                         0.125%<BR>Senior       169905AE6        USD400,000,000       UST due                   0.151%        +165 bps    USD50                USD183,429,000<BR>Notes                                                                           06/30/2022<BR>due<BR>2022<BR><BR>The terms and conditions of the Tender Offer are set forth in the offer to purchase, dated July 9, 2020, as amended by this press release (as the same may be amended or supplemented, the  Offer to Purchase ). The Tender Offer will expire at 12:00 midnight, New York City Time, at the end of August 5, 2020, unless earlier terminated.<BR><BR>As of 5:00 p.m., New York City Time, on July 22, 2020 (such date and time, the  Early Tender Time ), according to information provided by D.F. King & Co., Inc., the tender and information agent for the Tender Offer, the aggregate principal amount of the Notes set forth in the table above under  Principal Amount Tendered at Early Tender Time  had been validly tendered and not validly withdrawn in the Tender Offer. Withdrawal rights for the Notes expiredat 5:00 p.m., New York City Time, on July 22, 2020.<BR><BR>The  Total Consideration  for each USD1,000 principal amount of Notes validly tendered and accepted for purchase pursuant to the Tender Offer will be determined in the manner described in the Offer to Purchase by reference to the fixed spread for the Notes specified in the table above plus the yield based on the bid-side price of the U.S. Treasury Reference Security specified in the table above at 10:00 a.m., New York City Time, today, and is inclusive of the Early Tender Premium as set forth in the table above.<BR><BR>The Company expects to announce the pricing of the Tender Offer and the amount of Notes accepted for purchase later today.<BR><BR>(As on 23/07/20)<BR>CHOICE HOTELS ANNOUNCES PRICING OF ITS TENDER OFFER FOR UP TO USD183,429,000 OF ITS OUTSTANDING 5.7o50% SENIOR NOTES DUE 2022<BR><BR>ROCKVILLE, Md. (July 23, 2020)   Choice Hotels International, Inc. (NYSE: CHH) (the  Company ) announced today the consideration payable in connection with its previously announced tender offer (the  Tender Offer ) to purchase for cash up to an aggregate principal amount of USD183,429,000 (the  Aggregate Maximum Tender Amount ) of its 5.750% Senior Notes due 2022 (the  Notes ), as described in the table below.<BR><BR>Title of             CUSIP               Principal Amount       U.S. Treasury        Reference       Fixed        Early Tender       Total<BR>Note                Number                 Outstanding            Reference              Yield                Spread    Premium            Consideration<BR>                                                                                           Security                                                              (per USD          (per USD1,000)<BR>                                                                                                                                                                       1,000)<BR><BR><BR>5.750%                                                                         0.125%<BR>Senior       169905AE6        USD400,000,000       UST due                   0.151%        +165 bps    USD50                USD1,074.79<BR>Notes                                                                           06/30/2022<BR>due<BR>2022<BR><BR>The Tender Offer was made on the terms and conditions set forth in the offer to purchase, dated July 9, 2020, (as amended and as may be further amended or supplemented, the  Offer to Purchase ). The Tender Offer will expire at 12:00 midnight, New York City Time, at the end of August 5, 2020, unless earlier terminated.<BR><BR>The  Total Consideration  for each USD1,000 principal amount of Notes validly tendered and accepted for purchase pursuant to the Tender Offer was determined in the manner described in the Offer to Purchase by reference to the fixed spread for the Notes specified in the table above plus the yield based on the bid-side price of the U.S. Treasury Reference Security specified in the table above at 10:00 a.m., New York City Time, today, and is inclusive of the Early Tender Premium set forth in the table above.<BR><BR>Only holders of Notes who validly tendered and did not validly withdraw their Notes at or prior to 5:00 p.m., New York City Time, on July 22, 2020 (such date and time, the  Early Tender Time ) are eligible to receive the Total Consideration for the Notes accepted for purchase. Holders of Notes will also receive accrued and unpaid interest on their Notes validly tendered and accepted for purchase from the last interest payment date up to, but not including, the settlement date. Withdrawal rights for the Notes expired at 5:00 p.m., New York City Time, on July 22, 2020. On July 24, 2020, the Company expects to pay for the Notes that were validly tendered prior to or at the Early Tender Time and that are accepted for purchase.<BR><BR>Since the Tender Offer for the Notes was fully subscribed as of the Early Tender Time, the Company will not accept for purchase any Notes validly tendered after the Early Tender Time. Because the aggregate principal amount of the Notes validly tendered and not validly withdrawn prior to the Early Tender Time does not exceed the Aggregate Maximum Tender Amount, the Company has accepted for purchase all such tendered Notes.<BR><BR>(As on 09/07/20)<BR>CHOICE HOTELS ANNOUNCES TENDER OFFER FOR UP TO USD160,000,000 OF ITS OUTSTANDING 5.750% SENIOR NOTES DUE 2022 ROCKVILLE, Md. (July 9, 2020) - Choice Hotels International, Inc. (NYSE: CHH) (the `Company`) announced today that it has commenced a tender offer (the `Tender Offer`) to purchase for cash up to an aggregate principal amount of USD160,000,000 (the `Aggregate Maximum Tender Amount`) of its 5.750% Senior Notes due 2022 (the `Notes`). The following table sets forth some of the terms of the Tender Offer. <BR><BR>Title of          CUSIP          Principal Amount       Aggregate              U.S.                      Bloomberg       Fixed              Early Tender<BR>Note            Number         Outstanding               Maximum               Treasury               Reference        Spread           Premium<BR>                                                                                  Tender                   Reference            Page                                          (per USD1,000)<BR>                                                                                  Amount                   Security<BR>5.750%                                                                                                   <BR>Senior                                                                                                     0.125% UST<BR>Notes       169905AE6   USD400,000,000   USD160,000,000    due 6/30/2022       FIT1                +165 bps            USD50<BR>due 2022<BR><BR>The Tender Offer consists of an offer to purchase the Notes for cash, on the terms and conditions set forth in the offer to purchase, dated July 9, 2020 (as the same may be amended or supplemented, the `Offer to Purchase`). Subject to the Aggregate Maximum Tender Amount, proration (if applicable) and the satisfaction or waiver of the conditions to the Tender Offer, including a financing condition, the Company will accept for purchase on the Early Settlement Date or the Final Settlement Date (each as defined in the Offer to Purchase), as applicable, Notes validly tendered in the Tender Offer.<BR><BR>Notes validly tendered at or prior to the Early Tender Time (as defined below) will be accepted for purchase in priority to other Notes validly tendered after the Early Tender Time. Accordingly, if the Aggregate Maximum Tender Amount is reached in respect of tenders of Notes made at or prior to the Early Tender Time, no Notes that are tendered after the Early Tender Time will be accepted for purchase unless the Aggregate Maximum Tender Amount is increased by the Company, in its sole discretion. If the aggregate principal amount of Notes validly tendered exceeds the Aggregate Maximum Tender Amount on the applicable settlement date, the amount of Notes purchased in the Tender Offer will be prorated as set forth in the Offer to Purchase.<BR><BR>The Tender Offer will expire at 12:00 midnight, New York City Time, at the end of August 5, 2020, or any other date and time to which the Company extends the Tender Offer (such time and date, as it may be extended, the `Expiration Time`), unless the Tender Offer is earlier terminated. Holders of the Notes must validly tender and not validly withdraw the Notes prior to or at 5:00 p.m., New York City Time, on July 22, 2020 (such date and time, as it may be extended, the `Early Tender Time`), to be eligible to receive the Total Consideration, which is inclusive of an amount in cash equal to the amount set forth in the table above under the heading `Early Tender Premium` (the `Early Tender Premium`), plus Accrued Interest (as defined below). Holders of Notes who validly tender their Notes after the Early Tender Time but prior to or at the Expiration Time will be eligible to receive an amount equal to the Total Consideration minus the Early Tender Premium, plus Accrued Interest.<BR><BR>The Notes may be validly withdrawn at any time prior to, but not after, 5:00 p.m., New York City Time, on July 22, 2020, (such date and time, as it may be extended, the `Withdrawal Deadline`).<BR><BR>The `Total Consideration` for each USD1,000 principal amount of Notes validly tendered and accepted for purchase pursuant to the Tender Offer will be determined in the manner described in the Offer to Purchase by reference to the fixed spread for the Notes specified in the table above plus the yield based on the bid-side price of the U.S. Treasury Reference Security specified in the table above at 10:00 a.m., New York City Time, on July 23, 2020, unless extended or the Tender Offer is earlier terminated. Holders of the Notes will also receive accrued and unpaid interest on their Notes validly tendered and accepted for purchase from the last interest payment date up to, but not including, the applicable settlement date (`Accrued Interest`).<BR><BR>Payment for Notes that are validly tendered prior to or at the Early Tender Time and that are accepted for purchase will be made on the Early Settlement Date, which will be a date promptly following the Early Tender Time. It is currently anticipated that the Early Settlement Date will be July 24, 2020, subject to all conditions to the Tender Offer having been satisfied or waived by the Company. Payment for Notes that are validly tendered after the Early Tender Time and prior to or at the Expiration Time and that are accepted for purchase will be made on the Final Settlement Date, which will be a date promptly following the Expiration Time. It is currently anticipated that the Final Settlement Date, if applicable, will be August 7, 2020, subject to all conditions to the Tender Offer having been satisfied or waived by the Company.<BR><BR>The Tender Offer is subject to the satisfaction or waiver of certain conditions, including a financing condition, as more fully set forth in the Offer to Purchase. The Tender Offer is not subject to a minimum tender condition.<BR><BR>Information Relating to the Tender Offer<BR><BR>The Offer to Purchase is being distributed to holders beginning today. Wells Fargo Securities, LLC, J.P. Morgan Securities LLC and Goldman Sachs & Co. LLC are serving as the dealer managers for the Tender Offer. Investors with questions regarding the Tender Offer may contact Wells Fargo Securities, LLC at (704) 410-4759 (collect) or (866) 309-6316 (toll-free) or liabilitymanagement@wellsfargo.com, J.P. Morgan Securities LLC at (212) 834-2042 (collect) or (800) 834-4666 (toll-free) or Goldman Sachs & Co. LLC at (212) 357-1452 (collect) or (800) 828-3182 (toll-free).<BR><BR>None of the Company or its affiliates, their respective boards of directors, the dealer managers, the tender and information agent or the trustee with respect to the Notes is making any recommendation as to whether holders should tender any Notes in response to the Tender Offer, and neither the Company nor any such other person has authorized any person to make any such recommendation. Holders must make their own decision as to whether to tender any of their Notes, and, if so, the principal amount of Notes to tender.<BR><BR>This press release is for informational purposes only and is not an offer to buy, or the solicitation of an offer to sell, any of the Notes and the Tender Offer does not constitute an offer to buy or the solicitation of an offer to sell the Notes in any jurisdiction or in any circumstances in which such offer or solicitation are unlawful. The full details of the Tender Offer, including complete instructions on how to tender the Notes, are included in the Offer to Purchase. Holders are strongly encouraged to carefully read the Offer to Purchase, including materials incorporated by reference therein, because they will contain important information. The Offer to Purchase may be obtained from D.F. King & Co., Inc., free of charge, by calling (212) 269-5550 (collect, for banks and brokers) or (800) 967-5550 (toll-free, for all others), or by email to chh@dfking.com.<BR><BR><BR><BR><BR><BR><BR><BR><BR><BR><BR><BR><BR><BR><BR>
REDEM	U	2020/07/10	2020/07/24	3408175	3861910	US169905AE60		2020/08/07	USD	2000	O	P	BBRD		49.58			100	2.479		2020/07/09	2020/08/05	00:00	EST				F					(As on 23/07/20)<BR>CHOICE HOTELS ANNOUNCES EARLY TENDER RESULTS AND INCREASE IN AGGREGATE MAXIMUM TENDER AMOUNT OF TENDER OFFER FOR ITS OUTSTANDING 5.750% SENIOR NOTES DUE 2022<BR>ROCKVILLE, Md. (July 23, 2020)   Choice Hotels International, Inc. (NYSE: CHH) (the  Company ) announced today the early tender results for its previously announced tender offer (the  Tender Offer ) to purchase for cash up to an aggregate principal amount of USD180,000,000 of its 5.750% Senior Notes due 2022 (the  Notes ). Additionally, the Company announced today that it has amended the Tender Offer by increasing the aggregate maximum tender amount from USD180,000,000 to USD183,429,000 (as amended, the  Aggregate Maximum Tender Amount ).<BR><BR>Title of             CUSIP               Principal Amount       U.S. Treasury        Reference       Fixed        Early Tender       Principal Amount<BR>Note                Number                 Outstanding            Reference              Yield                Spread    Premium            Tendered at<BR>                                                                                           Security                                                              (per USD          Early Tender time <BR>                                                                                                                                                                       1,000)<BR><BR><BR>5.750%                                                                         0.125%<BR>Senior       169905AE6        USD400,000,000       UST due                   0.151%        +165 bps    USD50                USD183,429,000<BR>Notes                                                                           06/30/2022<BR>due<BR>2022<BR><BR>The terms and conditions of the Tender Offer are set forth in the offer to purchase, dated July 9, 2020, as amended by this press release (as the same may be amended or supplemented, the  Offer to Purchase ). The Tender Offer will expire at 12:00 midnight, New York City Time, at the end of August 5, 2020, unless earlier terminated.<BR><BR>As of 5:00 p.m., New York City Time, on July 22, 2020 (such date and time, the  Early Tender Time ), according to information provided by D.F. King & Co., Inc., the tender and information agent for the Tender Offer, the aggregate principal amount of the Notes set forth in the table above under  Principal Amount Tendered at Early Tender Time  had been validly tendered and not validly withdrawn in the Tender Offer. Withdrawal rights for the Notes expiredat 5:00 p.m., New York City Time, on July 22, 2020.<BR><BR>The  Total Consideration  for each USD1,000 principal amount of Notes validly tendered and accepted for purchase pursuant to the Tender Offer will be determined in the manner described in the Offer to Purchase by reference to the fixed spread for the Notes specified in the table above plus the yield based on the bid-side price of the U.S. Treasury Reference Security specified in the table above at 10:00 a.m., New York City Time, today, and is inclusive of the Early Tender Premium as set forth in the table above.<BR><BR>The Company expects to announce the pricing of the Tender Offer and the amount of Notes accepted for purchase later today.<BR><BR>(As on 23/07/20)<BR>CHOICE HOTELS ANNOUNCES PRICING OF ITS TENDER OFFER FOR UP TO USD183,429,000 OF ITS OUTSTANDING 5.7o50% SENIOR NOTES DUE 2022<BR><BR>ROCKVILLE, Md. (July 23, 2020)   Choice Hotels International, Inc. (NYSE: CHH) (the  Company ) announced today the consideration payable in connection with its previously announced tender offer (the  Tender Offer ) to purchase for cash up to an aggregate principal amount of USD183,429,000 (the  Aggregate Maximum Tender Amount ) of its 5.750% Senior Notes due 2022 (the  Notes ), as described in the table below.<BR><BR>Title of             CUSIP               Principal Amount       U.S. Treasury        Reference       Fixed        Early Tender       Total<BR>Note                Number                 Outstanding            Reference              Yield                Spread    Premium            Consideration<BR>                                                                                           Security                                                              (per USD          (per USD1,000)<BR>                                                                                                                                                                       1,000)<BR><BR><BR>5.750%                                                                         0.125%<BR>Senior       169905AE6        USD400,000,000       UST due                   0.151%        +165 bps    USD50                USD1,074.79<BR>Notes                                                                           06/30/2022<BR>due<BR>2022<BR><BR>The Tender Offer was made on the terms and conditions set forth in the offer to purchase, dated July 9, 2020, (as amended and as may be further amended or supplemented, the  Offer to Purchase ). The Tender Offer will expire at 12:00 midnight, New York City Time, at the end of August 5, 2020, unless earlier terminated.<BR><BR>The  Total Consideration  for each USD1,000 principal amount of Notes validly tendered and accepted for purchase pursuant to the Tender Offer was determined in the manner described in the Offer to Purchase by reference to the fixed spread for the Notes specified in the table above plus the yield based on the bid-side price of the U.S. Treasury Reference Security specified in the table above at 10:00 a.m., New York City Time, today, and is inclusive of the Early Tender Premium set forth in the table above.<BR><BR>Only holders of Notes who validly tendered and did not validly withdraw their Notes at or prior to 5:00 p.m., New York City Time, on July 22, 2020 (such date and time, the  Early Tender Time ) are eligible to receive the Total Consideration for the Notes accepted for purchase. Holders of Notes will also receive accrued and unpaid interest on their Notes validly tendered and accepted for purchase from the last interest payment date up to, but not including, the settlement date. Withdrawal rights for the Notes expired at 5:00 p.m., New York City Time, on July 22, 2020. On July 24, 2020, the Company expects to pay for the Notes that were validly tendered prior to or at the Early Tender Time and that are accepted for purchase.<BR><BR>Since the Tender Offer for the Notes was fully subscribed as of the Early Tender Time, the Company will not accept for purchase any Notes validly tendered after the Early Tender Time. Because the aggregate principal amount of the Notes validly tendered and not validly withdrawn prior to the Early Tender Time does not exceed the Aggregate Maximum Tender Amount, the Company has accepted for purchase all such tendered Notes.<BR><BR>(As on 09/07/20)<BR>CHOICE HOTELS ANNOUNCES TENDER OFFER FOR UP TO USD160,000,000 OF ITS OUTSTANDING 5.750% SENIOR NOTES DUE 2022 ROCKVILLE, Md. (July 9, 2020) - Choice Hotels International, Inc. (NYSE: CHH) (the `Company`) announced today that it has commenced a tender offer (the `Tender Offer`) to purchase for cash up to an aggregate principal amount of USD160,000,000 (the `Aggregate Maximum Tender Amount`) of its 5.750% Senior Notes due 2022 (the `Notes`). The following table sets forth some of the terms of the Tender Offer. <BR><BR>Title of          CUSIP          Principal Amount       Aggregate              U.S.                      Bloomberg       Fixed              Early Tender<BR>Note            Number         Outstanding               Maximum               Treasury               Reference        Spread           Premium<BR>                                                                                  Tender                   Reference            Page                                          (per USD1,000)<BR>                                                                                  Amount                   Security<BR>5.750%                                                                                                   <BR>Senior                                                                                                     0.125% UST<BR>Notes       169905AE6   USD400,000,000   USD160,000,000    due 6/30/2022       FIT1                +165 bps            USD50<BR>due 2022<BR><BR>The Tender Offer consists of an offer to purchase the Notes for cash, on the terms and conditions set forth in the offer to purchase, dated July 9, 2020 (as the same may be amended or supplemented, the `Offer to Purchase`). Subject to the Aggregate Maximum Tender Amount, proration (if applicable) and the satisfaction or waiver of the conditions to the Tender Offer, including a financing condition, the Company will accept for purchase on the Early Settlement Date or the Final Settlement Date (each as defined in the Offer to Purchase), as applicable, Notes validly tendered in the Tender Offer.<BR><BR>Notes validly tendered at or prior to the Early Tender Time (as defined below) will be accepted for purchase in priority to other Notes validly tendered after the Early Tender Time. Accordingly, if the Aggregate Maximum Tender Amount is reached in respect of tenders of Notes made at or prior to the Early Tender Time, no Notes that are tendered after the Early Tender Time will be accepted for purchase unless the Aggregate Maximum Tender Amount is increased by the Company, in its sole discretion. If the aggregate principal amount of Notes validly tendered exceeds the Aggregate Maximum Tender Amount on the applicable settlement date, the amount of Notes purchased in the Tender Offer will be prorated as set forth in the Offer to Purchase.<BR><BR>The Tender Offer will expire at 12:00 midnight, New York City Time, at the end of August 5, 2020, or any other date and time to which the Company extends the Tender Offer (such time and date, as it may be extended, the `Expiration Time`), unless the Tender Offer is earlier terminated. Holders of the Notes must validly tender and not validly withdraw the Notes prior to or at 5:00 p.m., New York City Time, on July 22, 2020 (such date and time, as it may be extended, the `Early Tender Time`), to be eligible to receive the Total Consideration, which is inclusive of an amount in cash equal to the amount set forth in the table above under the heading `Early Tender Premium` (the `Early Tender Premium`), plus Accrued Interest (as defined below). Holders of Notes who validly tender their Notes after the Early Tender Time but prior to or at the Expiration Time will be eligible to receive an amount equal to the Total Consideration minus the Early Tender Premium, plus Accrued Interest.<BR><BR>The Notes may be validly withdrawn at any time prior to, but not after, 5:00 p.m., New York City Time, on July 22, 2020, (such date and time, as it may be extended, the `Withdrawal Deadline`).<BR><BR>The `Total Consideration` for each USD1,000 principal amount of Notes validly tendered and accepted for purchase pursuant to the Tender Offer will be determined in the manner described in the Offer to Purchase by reference to the fixed spread for the Notes specified in the table above plus the yield based on the bid-side price of the U.S. Treasury Reference Security specified in the table above at 10:00 a.m., New York City Time, on July 23, 2020, unless extended or the Tender Offer is earlier terminated. Holders of the Notes will also receive accrued and unpaid interest on their Notes validly tendered and accepted for purchase from the last interest payment date up to, but not including, the applicable settlement date (`Accrued Interest`).<BR><BR>Payment for Notes that are validly tendered prior to or at the Early Tender Time and that are accepted for purchase will be made on the Early Settlement Date, which will be a date promptly following the Early Tender Time. It is currently anticipated that the Early Settlement Date will be July 24, 2020, subject to all conditions to the Tender Offer having been satisfied or waived by the Company. Payment for Notes that are validly tendered after the Early Tender Time and prior to or at the Expiration Time and that are accepted for purchase will be made on the Final Settlement Date, which will be a date promptly following the Expiration Time. It is currently anticipated that the Final Settlement Date, if applicable, will be August 7, 2020, subject to all conditions to the Tender Offer having been satisfied or waived by the Company.<BR><BR>The Tender Offer is subject to the satisfaction or waiver of certain conditions, including a financing condition, as more fully set forth in the Offer to Purchase. The Tender Offer is not subject to a minimum tender condition.<BR><BR>Information Relating to the Tender Offer<BR><BR>The Offer to Purchase is being distributed to holders beginning today. Wells Fargo Securities, LLC, J.P. Morgan Securities LLC and Goldman Sachs & Co. LLC are serving as the dealer managers for the Tender Offer. Investors with questions regarding the Tender Offer may contact Wells Fargo Securities, LLC at (704) 410-4759 (collect) or (866) 309-6316 (toll-free) or liabilitymanagement@wellsfargo.com, J.P. Morgan Securities LLC at (212) 834-2042 (collect) or (800) 834-4666 (toll-free) or Goldman Sachs & Co. LLC at (212) 357-1452 (collect) or (800) 828-3182 (toll-free).<BR><BR>None of the Company or its affiliates, their respective boards of directors, the dealer managers, the tender and information agent or the trustee with respect to the Notes is making any recommendation as to whether holders should tender any Notes in response to the Tender Offer, and neither the Company nor any such other person has authorized any person to make any such recommendation. Holders must make their own decision as to whether to tender any of their Notes, and, if so, the principal amount of Notes to tender.<BR><BR>This press release is for informational purposes only and is not an offer to buy, or the solicitation of an offer to sell, any of the Notes and the Tender Offer does not constitute an offer to buy or the solicitation of an offer to sell the Notes in any jurisdiction or in any circumstances in which such offer or solicitation are unlawful. The full details of the Tender Offer, including complete instructions on how to tender the Notes, are included in the Offer to Purchase. Holders are strongly encouraged to carefully read the Offer to Purchase, including materials incorporated by reference therein, because they will contain important information. The Offer to Purchase may be obtained from D.F. King & Co., Inc., free of charge, by calling (212) 269-5550 (collect, for banks and brokers) or (800) 967-5550 (toll-free, for all others), or by email to chh@dfking.com.<BR><BR><BR><BR><BR><BR><BR><BR><BR><BR><BR><BR><BR><BR><BR>
REDEM	U	2020/01/07	2020/07/24	3197904	5107742	US74348TAR32		2020/01/27	USD	1000	O	P	BB	1.302	22.5			100	2.25		2019/12/23	2020/01/23	00:00	EST				F					(As on 24/07/20)<BR><BR>The Tender Offers expired at 12:00 midnight, New York City time, on January 23, 2020 (one minute after 11:59 p.m., New York City time, on January 22, 2020). As of the expiration of the Tender Offers, (i) USD2,215,000 aggregate principal amount of the 2020 Notes, representing approximately 1.27% of the outstanding 2020 Notes, and (ii) USD1,302,000 aggregate principal amount of the 2022 Notes, representing approximately 0.45% of the outstanding 2022 Notes, were validly tendered and not validly withdrawn pursuant to the Tender Offers. The Company has accepted for purchase all 2020 Notes that were validly tendered and not validly withdrawn pursuant to the applicable Tender Offer at the expiration of such Tender Offer at the applicable Purchase Price (plus accrued and unpaid interest on such 2020 Notes, if any, from October 15, 2019, up to but not including the Settlement Date). The Company has accepted for purchase all 2022 Notes that were validly tendered and not validly withdrawn pursuant to the applicable Tender Offer at the expiration of such Tender Offer at the applicable Purchase Price (plus accrued and unpaid interest on such 2022 Notes, if any, from January 15, 2020, up to but not including the Settlement Date). Following settlement of the Tender Offers, (i) approximately USD172,822,000 aggregate principal amount of the 2020 Notes will remain outstanding, and (ii) approximately USD290,825,000 aggregate principal amount of the 2022 Notes will remain outstanding.<BR><BR>-------------------<BR>(As on 06/01/20)<BR><BR>This Amendment No. 1 (this  Amendment No. 1 ) amends and supplements the Tender Offer Statement on Schedule TO filed with the Securities and Exchange Commission (the  SEC ) by Prospect Capital Corporation, a Maryland corporation (the  Company ), on December 23, 2019 (the  Schedule TO ), relating to two separate offers by the Company (each a  Tender Offer  and collectively, the  Tender Offers ) to purchase (i) up to USD10,000,000 aggregate principal amount of outstanding 4.75% Senior Convertible Notes due 2020 (the  2020 Notes ), and (ii) up to USD25,000,000 aggregate principal amount of outstanding 4.95% Senior Convertible Notes due 2022 (the  2022 Notes ). The Tender Offers were made upon the terms and subject to the conditions set forth in the Offer to Purchase, dated December 23, 2019 (the  Offer to Purchase ).<BR><BR>Except as set forth in this Amendment No. 1, the terms of the Tender Offers remain the same as set forth in the Offer to Purchase. Capitalized terms used herein and not otherwise defined have the meanings ascribed to such terms in the Offer to Purchase or the Schedule TO. This Amendment No. 1 should be read together with the Schedule TO, the Offer to Purchase and the Retail Processing Fee Form, which are expressly incorporated by reference in this Amendment No. 1 in response to all applicable items required in the Schedule TO, except that such information is hereby amended and supplemented to the extent specifically provided herein.<BR><BR>The Company is extending the Expiration Date and Withdrawal Deadline of each Tender Offer. Throughout the Schedule TO, the Offer to Purchase and the Retail Processing Fee Form, all references to Expiration Date and Withdrawal Deadline are hereby amended to 12:00 midnight, New York City time, on January 23, 2020 (one minute after 11:59 P.M., New York City time, on January 22, 2020).<BR><BR>The Tender Offers will each expire at 12:00 midnight, New York City time, on January 23, 2020 (one minute after 11:59 p.m., New York City time, on January 22, 2020), or any other date and time to which the Company extends the applicable Tender Offer, unless earlier terminated, in the Company s sole discretion. Tendered Notes may be validly withdrawn from the applicable Tender Offer at or prior to 12:00 midnight, New York City time, on January 23, 2020 (one minute after 11:59 p.m., New York City time, on January 22, 2020), unless extended or earlier terminated by the Company. Thereafter, tenders are irrevocable except that Notes not yet accepted for purchase may be withdrawn at any time after February 20, 2020 (40 business days after the commencement of the Tender Offers).<BR><BR>The Settlement Date has been extended accordingly and is expected to be January 27, 2020.<BR><BR>-----------------------<BR>(As on 23/12/19)<BR>Prospect Capital Corporation<BR>Offer to Purchase for Cash<BR>up to USD10.0 Million Aggregate Principal Amount of its Outstanding<BR>4.75% Senior Convertible Notes Due 2020<BR>(CUSIP No. 74348TAQ5)<BR>and<BR>up to USD25.0 Million Aggregate Principal Amount of its Outstanding<BR>4.95% Senior Convertible Notes Due 2022<BR>(CUSIP No. 74348TAR3)<BR><BR>The Tender Offers (as defined herein) will each expire at 12:00 midnight, New York City time, on January 21, 2020 (one minute after 11:59 p.m., New York City time, on January 20, 2020), or any other date and time to which the Company (as defined herein) extends the applicable Tender Offer (such date and time, as it may be extended, the  Expiration Date ), unless earlier terminated, in the Company s sole discretion. You must validly tender your Notes (as defined herein) at or prior to the applicable Expiration Date to be eligible to receive the applicable Purchase Price (as defined herein) for such Notes. The Purchase Price will be payable in cash. Tendered Notes may be validly withdrawn from the applicable Tender Offer at or prior to 12:00 midnight, New York City time, on January 21, 2020 (one minute after 11:59 p.m., New York City time, on January 20, 2020), unless extended or earlier terminated by the Company. The Tender Offers are subject to the satisfaction or waiver of certain conditions as set forth under the heading  The Tender Offers Conditions to the Tender Offers. <BR><BR>Upon the terms and subject to the conditions described in this Offer to Purchase (as it may be amended or supplemented from time to time, the  Offer to Purchase ), Prospect Capital Corporation, a Maryland corporation (the  Company,   we,   us,  or  our ), hereby offers (i) to purchase up to USD10,000,000 of its outstanding 4.75% Senior Convertible Notes due 2020 (the  2020 Notes ), and (ii) to purchase up to USD25,000,000 of its outstanding 4.95% Senior Convertible Notes due 2022 (the  2022 Notes  and together with the 2020 Notes, the  Notes ). The Company refers to the offers to purchase the Notes together as the  Tender Offers  and each individual offer as a  Tender Offer.  The Tender Offers are open to all registered holders (individually, a  Holder  and, collectively, the  Holders ) of the Notes. Holders of Notes validly tendered (and not validly withdrawn) prior to the Expiration Date and accepted for purchase pursuant to the Tender Offers will receive the applicable purchase price set forth in the table below (the  Purchase Price ). In addition to the Purchase Price, all Holders of Notes accepted for purchase pursuant to the Tender Offers will also receive accrued and unpaid interest, if any, on those Notes from the last interest payment date with respect to those Notes to, but not including, the Settlement Date (the  Accrued Interest ). Each Tender Offer is a<BR>separate offer, and each Tender Offer may, subject to applicable law, be individually amended, extended, terminated or withdrawn without amending, extending, terminating or withdrawing the other Tender Offer.<BR><BR>Title of Security                            CUSIP / ISIN Nos.           Outstanding Principal           Aggregate Principal                    Purchase Price(1)(2)<BR>                                                                                                              Amount                              Amount Sought <BR>4.75% Senior Convertible            74348TAQ5 /<BR>Notes due 2020                        US74348TAQ58                     USD175,037,000                     USD10,000,000                           USD1,003.00<BR><BR>4.95% Senior Convertible             74348TAR3 /<BR>Notes due 2022                        US74348TAR32                     USD292,127,000                       USD25,000,000                          USD1,022.50<BR><BR>(1) Per usd1,000 principal amount of 2020 Notes and 2022 Notes tendered and accepted for purchase, as applicable.<BR>(2) In addition to the applicable Purchase Price, Holders of Notes that are validly tendered and accepted in each Tender Offer will receive the applicable Accrued Interest.<BR><BR>The Tender Offers are subject to the satisfaction or waiver, in the Company s sole discretion, of certain conditions as described herein. See  The Tender Offers Conditions to the Tender Offers.  The Tender Offers are not conditioned upon a minimum amount of Notes being tendered. Notes tendered but not purchased in the Tender Offers will be credited to the accounts of the tendering Holders promptly after the expiration of the applicable Tender Offer. See  The Tender Offers Proration.  The purpose of the Tender Offers is to reduce the respective principal amounts of outstanding 2020 Notes and 2022 Notes, which mature on April 15, 2020 (the  2020 Maturity Date ) and<BR>July 15, 2022 (the  2022 Maturity Date ), respectively. This Offer to Purchase contains important information that should be read before any decision is made with respect to the Tender Offers. In particular, see  Certain Considerations  beginning on page 27 for a discussion of certain factors you should consider in connection with the Tender Offers.<BR><BR>Any questions or requests for assistance in connection with the Tender Offers may be directed to D.F. King & Co., Inc. (the  Information and Tender Agent ) at the telephone numbers and e-mail addresses provided on the back cover page of this Offer to Purchase. Beneficial owners may contact their broker, dealer, commercial bank, trust company, custodian or other nominee for assistance regarding the Tender Offers.<BR><BR>NONE OF THE COMPANY, ITS BOARD OF DIRECTORS, ITS OFFICERS, THE INFORMATION AND TENDER AGENT OR THE TRUSTEES (AS DEFINED HEREIN), OR ANY OF THEIR RESPECTIVE AFFILIATES, IS MAKING ANY RECOMMENDATION AS TO WHETHER HOLDERS SHOULD TENDER ANY NOTES IN RESPONSE TO THE TENDER OFFERS. HOLDERS MUST MAKE THEIR OWN DECISION AS TO WHETHER TO PARTICIPATE IN THE TENDER OFFERS AND, IF SO, THE PRINCIPAL AMOUNT OF NOTES TO TENDER.<BR><BR>NEITHER THE U.S. SECURITIES AND EXCHANGE COMMISSION (THE  SEC ), ANY U.S. STATE SECURITIES COMMISSION NOR ANY REGULATORY AUTHORITY OF ANY OTHER COUNTRY HAS APPROVED OR DISAPPROVED OF THE TENDER OFFERS, PASSED UPON THE MERITS OR FAIRNESS OF THE TENDER OFFERS OR PASSED UPON THE ADEQUACY OR ACCURACY OF THE DISCLOSURE IN THIS OFFER TO PURCHASE. ANY REPRESENTATION TO THE CONTRARY IS A CRIMINAL OFFENSE.<BR><BR>Offer to Purchase dated December 23, 2019<BR><BR>Date                                                                             Calendar Date and Time<BR><BR>Commencement Date :       December 23, 2019<BR><BR>Expiration Date  : 12:00 midnight, New York City time, on January 21, 2020 (one minute after 11:59 p.m., New York City time, on January 20, 2020), unless extended or earlier terminated by the Company.<BR><BR>Withdrawal Deadline : 12:00 midnight, New York City time, on January 21, 2020 (one minute after 11:59 p.m., New York City time, on January 20, 2020), unless extended or earlier terminated by the Company.<BR><BR>Settlement Date T+3 : Expected January 24, 2020<BR><BR><BR><BR>
REDEM	I	2020/07/24	2020/07/24	3422870	5107742	US74348TAR32		2020/08/24	USD	1000	O	P	BB					100			2020/07/23	2020/08/20	00:00	EST				F					(As on 23/07/2020)<BR><BR>Prospect Capital Corporation<BR>up to USD100.0 Million Aggregate Principal Amount of its Outstanding<BR>4.95% Senior Convertible Notes Due 2022<BR>(CUSIP No. 74348TAR3)<BR><BR>The Tender Offer (as defined herein) will expire at 12:00 midnight, New York City time, on August 20, 2020 (one minute after 11:59 p.m., New York City time, on August 19, 2020), or any other date and time to which the Company (as defined herein) extends the Tender Offer (such date and time, as it may be extended, the  Expiration Date ), unless earlier terminated, in the Company s sole discretion. You must validly tender your Notes (as defined herein) at or prior to the Expiration Date to be eligible to receive the Purchase Price (as defined herein) for such Notes. The Purchase Price will be payable in cash. Tendered Notes may be validly withdrawn from the Tender Offer at or prior to<BR>12:00 midnight, New York City time, on August 20, 2020 (one minute after 11:59 p.m., New York City time, on August 19, 2020), unless extended or earlier terminated by the Company. The Tender Offer is subject to the satisfaction or waiver of certain conditions as set forth under the heading  The Tender Offer Conditions to the Tender Offer.  <BR><BR>Upon the terms and subject to the conditions described in this Offer to Purchase (as it may be amended or supplemented from time to time, the  Offer to Purchase ), Prospect Capital Corporation, a Maryland corporation (the  Company,   we,   us,  or  our ), hereby offers to purchase up to USD100,000,000 of its outstanding 4.95% Senior Convertible Notes due 2022 (the  Notes ). The Company refers to the offer to purchase the Notes as the  Tender Offer.  The Tender Offer is open to all registered holders (individually, a  Holder  and, collectively, the  Holders ) of the Notes. Holders of Notes validly tendered (and not validly withdrawn) prior to the Expiration Date and accepted for purchase<BR>pursuant to the Tender Offer will receive the purchase price set forth in the table below (the  Purchase Price ). In addition to the Purchase Price, all Holders of Notes accepted for purchase pursuant to the Tender Offer will also receive accrued and unpaid interest, if any, on those Notes from the last interest payment date with respect to those Notes to, but not including, the Settlement Date (as defined herein) (the  Accrued Interest ). The Tender Offer may, subject to applicable law, be amended, extended, terminated or withdrawn.<BR><BR>Title of Security              CUSIP / ISIN Nos.          Outstanding        Aggregate Principal<BR>                                                                                     Principal              Amount Sought                 Purchase Price(1)(2)<BR>                                                                                      Amount <BR><BR>4.95% Senior <BR>Convertible                    74348TAR3 / <BR>Notes due 2022         US74348TAR32            USD258,240,000       USD100,000,000                 USD1,000.00<BR><BR>(1) Per USD1,000 principal amount of Notes tendered and accepted for purchase.<BR>(2) In addition to the Purchase Price, Holders of Notes that are validly tendered and accepted in the Tender Offer will receive the Accrued Interest.<BR><BR>The Tender Offer is subject to the satisfaction or waiver, in the Company s sole discretion, of certain conditions as described herein. See  The Tender Offer Conditions to the Tender Offer.  The Tender Offer is not conditioned upon a minimum amount of Notes being tendered. Notes tendered but not purchased in the Tender Offer will be credited to the accounts of the tendering Holders promptly after the expiration of the Tender Offer. See  The Tender Offer Proration.  The purpose of the Tender Offer is to reduce the principal amount of outstanding Notes, which matures on July 15, 2022 (the  Maturity Date ). This Offer to Purchase contains important information that should be read<BR>before any decision is made with respect to the Tender Offer. In particular, see  Certain Considerations  beginning on page 26 for a discussion of certain factors you should consider in connection with the Tender Offer.<BR>Any questions or requests for assistance in connection with the Tender Offer may be directed to D.F. King & Co., Inc. (the  Information and Tender Agent ) at the telephone numbers and e-mail addresses provided on the back cover page of this Offer to Purchase. Beneficial owners may contact their broker, dealer, commercial bank, trust company, custodian or other nominee for assistance regarding the Tender Offer.<BR><BR>EXPECTED TIMETABLE<BR><BR>Date                                          Calendar Date and Time <BR><BR>Commencement Date            July 23, 2020 <BR><BR>Expiration Date                    12:00 midnight, New York City time, on August 20, 2020 (one minute after 11:59 p.m., New York City time,<BR>                                                on August 19, 2020), unless extended or earlier terminated by the Company.<BR><BR>Withdrawal Deadline         12:00 midnight, New York City time, on August 20, 2020 (one minute after 11:59 p.m., New York City time, <BR>                                                 on August 19, 2020), unless extended or earlier terminated by the Company.<BR><BR>Settlement Date                  T+3 Expected August 24, 2020
EDI_ENDOFFILE
