EDI_BOND_20200724
Tablename	Actflag	Created	Changed	SecID	ISIN	BondType	DebtMarket	DebtCurrency	NominalValue	IssueDate	IssueCurrency	IssuePrice	IssueAmount	IssueAmountDate	OutstandingAmount	OutstandingAmountDate	InterestBasis	InterestRate	InterestAccrualConvention	InterestPaymentFrequency	IntCommencementDate	OddFirstCoupon	FirstCouponDate	OddLastCoupon	LastCouponDate	InterestPayDate1	InterestPayDate2	InterestPayDate3	InterestPayDate4	DomesticTaxRate	NonResidentTaxRate	FRNType	FRNIndexBenchmark	FrnMargin	FrnMinInterestRate	FrnMaxInterestRate	Rounding	Series	Class	OnTap	MaximumTapAmount	TapExpiryDate	Guaranteed	SecuredBy	SecurityCharge	Subordinate	SeniorJunior	WarrantAttached	MaturityStructure	Perpetual	MaturityDate	MaturityExtendible	Callable	Puttable	Denomination1	Denomination2	Denomination3	Denomination4	Denomination5	Denomination6	Denomination7	MinimumDenomination	DenominationMultiple	Strip	StripInterestNumber	Bondsrc	MaturityBenchmark	ConventionMethod	FrnInterestAdjFreq	InterestBusDayConv	InterestCurrency	MaturityBusDayConv	MaturityCurrency	TaxRules	VarInterestPaydate	PriceAsPercent	PayOutMode	Cumulative	MatPrice	MatPriceAsPercent	SinkingFund	GovCity	GovState	GovCntry	GovLaw	GovLawNotes	Municipal	PrivatePlacement	Syndicated	Tier	UppLow	Collateral	CoverPool	PikPay	YieldAtIssue	CoCoTrigger	CoCoAct	NonViability	Taxability	LatestApplicablePayDate	FirstAnnouncementDate	PerformanceBenchmarkISIN	InterestGraceDays	InterestGraceDayConvention	MatGraceDays	MatGraceDayConvention	Notes
BOND	U	2009/08/21	2020/07/24	1546389	US925387AC64	BD		USD	1000	2002/06/26	USD	1000	58.207	2002/06/26	58.207	2002/06/26	FXD	5.85	30360	SMA	2002/06/26	S	2002/11/01			0105	0111													F			F	N					R		2027/05/01		Y	N	1000							1000				SR					USD		USD		F	100			1000.00000000	100																											
BOND	U	2010/07/22	2020/07/24	2027765	US6174467P85	NT		USD		2010/07/26	USD	99492	1750	2010/07/26		2020/07/24	FXD	5.5	30360	SMA	2010/07/26		2011/01/24		2020/01/24	2401	2407													F			F	N		N	S		R		2020/07/24		N	N	100000							100000	1000			PS					USD		USD		F	99.492			100000.00000000	100																											Issue date: 28/12/2010<BR>Issue amount: USD 140,000,000.00<BR>Issue price: 99.944%
BOND	U	2012/06/27	2020/07/24	3861910	US169905AE60	NT		USD	2000	2012/06/27	USD	2000	400	2012/06/27	216.571	2020/07/24	FXD	5.75	30360	SMA	2012/06/27	L	2013/01/01		2022/01/01	0101	0107													T			T	N		N	S		R		2022/07/01		Y	N	2000							2000	1000			PR				FBD	USD	FBD	USD		F	100			2000.00000000	100	N																										
BOND	U	2014/03/24	2020/07/24	4227961	US17305EFB65	NT		USD		2013/08/08	USD	1000	925	2013/08/08		2020/07/24	FR		A360	MNT	2013/08/08	L	2013/09/24		2020/06/24							BASIC	USDLIBOR1M	0.42					2013-A4	F			T	Y	AB		S		R		2020/07/24		Y	N	1000							1000				PR				FBD	USD	FBD	USD		F	100			1000.00000000	100	N		New York	United States o		The laws of the State of New York will govern the notes and the indenture.			N																		
BOND	U	2014/06/30	2020/07/24	4298307	USN47479BD62	NT		USD		2011/03/01	USD						FR			ITM	2011/03/01		2020/07/24									BASIC								F			F						R		2020/07/24		N													SR					USD		USD		F					100	N																										
BOND	U	2015/05/05	2020/07/24	4503053	US74251VAL62	NT		USD	2000	2015/05/07	USD	2000	400	2015/05/07	400	2015/05/07	FXDFR		A360	QTR	2015/05/07	L	2015/11/15		2054/11/15	1502	1505	1508	1511			DC	USDLIBOR3M	3.044						F			T	N		Y	J		R		2055/05/15		Y	N	2000							2000	1000			PR				MFBD	USD	FBD	USD		F	100			2000.00000000	100	N		New York	United States o		The Junior Indenture and the Notes will be governed by and construed in accordance with the laws of the State of New York.														2020/08/15							Option to Defer Interest Payments<BR><BR>So long as no event of default with respect to the Notes has occurred and is continuing, we will have the right, at any time and from<BR>time to time, to defer the payment of interest on the Notes for one or more consecutive interest periods that together do not exceed five<BR>years as described in the section entitled `Description of the Notes Option to Defer Interest Payments` in this prospectus supplement.<BR>We may not defer interest beyond the maturity date, any earlier accelerated maturity date arising from an event of default or any other<BR>earlier redemption of the Notes. During an extension period, interest will continue to accrue on the Notes at the then-applicable annual<BR>interest rate described above and deferred interest on the Notes will bear additional interest at the then-applicable annual interest rate,<BR>compounded on each interest payment date, subject to applicable law. If we have paid all deferred interest (including compounded interest<BR>thereon) on the Notes, we can again defer interest payments on the Notes as described above.
BOND	U	2015/07/15	2020/07/24	4557299	US90327QCX51	BD		USD	150000	2015/07/17	USD	149928	400	2015/07/17	400	2015/07/17	FXD	2.45	30360	SMA	2015/07/17	L	2016/02/01		2020/02/01	0102	0108													F			F	N			S		R		2020/08/01		Y		150000							150000	1000			SR					USD		USD		F	99.952			150000.00000000	100																											
BOND	U	2015/07/27	2020/07/24	4566546	US38148X1422	NT		USD		2015/07/29	USD	10	11	2015/07/29		2020/07/24	ZC																							F			F	N			S		R		2020/07/24		Y	N	10							1000	10			PS	DJ ES 50					FBD	USD		F	100																															
BOND	U	2016/03/31	2020/07/24	4740759	USG91703AK72	BD		USD	1000	2016/04/05	USD	997.79	2000	2016/04/05	2000	2016/04/05	FXD	4.125	30E/360	SMA	2016/04/05	L	2016/10/15		2025/10/15	1504	1510													F			F	N			S		R		2026/04/15		N		1000							200000	1000			SR					USD		USD		F	99.779			1000.00000000	100																											
BOND	U	2016/03/31	2017/02/06	4740818	US780097BA81	NT		USD	200000.00000	2016/04/05	USD	199638.00000	1500.00000	2016/04/05	1500.00000	2016/04/05	FXD	4.80000	30360	SMA	2016/04/05		2016/10/05		2025/10/05	0504	0510													T			T	N		N	S		R		2026/04/05		N	N	200000.000000							200000.000000	1000			PR		ISDA		FBD	USD	FBD	USD		F	99.819000000			200000.00000000	100.000000000			New York	United States of America														BAOC				US912828P469	14	CD	14	CD	
BOND	U	2019/02/20	2020/07/24	5855197	US14913Q2U23	NT		USD	1000	2019/02/26	USD	1000	750	2019/02/26	750	2019/02/26	FR		A360	QTR	2019/02/26		2019/05/26		2020/05/26	2602	2605	2608	2611			BASIC		0.25						F			F	N			S		R		2020/08/26		N	N	1000							1000	1000			PS					USD		USD		F	100			1000.00000000	100																				2020/08/26							
BOND	U	2016/06/13	2020/07/24	4801273	US095538AA25	NT		USD	250000	2016/06/16	USD		130	2016/06/16	130	2016/06/16	FR		A360	SMA	2016/06/16	S	2016/09/15									BASIC	TB3M	14						F			F	N					R		2022/06/22				250000											SR					USD		USD		F				250000.00000000	100																											
BOND	U	2016/06/30	2020/07/03	4818849	US22548Q7H29	MTN		USD		2016/07/07	USD						ZC		30360																					F			F	N			S		R		2020/07/03															SR							USD		F																																
BOND	U	2016/06/30	2020/07/03	4818861	US22548Q7J84	MTN		USD		2016/07/06	USD		0.442	2016/07/06		2020/07/03	ZC		30360																					F			F	Y			S		R		2020/07/03															SR							USD		F					100																											
BOND	U	2016/07/22	2020/07/24	4840495	US40054KFC53	NT		USD		2016/07/26	USD	1000	17.895	2016/07/26		2020/07/24	ZC																							F			T	N			S		R		2020/07/24		N	N	1000							1000	1000			PR	BSI					FBD	USD		F	100																															Basket of Indices                                                     <BR>GS Momentum Builder   Multi-Asset 5S ER Index
BOND	U	2016/08/11	2016/08/16	4862476	US780097BB64	NT		USD	200000.00000	2016/08/15	USD	200000.00000	2650.00000	2016/08/15	2650.00000	2016/08/15	FXDFR	8.62500	30360	QTR	2016/08/15	S	2016/09/30			3103	3006	3009	3112			BASIC	USDSWR5Y	7.59800						T			T	N		Y			R	P			Y	N	200000.000000							200000.000000	1000			PR				FBD	USD	FBD	USD		F	100.000000000			200000.00000000	100.000000000		New York	New York	United States of America		The Contingent Capital Notes and the Indenture will be governed by, and construed in accordance with the laws of New York and the Trust Indenture Act, except that the subordination provisions and the waiver of the right to set-off by the holders of the Contingent Capital Notes and by the Trustee acting on behalf of the holders with respect to the Contingent Capital Notes will be governed by, and construed in accordance with the laws of Scotland.				1						CR	CONV	BLCO									
BOND	U	2016/09/07	2020/07/24	4893503	US830505AT07	BD		USD	1000	2016/09/13	USD	995.73	1000	2016/09/13	1000	2016/09/13	FXD	1.875	30360	SMA	2016/09/13		2017/03/13		2021/03/13	1303	1309													F			F	N			S		R		2021/09/13		N		1000							250000	1000			SR					USD		USD		F	99.573			1000.00000000	100	N														1.965												
BOND	U	2016/09/22	2020/07/24	4909690	USBL13555200	BD		USD			USD						ZC																							F			F						R		2020/07/24															SR							USD		F																																
BOND	U	2016/10/25	2020/07/24	4944033	US771196BL53	NT		USD	200000	2016/10/31	USD		850	2016/10/31	850	2016/10/31	FXD	2.375	30360	SMA	2016/10/31	L	2017/07/28		2026/07/28	2801	2807													F			F						R		2027/01/28		Y		200000											SR					USD		USD		F				200000.00000000	100																											
BOND	U	2017/02/01	2020/07/24	5035503	US20451PBH82	CD		USD		2013/07/24	USD						FXD	2.3	A365	SMA	2013/07/24		2014/01/24		2020/01/24	2401	2407													F			F						R		2020/07/24		N													SR				FBD	USD	FBD	USD		F					100																											
BOND	U	2017/02/02	2020/07/24	5036551	US17284CJD74	CD		USD		2013/07/24	USD						FXD	2.5	A365	SMA	2013/07/24		2014/01/24		2020/01/24	2401	2407													F			F						R		2020/07/24		N	N												SR					USD		USD		F					100																											
BOND	U	2017/01/27	2020/07/24	5032414	XS1533921299	NT		USD	200000	2017/02/02	USD	200000	600	2017/02/02	520.259	2020/07/24	FXD	5.125	30360	SMA	2017/02/02		2017/08/02		2021/08/02	0202	0208													F			T	N			S		R		2022/02/02		N	N	200000							200000				TS					USD		USD		F	100			200000.00000000	100					English										5.125							US912828V723					
BOND	U	2017/02/09	2020/07/24	5043800	US38147JJK97	CD		USD		2013/07/24	USD						FXD	2.45	A365	SMA	2013/07/24		2014/01/24		2020/01/24	2401	2407													F			F						R		2020/07/24		N													SR				FBD	USD	FBD	USD		F					100																											
BOND	U	2017/04/07	2020/07/24	5107742	US74348TAR32	NT		USD	1000	2017/04/11	USD	980	225	2017/04/11	258.24	2020/07/23	FXD	4.95	30360	SMA	2017/04/11	S	2017/07/15		2022/01/15	1501	1507													F			F	N			S		V		2022/07/15		Y	N	1000							1000	1000			PR					USD		USD		F	98			1000.00000000	100			New York	USA											4.95								30	CD			The Notes will be convertible into shares of Prospect`s common stock based on an initial conversion rate of 100.2305 shares of Prospect`s common stock per USD1,000 principal amount of Notes, which is equivalent to an initial conversion price of approximately USD9.98 per share of common stock,<BR><BR>Issue date - 18/05/2018<BR>Issue price - 98.4%<BR>Issue amount - 103.5mln
BOND	U	2017/05/05	2020/07/24	5133572	US037833CP38	NT		USD	2000	2017/05/11	USD	2000	750	2017/05/11	750	2017/05/11	FR		A360	QTR	2017/05/11		2017/08/11		2022/02/11	1102	1105	1108	1111	26		BASIC	USDLIBOR3M	0.35						F			T	N			S		R		2022/05/11		N	N	2000							2000	1000			PR				MFBD	USD	FBD	USD		F	100			2000.00000000	100			New York	USA		The indenture and the debt securities will be governed by, and construed in accordance with, the laws of the State of New York.														2020/08/11							
BOND	U	2017/05/11	2020/05/11	5137989	US780097BE04	NT		USD	200000	2017/05/15	USD	200000	1500	2017/05/15	1500	2017/05/15	FXDFR	3.498	30360	SMA	2017/05/15		2017/11/15		2023/02/15	1505	1511					BASIC	USDLIBOR3M	1.48						F			T	N		N	S		R		2023/05/15		Y	N	200000							200000	1000			PR				FBD	USD	FBD	USD		F	100			200000.00000000	100		New York	New York	USA		The Indenture and the Senior Notes are governed by, and construed in accordance with, the laws of the State of New York.									3.498			BLCO		2020/05/15		US912828X471	14	CD	7	CD	
BOND	U	2017/05/11	2019/05/28	5137992	US780097BF78	NT		USD	200000	2017/05/15	USD	200000	1500	2017/05/15	1500	2017/05/15	FR		A360	QTR	2017/05/15		2017/08/15		2023/02/15	1502	1505	1508	1511			BASIC	USDLIBOR3M	1.47						T			T	N		N	S		R		2023/05/15		Y	N	200000							200000	1000			PR				MFBD	USD	FBD	USD		F	100			200000.00000000	100			New York	USA		The Indenture and the Senior Notes are governed by, and construed in accordance with, the laws of the<BR>State of New York.												BLCO		2019/08/15			14	CD	7	CD	
BOND	U	2017/07/03	2020/07/03	5191569	US40054LGS79	MTN		USD		2017/07/06	USD		1.405	2017/07/06		2020/07/03	ZC																							F			F	N			S		R		2020/07/03															SR							USD		F	100																															
BOND	U	2017/07/24	2020/07/24	5214769	US61766X3769	NT		USD		2017/07/26	USD		6	2017/07/26		2020/07/24	ZC		30360																					F			F	N			S		R		2020/07/24															SR							USD		F					100																											
BOND	U	2017/07/24	2020/07/24	5214898	US36253M4143	NT		USD		2017/07/26	USD						FR		30360	QTR	2017/07/26		2017/10/26		2020/04/26	2601	2604	2607	2610											F			F						R		2020/07/24															SR					USD		USD		F					100																											
BOND	U	2017/07/24	2020/07/24	5214912	US36253M4226	NT		USD		2017/07/26	USD		12.775	2017/07/26		2020/07/24	FR		30360	QTR	2017/07/26		2017/10/25		2020/04/25	2501	2504	2507	2510											F			F	N			S		R		2020/07/24															SR					USD		USD		F	100				100																											
BOND	U	2017/07/24	2020/07/24	5214978	US064159JW73	NT		USD	1000	2017/07/24	USD	1000	10	2017/07/24	10	2017/07/24	FR		30360	QTR	2017/07/24		2017/10/24		2024/04/24	2401	2404	2407	2410			COLLAR	USDLIBOR3M	1		3.5		A		F			T	N		N	S		R		2024/07/24		N	N	1000							1000	1000			PS				FBD	USD	FBD	USD		F	100			1000.00000000	100																											
BOND	U	2017/09/16	2020/07/24	5270950	US83368WM992	SP		USD		2015/04/24	USD	1000																												F			T	N			S				2020/07/24		N	N	1000											PS									F	100																															
BOND	U	2017/12/28	2020/07/03	5374850	US22550BRC99	MTN		USD		2018/01/03	USD						FR		30360	QTR	2018/01/03		2018/04/03			0301	0304	0307	0310			BASIC								F			F				S		R		2020/07/03															SR					USD		USD		F					100																											
BOND	U	2018/01/22	2020/07/24	5403499	US22549E2422	NT		USD		2018/01/24	USD	10	2.4514	2018/01/24		2020/07/24	FR		30360	QTR	2018/01/24		2018/04/24		2020/04/24	2401	2404	2407	2410			BASIC								F			F						R		2020/07/24				10							1000	10			SR					USD		USD		F	100			10.00000000	100																											
BOND	U	2018/04/10	2020/07/24	5495206	US59217GCP28	MTN		USD			USD		250		250		FXD	3.85																						F			F	N			S		R		2028/04/06															SR					USD		USD		F					100																											
BOND	U	2018/11/02	2020/07/24	5735590	US025816BZ17	NT		USD	2000	2018/11/06	USD	2000	1000	2018/11/06	1000	2018/11/06	FR		A360	QTR	2018/11/06		2019/02/05		2021/08/05	0502	0505	0508	0511			BASIC	USDLIBOR3M	0.6						T			T	N			S		R		2021/11/05		Y	N	2000							2000	1000			PR				MFBD	USD	FBD	USD		F	100			2000.00000000	100	N		New York	USA		The notes and the senior debt indenture dated as of August 1, 2007 will be governed by and construed in accordance with the laws of the State of New York. Actions relating to the notes and indenture may be brought in the state or federal courts in New York.														2020/08/05			30	CD			
BOND	U	2018/11/08	2020/07/24	5740996	US928668AP71	BD		USD		2018/11/13	USD		1500	2018/11/13	1500	2018/11/13	FXD	4	30360	SMA	2018/11/13		2019/05/12		2021/05/12	1205	1211													F			F	N			S		R		2021/11/12		Y													SR					USD		USD		F					100	N																										
BOND	U	2018/11/09	2020/07/24	5743289	US86565BJU61	CD		USD		2018/07/30	USD		425	2018/07/30		2020/07/24	FR		A360	QTR	2018/07/30		2018/10/30		2020/04/30	3001	3004	3007	3010											F			F						R		2020/07/24		N	N												SR					USD		USD		F					100																											
BOND	U	2017/11/09	2020/07/24	5325005	XS1716970345	NT		USD	1000	2017/11/15	USD	999.4	700	2017/11/15	700	2017/11/15	FXD	3.125	30360	SMA	2017/11/15	L	2018/11/15		2022/08/15	1505	1511											14		F			F	N			S		R		2022/11/15		N		1000							200000	1000			SR					USD		USD		F	99.94			1000.00000000	100																											
BOND	U	2019/01/29	2020/07/24	5830652	US44891AAY38	BD		USD	1000	2019/01/31	USD		650	2019/01/31	650	2019/01/31	FXD	3.95	30360	SMA	2019/01/31		2019/08/01		2021/08/01	0102	0108													F			F	N					R		2022/02/01		Y		1000							2000	1000			SR					USD		USD		F				1000.00000000	100	N																										
BOND	U	2019/02/01	2020/07/24	5834949	US362411AB61	BD		USD		2012/08/24	USD		1	2012/08/24		2020/07/24	FXD	8	30360	MNT	2012/08/24		2012/09/24		2020/06/24															F			F						R		2020/07/24		N													SR					USD		USD		F					100																											
BOND	U	2019/03/22	2020/07/24	5891954	US83368RAT95	MTN		USD	1000		USD		1500		1500		FXD	3.875		SMA			2019/09/28		2023/09/28	2803	2809													F			F	N			S		R		2024/03/28		Y		1000							200000	1000			SR					USD		USD		F				1000.00000000	100																											
BOND	U	2019/04/18	2020/07/24	5922761	US56035LAD64	NT		USD	2000	2019/04/23	USD	1982.5	250	2019/04/23	325	2019/12/05	FXD	5.2	30360	SMA	2019/04/23	L	2019/11/01		2023/11/01	0105	0111													T			T	N			S		R		2024/05/01		Y	N	2000							2000	1000			PR				FBD	USD	FBD	USD		F	99.125			2000.00000000	100	N		New York	USA		Governing Law<BR>The indenture provides that it and the Notes shall be governed by, and construed in accordance with, the laws of the State of New York without regard to<BR>principles of conflicts of laws.									5.401								30	CD			Reissue:-<BR>Issue Date :- 05/12/2019<BR>Issue Amt:- 75,000,000<BR>Issue Pric :- 105.001%<BR>Yield :- 3.951%<BR>Benchmark Treasury: 1.500% due November 30, 2024<BR>Benchmark Treasury Price and Yield:- USD99-09 and 1.651%<BR><BR>Reissue:-<BR>Issue Date :- 28/07/2020<BR>Issue Amt:- 125,000,000<BR>Issue Pric :- 102.674%<BR>Yield :- 4.418%<BR>Benchmark Treasury: 0.250% due June 30, 2025<BR>Benchmark Treasury Price and Yield: USD99-29 1/4 and 0.268%
BOND	U	2019/04/29	2020/07/24	5933756	US49836MAA62	NT		USD	500000	2019/05/09	USD		700	2019/05/09	1533.45	2019/07/03	FXD	5		SMA	2019/05/09	S	2019/05/30		2048/11/30	3005	3011													F			F	N			S		R		2049/05/30				500000							500000				SR					USD		USD		F				500000.00000000	100																											
BOND	U	2019/05/03	2019/05/06	5938762	US780097BL47	NT		USD	200000	2019/05/08	USD	200000	1250	2019/05/08	1250	2019/05/08	FXDFR	4.445	30360	SMA	2019/05/08		2019/11/08		2030/02/08	0805	0811					BASIC		1.871						F			T	N		N	S		R		2030/05/08		Y	N	200000							200000	1000			PR				FBD	USD		USD		F	100			200000.00000000	100			New York	USA		The Indenture and the Senior Notes are governed by, and construed in accordance with, the laws of<BR>the State of New York.									4.445			BAOC				US9128286B18	14	CD	7	CD	
BOND	U	2019/05/03	2020/07/24	5938775	US833636AH64	BD		USD		2019/05/07	USD		450	2019/05/07	450	2019/05/07	FXD	4.25	30360	SMA	2019/05/07		2019/11/07		2028/11/07															F			F	N			S		R		2029/05/07		Y													SR					USD		USD		F	99.98				100	N														4.25												
BOND	U	2019/05/09	2020/07/24	5944427	US459200KD25	NT		USD	100000	2019/05/15	USD	100000	1500	2019/05/15	1500	2019/05/15	FR		A360	QTR	2019/05/15		2019/08/13		2021/02/13	1302	1305	1308	1311			BASIC		0.4						T			T	N			S		R		2021/05/13		N	N	100000							100000	1000			PR				MFBD	USD		USD		F	100			100000.00000000	100			New York	USA		The indentures, the debt securities and the coupons will be governed by, and construed under, the laws of the State of New York.														2020/08/13			30	CD			
BOND	U	2019/05/16	2020/07/24	5952871	US025816CE78	NT		USD	2000	2019/05/20	USD	2000	900	2019/05/20	900	2019/05/20	FR		A360	QTR	2019/05/20		2019/08/20		2022/02/20	2002	2005	2008	2011			BASIC		0.62						T			T	N			S		R		2022/05/20		Y	N	2000							2000	1000			PR				MFBD	USD	FBD	USD		F	100			2000.00000000	100			New York	USA		The notes and the senior debt indenture dated as of August 1, 2007 will be governed by and construed in accordance with the laws of the State of New York.														2020/08/20							
BOND	U	2019/05/22	2020/07/24	5959970	US05565QDT22	NT		USD	1000	2019/05/24	USD	1000	1000	2019/05/24	1000	2019/05/24	FR		A360	QTR	2019/05/24		2019/08/24		2020/08/24	2402	2405	2408	2411			BASIC		0.25						T			T	N		N	S		R		2020/11/24		N	N	1000							1000	1000			PR				MFBD	USD	FBD	USD		F	100			1000.00000000	100	N		New York	USA		The indenture, the notes and the guarantee are governed by New York law.														2020/08/24			30	CD			
BOND	U	2019/06/07	2020/07/24	5978647	US92928QAF54	BD		USD	1000	2019/06/10	USD		750	2019/06/10	750	2019/06/10	FXD	3.5	30360	SMA	2019/06/10	L	2019/12/15		2028/12/15	1506	1512													F			F	N			S		R		2029/06/15		Y		1000							2000	1000			SR					USD		USD		F				1000.00000000	100																											
BOND	U	2019/06/11	2020/07/24	5980845	US06747MXR23	MTN		USD	1000		USD						VR																							F			F	N			S		R		2026/12/17				1000											SR					USD		USD		F				1000.00000000	100																											
BOND	U	2019/01/17	2020/07/24	5817147	XS1934286730	NT		USD	200000	2019/01/22	USD	200000	800	2019/01/22	800	2019/01/22	FXD	4	30360	SMA	2019/01/22		2019/07/18		2021/10/18	1801	1807													F			F	N			S		R		2022/01/22		N		200000							200000				SR					USD		USD		F	100			200000.00000000	100																											
BOND	U	2018/04/14	2020/07/24	5501253	XS1804839931	NT		USD	200000	2018/04/17	USD	200000	800	2018/04/17	800	2018/04/17	FR		A360	QTR	2018/04/17		2018/07/17		2021/01/17	1701	1704	1707	1710			BASIC	USDLIBOR3M	0.75				063		F			F	N			S		R		2021/04/17		N		200000							200000	1000			SR					USD		USD		F	100			200000.00000000	100																				2020/10/19							
BOND	U	2019/07/12	2020/07/03	6020048		NT		USD		2019/07/03	USD		0.078	2019/07/03		2020/07/03	FXD	8	A365		2019/07/03																			F			F						C		2020/07/03															SR					USD		USD		F																																
BOND	U	2019/07/20	2020/07/24	6030095	US48132CUJ07	SP		USD		2019/06/26	USD	1000	0.1	2019/06/26	0.1	2019/06/26																								F			T	N		N					2020/07/24		N	N	1000							1000	1000			PS									F	100																															
BOND	U	2019/07/22	2020/07/24	6030684	US05565AJB08	NT		USD			USD						FXD	7.6																						F			F	N			S		R		2020/07/24															SR					USD		USD		F					100																											
BOND	U	2019/07/23	2020/07/24	6032942	US06747N6Q24	NT		USD	1000	2019/07/24	USD	1000	1	2019/07/24	1	2019/07/24	FXDFR		30360	QTR	2019/07/24		2019/10/24		2034/04/24	2401	2404	2407	2410			COLLAR				6		A		F			F	N		N	S		R		2034/07/24		Y	N	1000							1000	1000			PS				FBD	USD	FBD	USD		F	100			1000.00000000	100																		BAOC									
BOND	U	2019/07/23	2020/07/24	6033754	US78013XWR50	SP		USD		2019/07/15	USD	10000	0.8	2019/07/15	0.8	2019/07/15																								F			F	N			S				2020/07/24		N	N	10000							10000	1000			PS									F	100																															
BOND	U	2019/07/30	2020/07/24	6041476		NT		USD		2019/07/24	USD		0.75	2019/07/24		2020/07/24	FXD	15			2019/07/24																			F			F				S		R		2020/07/24															SR					USD		USD		F					100																											
BOND	U	2019/08/07	2020/07/24	6053043	US674599CT04	NT		USD	2000	2019/08/08	USD	2000	500	2019/08/08	27.096	2020/07/13	FR			QTR	2019/08/08		2019/11/08		2020/11/08	0802	0805	0808	0811			BASIC		0.95						F			T	N			S		R		2021/02/08		N	N	2000							2000	10000			PR				MFBD	USD	FBD	USD		F	100			2000.00000000	100	N		New York	USA		The notes and the indenture will be governed by, and construed in<BR>accordance with, the laws of the State of New York.														2020/08/10			30	CD			
BOND	U	2019/08/07	2020/07/24	6053058	US674599CV59	NT		USD	2000	2019/08/08	USD	2000	500	2019/08/08	500	2019/08/08	FR		A360	QTR	2019/08/08	L	2019/11/13		2021/05/13	1302	1305	1308	1311			BASIC		1.25						F			T	N			S		R		2021/08/13		Y	N	2000							2000	1000			PR				MFBD	USD	FBD	USD		F	100			2000.00000000	100	N		New York	USA		The notes and the indenture will be governed by, and construed in<BR>accordance with, the laws of the State of New York.														2020/08/13			30	CD			
BOND	U	2019/08/12	2020/07/24	6058922	US17290WAD48	BD		USD			USD						ZC																							F			F	N			S		R		2020/07/24															SR							USD		F					100																											
BOND	U	2015/06/29	2020/07/03	4544214	XS1250898100	CS		USD		2015/07/03	USD	200000	1280	2015/07/03		2020/07/03	FXDFR	4	30E/360	SMA	2015/07/03		2016/01/03		2075/01/03	0301	0307					BASIC		2.294						F			F						R		2075/07/03	Y	N	N	200000							200000	1000			SR					USD		USD		F	100			200000.00000000	100																				2020/07/03							
BOND	U	2019/08/14	2020/07/24	6062928	US30231GBA94	NT		USD	2000	2019/08/16	USD	2000	750	2019/08/16	750	2019/08/16	FR		A360	QTR	2019/08/16		2019/11/16		2022/05/16	1602	1605	1608	1611			BASIC		0.33						T			T	N		N	S		R		2022/08/16		N	N	2000							2000	1000			PR				MFBD	USD	FBD	USD		F	100			2000.00000000	100			New York	USA		The Indenture provides that it and the Notes will be governed by, and construed in accordance with, the laws of the State of New York														2020/08/16			30	CD			
BOND	U	2019/09/05	2020/07/24	6092662	US78015KCN28	NT		USD		2019/09/09	USD		3.65	2019/09/09	3.65	2019/09/09	FXD	5.25	30360	MNT	2019/09/09		2019/10/08		2020/08/08															F			F	N			S		R		2020/09/09		N	N												SR					USD		USD		F					100																											
BOND	U	2019/09/06	2020/07/24	6093497	US94988J6A07	NT		USD	1000	2019/09/11	USD		2000	2019/09/11	2000	2019/09/11	FXDFR	2.082	30360	SMA	2019/09/11		2020/03/09		2022/03/09	0903	0909					BASIC								F			F	N		N	S		R		2022/09/09		Y		1000											SR					USD		USD		F				1000.00000000	100																											
BOND	U	2019/10/14	2020/07/24	6136773	US86677KAA43	BD		USD		2019/11/01	USD		16.415	2019/11/01	16.415	2019/11/01	FXD	2.98	30360	SMA	2019/11/01	L	2020/05/15		2027/06/15	1505	1511													F			F	N					R		2027/11/15		N	N												PS					USD		USD		F	100				100	N																										
BOND	U	2019/10/14	2020/07/24	6136774	US86677KAB26	BD		USD		2019/11/01	USD		23.395	2019/11/01	23.395	2019/11/01	FXD	3.56	30360	SMA	2019/11/01	L	2020/05/15		2036/05/15	1505	1511													F			F	N					R		2036/11/15		Y	N												SR					USD		USD		F					100																											
BOND	U	2019/11/05	2020/07/24	6164644	USG82016AL31	BD		USD	200000	2019/11/12	USD	199038	1000	2019/11/12	1000	2019/11/12	FXD	2.95	30360	SMA	2019/11/12		2020/05/12		2029/05/12	1205	1211													F			F	N		N	S		R		2029/11/12		Y		200000							200000	1000			SR					USD		USD		F	99.519			200000.00000000	100	N																										
BOND	U	2019/11/06	2020/07/24	6167012	XS2078692014	NT		USD	200000	2019/11/12	USD	199978	1000	2019/11/12	1000	2019/11/12	FXDFR	3.516	30360	SMA	2019/11/12	L	2020/08/12		2029/08/12	1202	1208					BASIC		1.85				174		F			F	N		Y			R		2030/02/12		Y	N	200000							200000	1000			PS				FBD	USD		USD	TEFRA D	F	99.989			200000.00000000	100									Y						3.516					2020/08/12							
BOND	U	2019/12/05	2020/07/24	6205721	US83051GAM06	MTN		USD	1000	2019/12/12	USD	999.74	1250	2019/12/12	1250	2019/12/12	FXD	2.2	30360	SMA	2019/12/12		2020/06/12		2022/06/12	1206	1212													F			F			Y	S		R		2022/12/12		N		1000							200000	1000			SR					USD		USD		F	99.974			1000.00000000	100	N																										
BOND	U	2019/12/11	2020/07/24	6213478	US61766X3439	SP		USD		2017/07/26	USD	10	11.2575	2017/07/26	11.2575	2017/07/26																								F			T	N							2020/07/24		N	N	10							1000	10			PS									F	100																															
BOND	U	2019/12/30	2020/07/03	6235595	US88241TDQ04	CD		USD		2019/08/21	USD						FXD	1.8	AA	MNT	2019/08/21		2019/09/21		2020/06/21															F			T						R		2020/07/03		N													SR				FBD	USD	FBD	USD		F					100																											
BOND	U	2019/12/30	2020/07/24	6235826	US89114M3A38	CD		USD		2019/07/24	USD						FXD	2.17	A360	ITM	2019/07/24		2020/07/24																	F			F						R		2020/07/24		N													SR				FBD	USD	FBD	USD		F					100																											
BOND	U	2020/01/16	2020/07/03	6258310		NT		USD		2020/01/03	USD		0.55	2020/01/03		2020/07/03	FXD	12	A365		2020/01/03																			F			F	Y			S		C		2020/07/03															SR					USD		USD		F																																
BOND	U	2020/01/17	2020/07/24	6259158	US83368RAW25	MTN		USD	1000		USD	995.38	1250		1250		FXD	3		SMA			2020/07/22		2029/07/22	2201	2207													F			F	N			S		R		2030/01/22		Y		1000							200000	1000			SR					USD		USD		F	99.538			1000.00000000	100																											
BOND	U	2020/01/17	2020/07/24	6259193	US83368RAV42	MTN		USD	1000	2020/01/22	USD	998	1750	2020/01/22	1750	2020/01/22	FXD	2.625		SMA	2020/01/22		2020/07/22		2024/07/22	2201	2207													F			F	N		N	S		R		2025/01/22		Y		1000							200000	1000			SR					USD		USD		F	99.8			1000.00000000	100																											
BOND	U	2020/01/18	2020/07/24	6260329	US833636AJ21	BD		USD	200000	2020/01/22	USD	199428	400	2020/01/22	400	2020/01/22	FXD	4.25		SMA	2020/01/22		2020/07/22		2049/07/22	2201	2207													F			F			N			R		2050/01/22		Y		200000							200000	1000			SR					USD		USD		F	99.714			200000.00000000	100																											
BOND	U	2020/01/22	2020/07/24	6264072	US78014RCC25	NT		USD	1000	2020/01/24	USD		270	2020/01/24	270	2020/01/24	FXDFR		30360	QTR	2020/01/24		2020/04/24		2021/10/24	2401	2404	2407	2410			FLR		0.4						F			F	N			S		R		2022/01/24		N	N	1000							1000	1000			PS				FBD	USD		USD		F				1000.00000000	100																		CONV									RBC Capital Markets, LLC ( RBCCM ) has offered the Notes at varying public offering prices related to prevailing market prices, and will purchase the Notes from us on the Issue Date at purchase prices between 99.95% and 100% of the principal amount. See  Supplemental Plan of Distribution (Conflicts of Interest)  below.
BOND	U	2020/01/24	2020/07/24	6267589	US91502PAB22	BD		USD			USD						FXD	3.792																						F			F	N					R		2027/10/01															SR					USD		USD		F					100																											
BOND	U	2019/12/26	2020/07/24	6230785	XS2095251430	BD		USD	200000	2019/12/30	USD	200000	295	2019/12/30	295	2019/12/30	FXD	2.9	AA	SMA	2019/12/30		2020/06/30		2022/06/30	3006	3012													T			T	N		N	S		R		2022/12/30		N	N	200000							200000	1000			OC				FBD	USD	FBD	USD		F	100			200000.00000000	100					English	Governing Law<BR>The Trust Deed, the Agency Agreement, the Keepwell Deed and the Bonds and any noncontractual<BR>obligations arising out of or in connection therewith are governed by, and shall be<BR>construed in accordance with, English law.<BR>18.2 Jurisdiction<BR>(a) Subject to Condition 18.2(c) below, the English courts are to have exclusive jurisdiction to<BR>settle any disputes, claims, difference or controversy that may arise out of, in relation to or in<BR>connection with the Trust Deed, the Agency Agreement, the Bonds or the Keepwell Deed,<BR>including any dispute as to their existence, validity, interpretation, performance, breach or<BR>termination or the consequences of their nullity and any dispute relating to any noncontractual<BR>obligations arising out of or in connection with them (a   Dispute  ) and each of<BR>the Issuer, the Company, the Trustee, the Agents and any Bondholder in relation to any<BR>Dispute, submits to the exclusive jurisdiction of the English courts.<BR>(b) For the purposes of this Condition, each of the Issuer and the Company waives any objection<BR>to the English courts on the grounds that they are an inconvenient or inappropriate forum to<BR>settle any Dispute<BR>(c) To the extent allowed by law, the Trustee, the Agents and the Bondholders may, in respect of<BR>any Dispute or Disputes, take (i) proceedings in any other court with jurisdiction and (ii)<BR>concurrent proceedings in any number of jurisdictions.																	14	CD	14	CD	
BOND	U	2020/02/07	2020/07/24	6284582	XS2109438205	NT		USD	200000	2020/02/12	USD	200000	1000	2020/02/12	1000	2020/02/12	FXD	3.949	30360	SMA	2020/02/12		2020/08/12		2029/08/12	1202	1208													T			T	Y		N	S		R		2030/02/12		Y	N	200000							200000	1000			OC				MFBD	USD	FBD	USD		F	100			200000.00000000	100					English	The Notes, the Note Trust Deed, the Agency Agreement and the<BR>Common Terms Deed will be governed by the laws of England. The<BR>Intercreditor Deed, the Project Accounts Deed and the Security<BR>Documents will be governed by Indian law.						Y											3	BD	3	BD	
BOND	U	2020/02/21	2020/07/24	6303215	US22549LZV07	CD		USD		2020/01/24	USD						FXD	1.78	A360	ITM	2020/01/24		2020/07/24																	F			F	N					R		2020/07/24		N													SR				FBD	USD	FBD	USD		F					100																											
BOND	U	2020/02/21	2020/07/24	6304173	US48668MH719	CD		USD		2020/01/24	USD						FXD	1.85	A360	ITM	2020/01/24		2020/07/24																	F			F	N					R		2020/07/24		N													SR				FBD	USD	FBD	USD		F					100																											
BOND	U	2020/01/16	2020/07/24	6257678	XS2103199050	BD		USD	200000	2020/01/16	USD	197068	300	2020/01/16	455	2020/07/22	FXD	9.7	30360	SMA	2020/01/16		2020/07/16	S	2023/01/16	1601	1607													F			F	N		N	S		R		2023/04/16			Y	200000							200000				SR					USD		USD		F	98.534			200000.00000000	100																											
BOND	U	2019/10/16	2020/07/24	6139302	XS2066780466	NT		USD	200000	2019/10/22	USD	200000	1000	2019/10/22	1000	2019/10/22	FR		A360	QTR	2019/10/22		2020/01/22		2022/07/22	2201	2204	2207	2210			BASIC		0.66				059		F			F	N		N	S		R		2022/10/22		N	N	200000							200000	1000			OC				MFBD	USD	MFBD	USD		F	100			200000.00000000	100					English				Y											2020/10/22			30	CD	30	CD	
BOND	U	2020/03/10	2020/07/03	6329029	USG4034G6M60	BD		USD			USD						ZC																							F			F	N			S		R		2020/07/03															SR							USD		F																																
BOND	U	2020/03/16	2020/07/03	6337491	USG4034G7S22	BD		USD			USD						ZC																							F			F	N			S		R		2020/07/03															SR							USD		F					100																											
BOND	U	2020/04/03	2020/07/24	6355490	USG4034HBJ52	BD		USD			USD						ZC																							F			F	N			S		R		2020/07/24															SR							USD		F																																
BOND	U	2020/04/03	2020/07/24	6355466	US87264ABA25	NT		USD	2000	2020/04/09	USD		3000	2020/04/09	3000	2020/04/09	FXD	3.5		SMA	2020/04/09	L	2020/10/15		2024/10/15	1504	1510													F			F	Y		N	S		R		2025/04/15		Y		2000											SR							USD		F				2000.00000000	100																											
BOND	U	2020/04/15	2020/07/24	6370783	US90327QD487	MTN		USD	1000	2020/04/21	USD						FXD	1.5		SMA	2020/04/21	L	2020/11/01		2022/11/01	0105	0111													F			F	N		N	S		R		2023/05/01		Y		1000											SR					USD		USD		F				1000.00000000	100																											
BOND	U	2020/04/20	2020/07/24	6377204	US05600FDC05	MTN		USD			USD						FXD	9.25																						F			F	N			S		R		2025/04/22															SR					USD		USD		F					100																											
BOND	U	2020/02/07	2020/07/24	6284379	XS2115155033	NT		USD	200000	2020/02/12	USD	199766	300	2020/02/12	300	2020/02/12	FXD	6.875	30360	SMA	2020/02/12		2020/08/12		2020/08/12	1002	1208													F			T			N	S		R		2021/02/10		Y	N	200000							200000	1000			OC				FBD	USD	FBD	USD		F	99.883			200000.00000000	100	N		New York	USA		The Notes and the Indenture will be governed by and will be construed in<BR>accordance with the laws of the State of New York. The relevant pledge<BR>documents will be governed under the laws of the jurisdiction in which<BR>the relevant Subsidiary Guarantor is incorporated.																	30	CD			
BOND	U	2020/05/06	2020/07/24	6395179	USU1109MAK28	NT		USD		2020/05/08	USD		2750	2020/05/08	2750	2020/05/08	FXD	4.15		SMA	2020/05/08	L	2020/11/15		2030/05/15	1505	1511													F			F	N		N	S		R		2030/11/15		Y		1000							1000				SR					USD		USD		F					100																											
BOND	U	2020/05/09	2020/07/24	6399060	US52532XAA37	NT		USD	1000	2020/05/12	USD	995.96	500	2020/05/12	500	2020/05/12	FXD	2.95	30360	SMA	2020/05/12	L	2020/11/15		2022/11/15	1505	1511													F			F	N			S		R		2023/05/15		Y		1000							2000	1000			SR					USD		USD		F	99.596			1000.00000000	100	N																										
BOND	U	2020/05/19	2020/07/24	6410635		NT		USD		2020/07/23	USD		130	2020/07/23	130	2020/07/23	FXD	3.5		SMA	2020/07/23		2021/01/23		2030/01/23	2301	2307											2020A		F			F	N			S		R		2030/07/23															SR					USD		USD		F					100								Y																			
BOND	U	2020/05/19	2020/07/24	6410644		NT		USD		2020/07/23	USD		130	2020/07/23	130	2020/07/23	FXD	3.6		SMA	2020/07/23		2021/01/23		2032/01/23	2301	2307											2020B		F			F				S		R		2032/07/23															SR					USD		USD		F					100								Y																			
BOND	U	2020/05/19	2020/07/24	6410661		NT		USD		2020/07/23	USD		50	2020/07/23	50	2020/07/23	FXD	3.13		SMA	2020/07/23		2021/01/23		2050/01/23	2301	2307											2020B		F			F	Y			S		R		2050/07/23															SR					USD		USD		F					100								Y																			
BOND	U	2020/05/19	2020/07/24	6410665		NT		USD		2020/07/23	USD		25	2020/07/23	25	2020/07/23	FXD	3.33		SMA	2020/07/23		2021/01/23		2060/01/23	2301	2307											2020C		F			F	Y			S		R		2060/07/23															SR					USD		USD		F					100								Y																			
BOND	U	2020/06/18	2020/07/24	6444642	US91533BAC46	NT		USD		2020/06/22	USD		750	2020/06/22	750	2020/06/22	FXD	2.3	30360	SMA	2020/06/22		2020/12/22		2026/12/22	2206	2212													F			F	N			S		R		2027/06/22		Y													SR					USD		USD		F					100	N																										
BOND	U	2020/06/18	2020/07/24	6444645	US91533BAD29	NT		USD		2020/06/22	USD		1450	2020/06/22	1450	2020/06/22	FXD	2.7	30360	SMA	2020/06/22		2020/12/22		2029/12/22	2206	2212													F			F	N			S		R		2030/06/22		Y													SR					USD		USD		F	99.69				100	N														2.74												
BOND	U	2020/06/20	2020/07/24	6447204		NT		USD		2020/06/18	USD		0.75	2020/06/18	0.75	2020/06/18	FXD	5		ANL	2020/06/18																			F			F	N					C		2022/06/30															SR					USD		USD		F																																
BOND	U	2020/06/22	2020/07/24	6448535	US40054LLH59	SP		USD		2017/07/26	USD	1000	11.341	2017/07/26	11.341	2017/07/26																								T			F	N							2020/07/24		Y	N	1000							1000				PS									F	100																															
BOND	U	2020/06/29	2020/07/24	6455934	US05971V2C81	NT		USD	10000	2020/07/01	USD	9925.4	850	2020/07/01	850	2020/07/01	FXDFR	3.125	30360	SMA	2020/07/01		2021/01/01		2030/01/01	0101	0107					BASIC		3				5		F			F	N		Y	S		R		2030/07/01		Y	N	10000							10000	1000			PS					USD		USD		F	99.254			10000.00000000	100															3.288												
BOND	U	2020/06/29	2020/07/24	6455935	US05971U2C00	NT		USD	10000	2020/07/01	USD	9925.4	850	2020/07/01	850	2020/07/01	FXDFR	3.125	30360	SMA	2020/07/01		2021/01/01		2030/01/01	0101	0107					BASIC		3				5		F			F	N		Y	S		R		2030/07/01		Y	N	10000							10000	1000			PS					USD		USD		F	99.254			10000.00000000	100															3.288												
BOND	U	2017/04/26	2020/07/24	5123824	XS1577964965	NT		USD	200000	2017/05/03	USD	200000	500	2017/05/03	491.205	2020/07/24	FXD	5.3	30360	SMA	2017/05/03		2017/11/03		2022/11/03	0305	0311													T			T	N		N	S		R		2023/05/03		Y	N	200000							200000	1000			PR				FBD	USD	FBD	USD		F	100			200000.00000000	100					English																		10	BD	7	BD	
BOND	U	2020/07/10	2020/07/14	6470291	US169905AG19	NT		USD	2000	2020/07/23	USD	1989.88	450	2020/07/23	450	2020/07/23	FXD	3.7	30360	SMA	2020/07/23		2021/01/15		2030/07/15	1501	1507													T			T	N			S		R		2031/01/15		Y	N	2000							2000	1000			PR				FBD	USD	FBD	USD		F	99.494			2000.00000000	100	N		New York	USA		The Indenture and the notes will be governed by, and construed in accordance with, the laws of the State of New York.									3.759							US912828ZQ64	30	CD			
BOND	U	2020/07/14	2020/07/24	6474753	US74348Y5K30	NT		USD	1000	2020/07/23	USD	1000	0.419	2020/07/23	0.419	2020/07/23	FXD	6	30360	SMA	2020/07/23	S	2021/01/15		2030/01/15	1501	1507													F			T	N			S		R		2030/07/15		Y	N	1000							1000	1000			PS		ISDA		FBD	USD		USD		F	100			1000.00000000	100	N																						30	CD			
BOND	U	2020/07/14	2020/07/24	6474750	US74348Y5J66	NT		USD	1000	2020/07/23	USD	1000	0.312	2020/07/23	0.312	2020/07/23	FXD	5.75	30360	SMA	2020/07/23	S	2021/01/15		2027/01/15	1501	1507													F			T	N			S		R		2027/07/15		Y	N	1000							1000	1000			PS		ISDA		FBD	USD		USD		F	100			1000.00000000	100	N																						30	CD			
BOND	U	2020/07/14	2020/07/24	6474744	US74348Y5H01	NT		USD	1000	2020/07/23	USD	1000	1.74	2020/07/23	1.74	2020/07/23	FXD	5.5	30360	SMA	2020/07/23	S	2021/01/15		2025/01/15	1501	1507													F			T	N			S		R		2025/07/15		Y	N	1000							1000	1000			PS		ISDA		FBD	USD		USD		F	100			1000.00000000	100	N																						30	CD			
BOND	U	2020/07/15	2020/07/24	6476632	US58547DAE94	NT		USD	200000	2020/07/21	USD	200000	500	2020/07/21	500	2020/07/21	FXD	5.75		SMA	2020/07/21		2021/01/21		2028/01/21	2101	2107													F			F	N		N	S		R		2028/07/21				200000							200000	1000			SR					USD		USD		F	100			200000.00000000	100																											
BOND	U	2020/07/16	2020/07/24	6478331	US05600FME69	MTN		USD			USD						ZC																							F			F	N			S		R		2025/07/16															SR							USD		F																																
BOND	U	2020/07/16	2020/07/24	6478363	US05600FNB12	MTN		USD		2020/07/22	USD						ZC		30360																					F			F	N			S		R		2022/01/18															SR							USD		F																																
BOND	U	2020/07/17	2020/07/20	6479948	US69121KAD63	NT		USD	2000	2020/07/23	USD	1985.08	500	2020/07/23	500	2020/07/23	FXD	4.25	30360	SMA	2020/07/23		2021/01/15		2025/07/15	1501	1507													T			T	N			S		R		2026/01/15		Y	N	2000							2000	1000			PR				FBD	USD	FBD	USD		F	99.254			2000.00000000	100	N		New York	USA											4.405							US912828ZW33	30	CD			
BOND	U	2020/07/20	2020/07/24	6482665	US05600FN624	MTN		USD			USD						ZC																							F			F				S		R		2025/07/23															SR							USD		F																																
BOND	U	2020/07/20	2020/07/24	6482683	US05600FN962	MTN		USD			USD						FXD	15																						F			F				S		R		2021/08/04															SR					USD		USD		F					100																											
BOND	U	2020/07/21	2020/07/22	6484549	USU98340AD19	NT		USD		2020/07/24	USD		650	2020/07/24	650	2020/07/24	FXD	6.625		SMA	2020/07/24	L	2021/01/31		2026/01/31	3101	3107													F			F	Y			S		R		2026/07/31															SR					USD		USD		F	100				100																											
BOND	U	2020/07/21	2020/07/23	6484554	US89236THD00	MTN		USD	2000	2020/07/23	USD	1998.76	750	2020/07/23	750	2020/07/23	FXD	0.45	30360	SMA	2020/07/23		2021/01/22		2022/01/22	2201	2207											B		T			T	N			S		R		2022/07/22		N	N	2000							2000	1000			PS				FBD	USD	FBD	USD		F	99.938			2000.00000000	100		New York	New York	USA											0.481							US912828ZX16					
BOND	I	2020/07/21	2020/07/21	6484572	US74348Y5L13	NT		USD	1000	2020/07/30	USD	1000					FXD	5.5	30360	SMA	2020/07/30	S	2021/01/15			1501	1507													F			F						R		2025/07/15		Y		1000							1000	1000			SR					USD		USD		F	100			1000.00000000	100																											
BOND	U	2020/07/21	2020/07/24	6484580	US74348Y5M95	NT		USD	1000	2020/07/30	USD	1000					FXD	5.75	30360	SMA	2020/07/30	S	2021/01/15			1501	1507													F			F	N			S		R		2027/07/15		Y		1000							1000	1000			SR					USD		USD		F	100			1000.00000000	100																											
BOND	U	2020/07/21	2020/07/24	6484635	US74348Y5N78	NT		USD	1000	2020/07/30	USD	1000					FXD	6	30360	SMA	2020/07/30	S	2021/01/15			1501	1507													F			F	N			S		R		2030/07/15		Y		1000							1000	1000			SR					USD		USD		F	100			1000.00000000	100																											
BOND	U	2020/07/22	2020/07/24	6485772	US73900LAA98	BD		USD	1000	2020/07/23	USD		300	2020/07/23	300	2020/07/23	FXD	6	30360	SMA	2020/07/23	L	2021/02/01		2025/02/01	0102	0108													F			F						R		2025/08/01		Y	N	1000											SR					USD		USD		F				1000.00000000	100																											
BOND	U	2020/07/22	2020/07/24	6486024	US22552WCQ69	MTN		USD			USD						ZC																							F			F	N			S		R		2022/04/05															SR							USD		F																																
BOND	U	2020/07/22	2020/07/24	6486086	US78015KTY00	MTN		USD			USD						ZC																							F			F	N			S		R		2026/07/31															SR							USD		F																																
BOND	U	2020/07/23	2020/07/24	6487966	US526107AF41	NT		USD	1000	2020/07/30	USD	997.05	300	2020/07/30	300	2020/07/30	FXD	1.7		SMA	2020/07/30	L	2021/02/01		2027/02/01	0102	0108													F			T	N			S		R		2027/08/01		Y	N	1000							2000	1000			PS					USD		USD		F	99.705			1000.00000000	100															1.745							US912828ZV59					
BOND	U	2020/07/23	2020/07/24	6487964	US526107AE75	NT		USD	1000	2020/07/30	USD	999.08	300	2020/07/30	300	2020/07/30	FXD	1.35		SMA	2020/07/30	L	2021/02/01		2025/02/01	0102	0108													F			T	N			S		R		2025/08/01		Y	N	1000							2000	1000			PS					USD		USD		F	99.908			1000.00000000	100															1.369							US912828ZW33					
BOND	U	2020/07/23	2020/07/24	6488166	US06367WY647	SP		USD	1000	2020/07/22	USD	1000	2.746	2020/07/22	2.746	2020/07/22																								F			F	N			S				2021/10/22		N	N	1000							1000	1000			PS									F	100																															
BOND	U	2020/07/23	2020/07/24	6488455	US53261MAA27	NT		USD	1000	2020/07/27	USD		110	2020/07/27	110	2020/07/27	FXD	3.5		SMA	2020/07/27	L	2021/02/01		2025/02/01	0102	0108													F			F	N			S		C		2025/08/01		Y		1000											SR					USD		USD		F																																
BOND	U	2020/07/24	2020/07/24	6489515	US05967CAF05	MTN		USD	1000		USD	1000	500		500		FXD	4.375		SMA			2021/01/29		2025/01/29	2901	2907													F			F	N			S		R		2025/07/29				1000							200000	1000			SR					USD		USD		F	100			1000.00000000	100																											
BOND	I	2020/07/24	2020/07/24	6490149		NT		USD		2020/07/20	USD		0.225	2020/07/20	0.225	2020/07/20	FXD	8	A365		2020/07/20																			F			F	Y					C		2021/04/20															SR					USD		USD		F																																
BOND	I	2020/07/24	2020/07/24	6490155		NT		USD		2020/07/22	USD		0.05	2020/07/22	0.05	2020/07/22	FXD	10	A365		2020/07/22																			F			F						C		2021/04/22															SR					USD		USD		F																																
BOND	I	2020/07/24	2020/07/24	6490194	US13161GY556	MTN		USD		2020/08/05	USD						FXD	1.5	30360	ANL	2020/08/05	S	2021/07/30		2022/07/03	3007														F			F	N			S		R		2023/07/30															SR					USD		USD		F					100																											
BOND	I	2020/07/24	2020/07/24	6490198	USU3458LAG69	NT		USD			USD						FXD	9.75																						F			F	N			S		R		2027/08/01															SR					USD		USD		F					100																											
BOND	I	2020/07/24	2020/07/24	6490200	US34960PAC59	NT		USD			USD						FXD	9.75																						F			F	N			S		R		2027/08/01															SR					USD		USD		F					100																											
BOND	I	2020/07/24	2020/07/24	6490202	US63305LFK44	NT		USD			USD						ZC																							F			F						R		2022/07/25															SR							USD		F																																
BOND	I	2020/07/24	2020/07/24	6490206	US13161GY630	MTN		USD		2020/08/05	USD						FXD	2.5	30360	ANL	2020/08/05	S	2021/07/30			3107														F			F	N			S		R		2025/07/31															SR					USD		USD		F					100																											
BOND	I	2020/07/24	2020/07/24	6489432	US22411VAP31	BD		USD	1000		USD		1000		1000		FXD	0.375		SMA			2021/01/29		2025/01/29	2901	2907													F			F						R		2025/07/29				1000							250000	1000			SR					USD		USD		F				1000.00000000	100																											
BOND	I	2020/07/24	2020/07/24	6490223	US06747QBE61	MTN		USD			USD						ZC																							F			F	N			S		R		2025/08/05															SR							USD		F																																
BOND	I	2020/07/24	2020/07/24	6490222	US40438CRA17	MTN		USD			USD						ZC																							F			F	N			S		R		2024/08/05															SR							USD		F																																
BOND	I	2020/07/24	2020/07/24	6490229	US02006DVD01	MTN		USD			USD						FXD	2.05																						F			F	N			S		R		2023/07/15															SR					USD		USD		F					100																											
BOND	I	2020/07/24	2020/07/24	6490228	US40438CRB99	MTN		USD			USD						ZC																							F			F	N			S		R		2024/08/05															SR							USD		F																																
BOND	I	2020/07/24	2020/07/24	6490186	US05600FNM76	MTN		USD			USD						ZC																							F			F	N			S		R		2022/03/09															SR							USD		F					100																											
BOND	I	2020/07/24	2020/07/24	6490188	US22552WBF14	MTN		USD			USD						ZC																							F			F	N			S		R		2025/07/31															SR							USD		F					100																											
BOND	I	2020/07/24	2020/07/24	6490190	US22552WBE49	MTN		USD			USD						ZC																							F			F	Y					R		2026/07/31															SR							USD		F					100																											
BOND	I	2020/07/24	2020/07/24	6490232	US13161GY713	BD		USD			USD						FXD	3																						F			F	N			S		R		2030/07/30															SR					USD		USD		F					100																											
BOND	I	2020/07/24	2020/07/24	6490193	US61771C6984	NT		USD			USD						ZC																							F			F	N					R		2022/07/28															SR							USD		F					100																											
BOND	I	2020/07/24	2020/07/24	6490208	US83369MA699	MTN		USD			USD						ZC																							F			F	N			S		R		2022/01/27															SR							USD		F					100																											
BOND	I	2020/07/24	2020/07/24	6490236	US02006DVE83	MTN		USD			USD						FXD	2.45																						F			F	N			S		R		2025/07/15															SR					USD		USD		F					100																											
BOND	I	2020/07/24	2020/07/24	6490240	US09709TJ933	MTN		USD			USD						ZC																							F			F	N					R		2021/08/02															SR							USD		F																																
BOND	I	2020/07/24	2020/07/24	6490275	US06747J5332	NT		USD			USD						ZC																							F			F	N			S		R		2025/07/31															SR							USD		F																																
BOND	I	2020/07/24	2020/07/24	6490281	US06747Q5B90	MTN		USD			USD						ZC																							F			F	N			S		R		2025/07/31															SR							USD		F																																
BOND	I	2020/07/24	2020/07/24	6490205	US06747Q5D56	MTN		USD			USD						ZC																							F			F	N			S		R		2025/07/31															SR							USD		F																																
BOND	I	2020/07/24	2020/07/24	6490209	US06747Q4Z77	MTN		USD			USD						ZC																							F			F	N			S		R		2025/07/31															SR							USD		F																																
BOND	I	2020/07/24	2020/07/24	6490215	US05600FNX32	MTN		USD			USD						ZC																							F			F	N			S		R		2025/07/28															SR							USD		F																																
BOND	I	2020/07/24	2020/07/24	6490220	US22552WCE30	MTN		USD			USD						FXD	8.65																						F			F	Y					R		2022/01/31															SR					USD		USD		F					100																											
BOND	I	2020/07/24	2020/07/24	6490225	US13161GY895	BD		USD			USD						FXD	3.5																						F			F	N			S		R		2035/07/31															SR					USD		USD		F					100																											
BOND	I	2020/07/24	2020/07/24	6490291	US06747Q4X20	MTN		USD			USD						ZC																							F			F	N			S		R		2025/07/31															SR							USD		F																																
BOND	I	2020/07/24	2020/07/24	6490285	US83370DG453	NT		USD			USD						FXD	17.88																						F			F	N			S		R		2021/07/28															SR					USD		USD		F					100																											
BOND	U	2020/07/24	2020/07/24	6489425	US22411WAP14	BD		USD	1000		USD		1000		1000		FXD	0.375		SMA			2021/01/29		2025/01/29	2901	2907													F			F	N			S		R		2025/07/29				1000							250000	1000			SR					USD		USD		F				1000.00000000	100																											
BOND	I	2020/07/24	2020/07/24	6490402	US06741WJF86	NT		USD			USD						FXD	1.10833																						F			F	N			S		R		2021/07/27															SR					USD		USD		F					100																											
BOND	I	2020/07/24	2020/07/24	6490425	US48132L3924	NT		USD			USD						ZC																							F			F	N			S		R		2021/07/30															SR							USD		F																																
BOND	I	2020/07/24	2020/07/24	6490147	US064159VD54	NT		USD	1000	2020/07/30	USD	1000	25	2020/07/30	25	2020/07/30	SU	1.5	30360	SMA	2020/07/30		2021/01/30		2035/01/30	3001	3007											B		F			T	N		N	S		R		2035/07/30		Y	N	1000							1000	1000			PS				FBD	USD	FBD	USD		F	100			1000.00000000	100																		CONV									
BOND	I	2020/07/24	2020/07/24	6490726	US06367WX656	SP		USD	1000	2020/07/22	USD	1000	2.274	2020/07/22	2.274	2020/07/22																								F			F	N							2021/10/22		N	N	1000							1000	1000			PS									F	100																															
BOND	I	2020/07/24	2020/07/24	6490955	US22550MGT09	SP		USD	1000	2020/07/24	USD	1000	6.15	2020/07/24	6.15	2020/07/24																								F			T	N			S				2021/07/26		N	N	1000							1000	1000			PS									F	100																						BAOC									
EDI_ENDOFFILE
