EDI_GICCH_20200724
TableName	Actflag	Created	Changed	IssID	EffectiveDate	OldGICS	NewGICS	GICSChID
GICCH	I	2017/06/12	2017/06/12	172815	2017/06/12		45103010	6495
GICCH	I	2018/10/01	2018/10/01	33441	2018/10/01	45101010	50203010	10823
GICCH	I	2018/10/01	2018/10/01	109984	2018/10/01	45101010	45102030	11283
GICCH	I	2019/07/29	2019/07/29	201081	2019/07/29		40203010	15306
GICCH	I	2020/01/20	2020/01/20	33441	2020/01/20	50203010	35202010	16342
EDI_ENDOFFILE
